(module Pin_Header_Straight_1x02_Pitch2.00mm (layer F.Cu) (tedit 59B62E16)
  (descr "Through hole straight pin header, 1x02, 2.00mm pitch, single row")
  (tags "Through hole pin header THT 1x02 2.00mm single row")
  (fp_text reference REF** (at -0.127 -1.905) (layer F.SilkS)
    (effects (font (size 0.5 0.5) (thickness 0.12)))
  )
  (fp_text value Pin_Header_Straight_1x02_Pitch2.00mm (at 0 3.937) (layer F.Fab)
    (effects (font (size 0.5 0.5) (thickness 0.12)))
  )
  (fp_line (start -0.5 -1) (end 1 -1) (layer F.Fab) (width 0.1))
  (fp_line (start 1 -1) (end 1 3) (layer F.Fab) (width 0.1))
  (fp_line (start 1 3) (end -1 3) (layer F.Fab) (width 0.1))
  (fp_line (start -1 3) (end -1 -0.5) (layer F.Fab) (width 0.1))
  (fp_line (start -1 -0.5) (end -0.5 -1) (layer F.Fab) (width 0.1))
  (fp_line (start -1.06 3.06) (end 1.06 3.06) (layer F.SilkS) (width 0.12))
  (fp_line (start -1.06 1) (end -1.06 3.06) (layer F.SilkS) (width 0.12))
  (fp_line (start 1.06 1) (end 1.06 3.06) (layer F.SilkS) (width 0.12))
  (fp_line (start -1.06 1) (end 1.06 1) (layer F.SilkS) (width 0.12))
  (fp_line (start -1.06 0) (end -1.06 -1.06) (layer F.SilkS) (width 0.12))
  (fp_line (start -1.06 -1.06) (end 0 -1.06) (layer F.SilkS) (width 0.12))
  (fp_line (start -1.5 -1.5) (end -1.5 3.5) (layer F.CrtYd) (width 0.05))
  (fp_line (start -1.5 3.5) (end 1.5 3.5) (layer F.CrtYd) (width 0.05))
  (fp_line (start 1.5 3.5) (end 1.5 -1.5) (layer F.CrtYd) (width 0.05))
  (fp_line (start 1.5 -1.5) (end -1.5 -1.5) (layer F.CrtYd) (width 0.05))
  (pad 1 thru_hole rect (at 0 0) (size 1.8 1.524) (drill 0.8) (layers *.Cu *.Mask))
  (pad 2 thru_hole oval (at 0 2) (size 1.8 1.524) (drill 0.8) (layers *.Cu *.Mask))
  (model ${KIPRJMOD}/../.shape/Pin_Header_Straight_1x02_Pitch2.00mm.wrl
    (at (xyz 0 0 0))
    (scale (xyz 1 1 1))
    (rotate (xyz 0 0 0))
  )
)
