(module TO-269AA (layer F.Cu) (tedit 5A574904)
  (fp_text reference REF** (at -2.921 0 90) (layer F.SilkS)
    (effects (font (size 0.5 0.5) (thickness 0.12)))
  )
  (fp_text value TO-269AA (at 3.048 0 90) (layer F.Fab)
    (effects (font (size 0.5 0.5) (thickness 0.12)))
  )
  (fp_text user + (at -1.27 1.397) (layer F.SilkS)
    (effects (font (size 0.7 0.7) (thickness 0.15)))
  )
  (fp_text user - (at 1.143 1.397) (layer F.SilkS)
    (effects (font (size 0.7 0.7) (thickness 0.15)))
  )
  (fp_text user ~~ (at -1.27 -1.651) (layer F.SilkS)
    (effects (font (size 1 1) (thickness 0.15)))
  )
  (fp_text user ~~ (at 1.27 -1.651) (layer F.SilkS)
    (effects (font (size 1 1) (thickness 0.15)))
  )
  (fp_text user ~ (at 1.27 -1.651) (layer F.SilkS)
    (effects (font (size 1 1) (thickness 0.15)))
  )
  (fp_line (start -2.475 -2.05) (end -2.475 2.05) (layer F.SilkS) (width 0.15))
  (fp_line (start -2.475 2.05) (end 2.475 2.05) (layer F.SilkS) (width 0.15))
  (fp_line (start 2.475 2.05) (end 2.475 -2.05) (layer F.SilkS) (width 0.15))
  (fp_line (start 2.475 -2.05) (end -2.475 -2.05) (layer F.SilkS) (width 0.15))
  (pad 1 smd rect (at -1.27 3.175) (size 0.7 0.9) (layers F.Cu F.Paste F.Mask))
  (pad 2 smd rect (at 1.27 3.175) (size 0.7 0.9) (layers F.Cu F.Paste F.Mask))
  (pad 3 smd rect (at 1.27 -3.175) (size 0.7 0.9) (layers F.Cu F.Paste F.Mask))
  (pad 4 smd rect (at -1.27 -3.175) (size 0.7 0.9) (layers F.Cu F.Paste F.Mask))
  (model ${KIPRJMOD}/../.shape/TO-269AA.wrl
    (at (xyz 0 0 0))
    (scale (xyz 0.3937 0.3937 0.3937))
    (rotate (xyz -90 0 90))
  )
)
