EESchema Schematic File Version 2
LIBS:power
LIBS:device
LIBS:transistors
LIBS:conn
LIBS:linear
LIBS:regul
LIBS:74xx
LIBS:cmos4000
LIBS:adc-dac
LIBS:memory
LIBS:xilinx
LIBS:microcontrollers
LIBS:dsp
LIBS:microchip
LIBS:analog_switches
LIBS:motorola
LIBS:texas
LIBS:intel
LIBS:audio
LIBS:interface
LIBS:digital-audio
LIBS:philips
LIBS:display
LIBS:cypress
LIBS:siliconi
LIBS:opto
LIBS:atmel
LIBS:contrib
LIBS:valves
LIBS:stm32
LIBS:common
LIBS:switches
LIBS:addon
LIBS:radio
LIBS:project-cache
EELAYER 25 0
EELAYER END
$Descr A4 11693 8268
encoding utf-8
Sheet 1 3
Title ""
Date "28 dec 2014"
Rev ""
Comp ""
Comment1 ""
Comment2 ""
Comment3 ""
Comment4 ""
$EndDescr
$Comp
L C CF2
U 1 1 54874F2E
P 8100 1950
F 0 "CF2" H 8100 2050 40  0000 L CNN
F 1 "10n" H 8106 1865 40  0000 L CNN
F 2 "Local:C_0603" H 8200 1800 30  0001 C CNN
F 3 "" H 8100 1950 60  0000 C CNN
	1    8100 1950
	1    0    0    -1  
$EndComp
$Comp
L C CF1
U 1 1 54874F34
P 7800 1950
F 0 "CF1" H 7800 2050 40  0000 L CNN
F 1 "10n" H 7806 1865 40  0000 L CNN
F 2 "Local:C_0603" H 7900 1800 30  0001 C CNN
F 3 "" H 7800 1950 60  0000 C CNN
	1    7800 1950
	1    0    0    -1  
$EndComp
$Comp
L TH TH1
U 1 1 5492843E
P 10550 1100
F 0 "TH1" V 10650 1100 50  0000 C CNN
F 1 "10K" V 10550 1100 50  0000 C CNN
F 2 "Local:R_0603" V 10400 1100 30  0001 C CNN
F 3 "" H 10550 1100 60  0000 C CNN
	1    10550 1100
	0    1    -1   0   
$EndComp
$Comp
L TH TH2
U 1 1 54928444
P 10550 2000
F 0 "TH2" V 10650 2000 50  0000 C CNN
F 1 "10K" V 10550 2000 50  0000 C CNN
F 2 "Local:R_0603" V 10400 2000 30  0001 C CNN
F 3 "" H 10550 2000 60  0000 C CNN
	1    10550 2000
	0    1    -1   0   
$EndComp
$Comp
L R RT1
U 1 1 5492845C
P 8900 1950
F 0 "RT1" V 8980 1950 40  0000 C CNN
F 1 "4K7" V 8907 1951 40  0000 C CNN
F 2 "Local:R_0603" V 8830 1950 30  0001 C CNN
F 3 "" H 8900 1950 30  0000 C CNN
	1    8900 1950
	-1   0    0    -1  
$EndComp
$Comp
L R RT2
U 1 1 54928462
P 9100 1950
F 0 "RT2" V 9180 1950 40  0000 C CNN
F 1 "4K7" V 9107 1951 40  0000 C CNN
F 2 "Local:R_0603" V 9030 1950 30  0001 C CNN
F 3 "" H 9100 1950 30  0000 C CNN
	1    9100 1950
	-1   0    0    -1  
$EndComp
$Comp
L R RH3
U 1 1 54968537
P 10550 2300
F 0 "RH3" V 10630 2300 40  0000 C CNN
F 1 "150" V 10557 2301 40  0000 C CNN
F 2 "Local:R_0603" V 10480 2300 30  0001 C CNN
F 3 "" H 10550 2300 30  0000 C CNN
	1    10550 2300
	0    1    -1   0   
$EndComp
$Comp
L R RH1
U 1 1 55302D1A
P 10550 1400
F 0 "RH1" V 10630 1400 40  0000 C CNN
F 1 "150" V 10557 1401 40  0000 C CNN
F 2 "Local:R_0603" V 10480 1400 30  0001 C CNN
F 3 "" H 10550 1400 30  0000 C CNN
	1    10550 1400
	0    1    -1   0   
$EndComp
$Comp
L R RH2
U 1 1 555EF2F9
P 10550 1700
F 0 "RH2" V 10630 1700 40  0000 C CNN
F 1 "150" V 10557 1701 40  0000 C CNN
F 2 "Local:R_0603" V 10480 1700 30  0001 C CNN
F 3 "" H 10550 1700 30  0000 C CNN
	1    10550 1700
	0    1    -1   0   
$EndComp
$Comp
L R RH4
U 1 1 555F0312
P 10550 2600
F 0 "RH4" V 10630 2600 40  0000 C CNN
F 1 "150" V 10557 2601 40  0000 C CNN
F 2 "Local:R_0603" V 10480 2600 30  0001 C CNN
F 3 "" H 10550 2600 30  0000 C CNN
	1    10550 2600
	0    1    -1   0   
$EndComp
$Comp
L Q_NPN_BEC QS1
U 1 1 555FB130
P 9300 2700
F 0 "QS1" H 9300 2850 40  0000 R CNN
F 1 "MMBT3904" V 9550 2700 40  0000 C CNN
F 2 "Local:SOT-23" H 9100 2802 29  0001 C CNN
F 3 "" H 9300 2700 60  0000 C CNN
	1    9300 2700
	1    0    0    -1  
$EndComp
$Comp
L R RS1
U 1 1 555FB28A
P 8850 2700
F 0 "RS1" V 8930 2700 40  0000 C CNN
F 1 "1K" V 8857 2701 40  0000 C CNN
F 2 "Local:R_0603" V 8780 2700 30  0001 C CNN
F 3 "" H 8850 2700 30  0000 C CNN
	1    8850 2700
	0    1    -1   0   
$EndComp
$Comp
L STM32F100C U1
U 1 1 55607C31
P 3800 2100
F 0 "U1" H 3800 3650 60  0000 C CNN
F 1 "STM32F100C" H 3800 1300 60  0000 C CNN
F 2 "Local:LQFP-48_7x7mm_Pitch0.5mm" H 3800 900 60  0001 C CNN
F 3 "" H 4250 2050 60  0000 C CNN
	1    3800 2100
	1    0    0    -1  
$EndComp
$Comp
L GND #PWR01
U 1 1 55607C3A
P 6600 3100
F 0 "#PWR01" H 6600 2850 60  0001 C CNN
F 1 "GND" V 6600 2900 60  0000 C CNN
F 2 "" H 6600 3100 60  0000 C CNN
F 3 "" H 6600 3100 60  0000 C CNN
	1    6600 3100
	0    -1   -1   0   
$EndComp
$Comp
L +3V3 #PWR02
U 1 1 55607C40
P 6500 2400
F 0 "#PWR02" H 6500 2250 60  0001 C CNN
F 1 "+3V3" V 6500 2650 60  0000 C CNN
F 2 "" H 6500 2400 60  0000 C CNN
F 3 "" H 6500 2400 60  0000 C CNN
	1    6500 2400
	0    1    1    0   
$EndComp
$Comp
L R R3
U 1 1 55611935
P 10200 5550
F 0 "R3" V 10280 5550 40  0000 C CNN
F 1 "4K7" V 10207 5551 40  0000 C CNN
F 2 "Local:R_0603" V 10130 5550 30  0001 C CNN
F 3 "" H 10200 5550 30  0000 C CNN
	1    10200 5550
	-1   0    0    1   
$EndComp
$Comp
L R R4
U 1 1 5561193B
P 10400 5550
F 0 "R4" V 10480 5550 40  0000 C CNN
F 1 "4K7" V 10407 5551 40  0000 C CNN
F 2 "Local:R_0603" V 10330 5550 30  0001 C CNN
F 3 "" H 10400 5550 30  0000 C CNN
	1    10400 5550
	-1   0    0    1   
$EndComp
$Comp
L CONN_01X04 P11
U 1 1 55620CAD
P 8600 5850
F 0 "P11" H 8600 6100 50  0000 C CNN
F 1 "WRT_SRT" V 8700 5850 50  0000 C CNN
F 2 "Local:Pin_Header_Straight_1x04_Pitch2.00mm" H 8600 5850 60  0001 C CNN
F 3 "" H 8600 5850 60  0000 C CNN
	1    8600 5850
	-1   0    0    1   
$EndComp
$Comp
L +3V3 #PWR03
U 1 1 55621031
P 8900 5600
F 0 "#PWR03" H 8900 5450 60  0001 C CNN
F 1 "+3V3" H 8900 5740 60  0000 C CNN
F 2 "" H 8900 5600 60  0000 C CNN
F 3 "" H 8900 5600 60  0000 C CNN
	1    8900 5600
	1    0    0    -1  
$EndComp
$Comp
L +3V3 #PWR04
U 1 1 5562C20B
P 9100 1200
F 0 "#PWR04" H 9100 1050 60  0001 C CNN
F 1 "+3V3" H 9100 1340 60  0000 C CNN
F 2 "" H 9100 1200 60  0000 C CNN
F 3 "" H 9100 1200 60  0000 C CNN
	1    9100 1200
	1    0    0    -1  
$EndComp
$Comp
L GND #PWR05
U 1 1 5562C64F
P 9400 3000
F 0 "#PWR05" H 9400 2750 60  0001 C CNN
F 1 "GND" H 9400 2850 60  0000 C CNN
F 2 "" H 9400 3000 60  0000 C CNN
F 3 "" H 9400 3000 60  0000 C CNN
	1    9400 3000
	1    0    0    -1  
$EndComp
$Comp
L GND #PWR06
U 1 1 5562E279
P 8900 6100
F 0 "#PWR06" H 8900 5850 60  0001 C CNN
F 1 "GND" H 8900 5950 60  0000 C CNN
F 2 "" H 8900 6100 60  0000 C CNN
F 3 "" H 8900 6100 60  0000 C CNN
	1    8900 6100
	1    0    0    -1  
$EndComp
$Comp
L GND #PWR07
U 1 1 5562E3B6
P 10200 6100
F 0 "#PWR07" H 10200 5850 60  0001 C CNN
F 1 "GND" H 10200 5950 60  0000 C CNN
F 2 "" H 10200 6100 60  0000 C CNN
F 3 "" H 10200 6100 60  0000 C CNN
	1    10200 6100
	1    0    0    -1  
$EndComp
NoConn ~ 1100 3200
NoConn ~ 1100 3400
NoConn ~ 1100 3500
NoConn ~ 1100 700 
NoConn ~ 1100 1200
NoConn ~ 1100 1300
NoConn ~ 1100 1400
NoConn ~ 6500 900 
NoConn ~ 1100 2200
NoConn ~ 6500 1100
NoConn ~ 6500 1300
NoConn ~ 6500 1400
NoConn ~ 6500 1500
NoConn ~ 6500 1600
NoConn ~ 6500 1000
$Comp
L D D61
U 1 1 5564CEA4
P 6150 5700
F 0 "D61" H 6150 5800 40  0000 C CNN
F 1 "1N4148" H 6150 5600 40  0000 C CNN
F 2 "Local:D_MiniMELF" H 6150 5700 60  0001 C CNN
F 3 "" H 6150 5700 60  0000 C CNN
	1    6150 5700
	1    0    0    -1  
$EndComp
$Comp
L R R61
U 1 1 5564CEAB
P 6500 5950
F 0 "R61" V 6580 5950 40  0000 C CNN
F 1 "120K" V 6507 5951 40  0000 C CNN
F 2 "Local:R_1206" V 6430 5950 30  0001 C CNN
F 3 "" H 6500 5950 30  0000 C CNN
	1    6500 5950
	-1   0    0    1   
$EndComp
$Comp
L R R60
U 1 1 5564CEB2
P 5550 7200
F 0 "R60" V 5630 7200 40  0000 C CNN
F 1 "120K" V 5557 7201 40  0000 C CNN
F 2 "Local:R_1206" V 5480 7200 30  0001 C CNN
F 3 "" H 5550 7200 30  0000 C CNN
	1    5550 7200
	0    -1   -1   0   
$EndComp
$Comp
L Q_PNP_BEC Q60
U 1 1 5564CEBB
P 5600 5900
F 0 "Q60" H 5550 6050 40  0000 R CNN
F 1 "BC807-40" H 5550 5800 40  0000 R CNN
F 2 "Local:SOT-23" H 5400 6002 29  0001 C CNN
F 3 "" H 5600 5900 60  0000 C CNN
	1    5600 5900
	-1   0    0    -1  
$EndComp
$Comp
L C C60
U 1 1 5564CEC2
P 5750 6800
F 0 "C60" H 5800 6900 50  0000 L CNN
F 1 "470n" V 5850 6550 50  0000 L CNN
F 2 "Local:C_0805" H 5788 6650 30  0001 C CNN
F 3 "" H 5750 6800 60  0000 C CNN
	1    5750 6800
	0    -1   1    0   
$EndComp
$Comp
L R R62
U 1 1 5564CEC9
P 5500 6350
F 0 "R62" V 5580 6350 50  0000 C CNN
F 1 "22" V 5507 6351 50  0000 C CNN
F 2 "Local:R_0603" V 5430 6350 30  0001 C CNN
F 3 "" H 5500 6350 30  0000 C CNN
	1    5500 6350
	-1   0    0    -1  
$EndComp
$Comp
L D D60
U 1 1 5564CED0
P 5700 6350
F 0 "D60" H 5700 6450 40  0000 C CNN
F 1 "1N4148" H 5600 6250 40  0000 C CNN
F 2 "Local:D_MiniMELF" H 5700 6350 60  0001 C CNN
F 3 "" H 5700 6350 60  0000 C CNN
	1    5700 6350
	0    -1   -1   0   
$EndComp
$Comp
L R R63
U 1 1 5564CED7
P 6100 6350
F 0 "R63" V 6180 6350 40  0000 C CNN
F 1 "330K" V 6107 6351 40  0000 C CNN
F 2 "Local:R_0603" V 6030 6350 30  0001 C CNN
F 3 "" H 6100 6350 30  0000 C CNN
	1    6100 6350
	-1   0    0    -1  
$EndComp
$Comp
L D_Zener D62
U 1 1 5564CEDE
P 6300 6350
F 0 "D62" H 6300 6450 50  0000 C CNN
F 1 "20V" H 6300 6250 50  0000 C CNN
F 2 "Local:D_MiniMELF" H 6300 6350 60  0001 C CNN
F 3 "" H 6300 6350 60  0000 C CNN
	1    6300 6350
	0    -1   1    0   
$EndComp
$Comp
L CONN_01X02 P90
U 1 1 556526B5
P 3300 5950
F 0 "P90" H 3300 6100 50  0000 C CNN
F 1 "LOAD_PWR" V 3400 5950 50  0000 C CNN
F 2 "Local:DG301-5.0-02P" H 3300 5950 60  0001 C CNN
F 3 "" H 3300 5950 60  0000 C CNN
	1    3300 5950
	1    0    0    -1  
$EndComp
$Comp
L Q_TRIAC_AAG U71
U 1 1 556590BC
P 2500 6550
F 0 "U71" H 2750 6650 50  0000 C CNN
F 1 "BTA12" H 2750 6550 50  0000 C CNN
F 2 "Local:TO-220-3_Vertical" H 2500 6550 60  0001 C CNN
F 3 "" H 2500 6550 60  0000 C CNN
	1    2500 6550
	1    0    0    -1  
$EndComp
$Comp
L R R70
U 1 1 556590C8
P 1100 6150
F 0 "R70" V 1180 6150 40  0000 C CNN
F 1 "150" V 1107 6151 40  0000 C CNN
F 2 "Local:R_0603" V 1030 6150 30  0001 C CNN
F 3 "" H 1100 6150 30  0000 C CNN
	1    1100 6150
	-1   0    0    1   
$EndComp
$Comp
L R R71
U 1 1 556590CF
P 1900 6050
F 0 "R71" V 1980 6050 40  0000 C CNN
F 1 "180" V 1907 6051 40  0000 C CNN
F 2 "Local:R_1206" V 1830 6050 30  0001 C CNN
F 3 "" H 1900 6050 30  0000 C CNN
	1    1900 6050
	-1   0    0    1   
$EndComp
$Comp
L R R72
U 1 1 556590D5
P 2500 6050
F 0 "R72" V 2580 6050 40  0000 C CNN
F 1 "2K4" V 2507 6051 40  0000 C CNN
F 2 "Local:R_1206" V 2430 6050 30  0001 C CNN
F 3 "" H 2500 6050 30  0000 C CNN
	1    2500 6050
	-1   0    0    -1  
$EndComp
$Comp
L C C70
U 1 1 556590DB
P 2200 6450
F 0 "C70" H 2200 6550 40  0000 L CNN
F 1 "100n" H 2206 6365 40  0000 L CNN
F 2 "Local:C_1206" H 2238 6300 30  0001 C CNN
F 3 "" H 2200 6450 60  0000 C CNN
	1    2200 6450
	-1   0    0    -1  
$EndComp
$Comp
L CONN_01X02 P70
U 1 1 556590E2
P 3300 6750
F 0 "P70" H 3300 6900 50  0000 C CNN
F 1 "LOAD" V 3400 6750 50  0000 C CNN
F 2 "Local:DG301-5.0-02P" H 3300 6750 60  0001 C CNN
F 3 "" H 3300 6750 60  0000 C CNN
	1    3300 6750
	1    0    0    1   
$EndComp
$Comp
L +3V3 #PWR08
U 1 1 5565E8DF
P 1100 5900
F 0 "#PWR08" H 1100 5750 60  0001 C CNN
F 1 "+3V3" H 1100 6040 60  0000 C CNN
F 2 "" H 1100 5900 60  0000 C CNN
F 3 "" H 1100 5900 60  0000 C CNN
	1    1100 5900
	1    0    0    -1  
$EndComp
$Comp
L GND #PWR09
U 1 1 556617DA
P 4500 6600
F 0 "#PWR09" H 4500 6350 60  0001 C CNN
F 1 "GND" H 4500 6450 60  0000 C CNN
F 2 "" H 4500 6600 60  0000 C CNN
F 3 "" H 4500 6600 60  0000 C CNN
	1    4500 6600
	1    0    0    -1  
$EndComp
Text Notes 3250 5400 0    60   ~ 0
HIGH VOLTAGE PART
$Comp
L CONN_01X04 P10
U 1 1 5566F83E
P 9700 5850
F 0 "P10" H 9700 6100 50  0000 C CNN
F 1 "HUM_I2C" V 9800 5850 50  0000 C CNN
F 2 "Local:AM2320" H 9700 5850 60  0001 C CNN
F 3 "" H 9700 5850 60  0000 C CNN
	1    9700 5850
	-1   0    0    -1  
$EndComp
Text Notes 8750 5200 0    60   ~ 0
INTERFACES
$Comp
L +3V3 #PWR010
U 1 1 55671A0D
P 9800 5400
F 0 "#PWR010" H 9800 5250 60  0001 C CNN
F 1 "+3V3" H 9800 5540 60  0000 C CNN
F 2 "" H 9800 5400 60  0000 C CNN
F 3 "" H 9800 5400 60  0000 C CNN
	1    9800 5400
	1    0    0    -1  
$EndComp
Text Notes 9200 800  0    60   ~ 0
SENSOR
Wire Wire Line
	8900 6000 8900 6100
Wire Wire Line
	8800 6000 8900 6000
Wire Wire Line
	8800 5900 9000 5900
Wire Wire Line
	8800 5700 9000 5700
Wire Wire Line
	9900 5800 10200 5800
Wire Wire Line
	10200 5800 10600 5800
Wire Wire Line
	9900 6000 10400 6000
Wire Wire Line
	10400 6000 10600 6000
Wire Wire Line
	10200 6100 10200 5900
Wire Wire Line
	10200 5900 9900 5900
Wire Wire Line
	7800 1400 8900 1400
Wire Wire Line
	8900 1400 10200 1400
Wire Wire Line
	8100 1500 9100 1500
Wire Wire Line
	9100 1500 10200 1500
Wire Wire Line
	8900 1400 8900 1800
Wire Wire Line
	7800 2100 7800 2300
Wire Wire Line
	7800 2300 8100 2300
Wire Wire Line
	8100 2300 8400 2300
Wire Wire Line
	8400 2300 8900 2300
Wire Wire Line
	8900 2300 9100 2300
Wire Wire Line
	9100 2300 9300 2300
Wire Wire Line
	8100 2100 8100 2300
Wire Wire Line
	8100 2300 8100 2400
Wire Wire Line
	8100 1300 8100 1500
Wire Wire Line
	8100 1500 8100 1800
Wire Wire Line
	7800 1300 7800 1400
Wire Wire Line
	7800 1400 7800 1800
Connection ~ 8100 1500
Wire Wire Line
	10800 900  10800 1400
Wire Wire Line
	10800 1400 10800 1700
Wire Wire Line
	10800 1700 10800 2300
Wire Wire Line
	10800 2300 10800 2600
Wire Wire Line
	10700 1400 10800 1400
Wire Wire Line
	10800 2300 10700 2300
Wire Wire Line
	10300 2300 10400 2300
Wire Wire Line
	10300 1400 10400 1400
Wire Wire Line
	10300 1200 10300 1400
Wire Wire Line
	10300 1400 10300 1700
Wire Wire Line
	10300 1700 10300 2300
Wire Wire Line
	10300 2300 10300 2600
Wire Wire Line
	10200 2000 10400 2000
Wire Wire Line
	10400 1100 10200 1100
Wire Wire Line
	10200 1500 10200 2000
Wire Wire Line
	9100 1500 9100 1800
Wire Wire Line
	8900 2300 8900 2100
Wire Wire Line
	9100 2300 9100 2100
Connection ~ 8900 1400
Wire Wire Line
	9100 1300 10100 1300
Wire Wire Line
	9100 1300 9100 1200
Wire Wire Line
	10800 1700 10700 1700
Wire Wire Line
	10400 1700 10300 1700
Connection ~ 10300 1700
Wire Wire Line
	10800 2600 10700 2600
Wire Wire Line
	10300 2600 10400 2600
Connection ~ 10300 2300
Connection ~ 10800 2300
Connection ~ 10800 1400
Connection ~ 10800 1700
Wire Wire Line
	10800 900  10100 900 
Wire Wire Line
	10100 900  10100 1300
Wire Wire Line
	10200 1100 10200 1400
Connection ~ 10300 1400
Connection ~ 9100 1500
Wire Wire Line
	9100 2700 9000 2700
Wire Wire Line
	8700 2700 8600 2700
Connection ~ 8900 2300
Connection ~ 8100 2300
Wire Wire Line
	9400 1200 9400 2500
Wire Wire Line
	9400 2900 9400 3000
Wire Wire Line
	1200 2000 1100 2000
Wire Wire Line
	1200 2100 1100 2100
Wire Wire Line
	6400 3100 6500 3100
Wire Wire Line
	6500 3100 6600 3100
Wire Wire Line
	6500 2900 6500 3000
Wire Wire Line
	6500 3000 6500 3100
Wire Wire Line
	6400 3000 6500 3000
Wire Wire Line
	6400 3300 6500 3300
Wire Wire Line
	6500 3300 6600 3300
Wire Wire Line
	6500 3500 6400 3500
Wire Wire Line
	6400 3400 6500 3400
Connection ~ 6500 3400
Wire Wire Line
	1200 2600 1100 2600
Wire Wire Line
	1200 2800 1100 2800
Wire Wire Line
	1200 2900 1100 2900
Wire Wire Line
	1200 3200 1100 3200
Wire Wire Line
	1200 3400 1100 3400
Wire Wire Line
	1200 3500 1100 3500
Wire Wire Line
	1200 2200 1100 2200
Connection ~ 6500 3300
Wire Wire Line
	6400 2700 6500 2700
Wire Wire Line
	1200 1500 1100 1500
Wire Wire Line
	1200 1600 1100 1600
Wire Wire Line
	1200 700  1100 700 
Wire Wire Line
	1200 800  1100 800 
Wire Wire Line
	6500 700  6400 700 
Wire Wire Line
	6500 800  6400 800 
Wire Wire Line
	6500 900  6400 900 
Wire Wire Line
	6500 1000 6400 1000
Wire Wire Line
	6500 1100 6400 1100
Wire Wire Line
	6500 1200 6400 1200
Wire Wire Line
	6500 1300 6400 1300
Wire Wire Line
	6500 1400 6400 1400
Wire Wire Line
	6500 1500 6400 1500
Wire Wire Line
	6500 1600 6400 1600
Wire Wire Line
	6500 1700 6400 1700
Wire Wire Line
	6500 1800 6400 1800
Wire Wire Line
	6500 1900 6400 1900
Wire Wire Line
	6500 2000 6400 2000
Wire Wire Line
	6500 2100 6400 2100
Wire Wire Line
	6500 2200 6400 2200
Wire Wire Line
	1200 900  1100 900 
Wire Wire Line
	1200 1000 1100 1000
Wire Wire Line
	1100 1700 1200 1700
Wire Wire Line
	1100 1800 1200 1800
Wire Wire Line
	1100 1900 1200 1900
Wire Wire Line
	1200 1100 1100 1100
Wire Wire Line
	1200 1200 1100 1200
Wire Wire Line
	1200 1300 1100 1300
Wire Wire Line
	1200 1400 1100 1400
Wire Wire Line
	1200 2400 1100 2400
Connection ~ 6500 3100
Wire Wire Line
	10200 5700 10200 5800
Connection ~ 10200 5800
Wire Wire Line
	10400 5700 10400 6000
Connection ~ 10400 6000
Wire Wire Line
	10200 5400 10200 5300
Wire Wire Line
	10000 5300 10200 5300
Wire Wire Line
	10200 5300 10400 5300
Wire Wire Line
	8800 5800 8900 5800
Wire Wire Line
	8900 5800 8900 5600
Wire Wire Line
	4500 6300 4600 6300
Wire Wire Line
	4500 6500 4500 6600
Wire Wire Line
	5500 6200 5500 6100
Wire Wire Line
	5500 6500 5500 6600
Wire Wire Line
	5500 6600 5500 6800
Wire Wire Line
	5500 6600 5700 6600
Connection ~ 5500 6600
Wire Wire Line
	5300 6500 5300 7000
Wire Wire Line
	5300 7000 5300 7200
Wire Wire Line
	5300 7000 6100 7000
Wire Wire Line
	6100 7000 6300 7000
Wire Wire Line
	5500 5600 5500 5700
Wire Wire Line
	5300 5600 5500 5600
Wire Wire Line
	5800 5900 5900 5900
Wire Wire Line
	5900 5900 6100 5900
Wire Wire Line
	6100 5900 6300 5900
Wire Wire Line
	6100 5900 6100 6100
Wire Wire Line
	6100 6100 6100 6200
Wire Wire Line
	6100 6500 6100 6800
Wire Wire Line
	6100 6800 6100 7000
Wire Wire Line
	5700 6600 5700 6500
Wire Wire Line
	5700 6200 5700 6100
Wire Wire Line
	5700 6100 6100 6100
Connection ~ 6100 6100
Wire Wire Line
	5500 6800 5600 6800
Wire Wire Line
	5900 6800 6100 6800
Connection ~ 6100 6800
Wire Wire Line
	6300 5900 6300 6200
Wire Wire Line
	6300 7000 6300 6500
Connection ~ 6100 5900
Connection ~ 6100 7000
Wire Wire Line
	6500 6100 6500 6200
Wire Wire Line
	5300 7200 5400 7200
Wire Wire Line
	5700 7200 5800 7200
Wire Wire Line
	6300 5700 6500 5700
Wire Wire Line
	6500 5700 6500 5800
Wire Wire Line
	6000 5700 5900 5700
Wire Wire Line
	5900 5700 5900 5900
Connection ~ 5900 5900
Wire Wire Line
	5300 5600 5300 6300
Wire Wire Line
	3100 6000 3000 6000
Wire Wire Line
	3100 5900 3000 5900
Wire Wire Line
	900  6600 1200 6600
Wire Wire Line
	2350 6650 1900 6650
Wire Wire Line
	1900 5800 2200 5800
Wire Wire Line
	2200 5800 2500 5800
Wire Wire Line
	1900 5800 1900 5900
Wire Wire Line
	2500 6200 2500 6300
Wire Wire Line
	2500 6300 2500 6400
Wire Wire Line
	2200 5800 2200 6300
Connection ~ 2200 5800
Wire Wire Line
	2200 6600 2200 6800
Wire Wire Line
	2200 6800 2500 6800
Wire Wire Line
	2500 6800 3100 6800
Wire Wire Line
	2500 6800 2500 6700
Connection ~ 2500 6800
Wire Wire Line
	3100 6700 3000 6700
Wire Wire Line
	1100 6000 1100 5900
Wire Notes Line
	600  5100 600  7600
Wire Notes Line
	600  7600 6800 7600
Wire Notes Line
	6800 7600 6800 5100
Wire Notes Line
	6800 5100 600  5100
Wire Wire Line
	10000 5700 9900 5700
Wire Wire Line
	10000 5300 10000 5500
Wire Wire Line
	10000 5500 10000 5700
Wire Notes Line
	11100 6400 7000 6400
Wire Wire Line
	10400 5300 10400 5400
Connection ~ 10200 5300
Wire Wire Line
	9800 5400 9800 5500
Wire Wire Line
	9800 5500 10000 5500
Connection ~ 10000 5500
Wire Notes Line
	11100 5000 7000 5000
Wire Notes Line
	11100 5000 11100 6400
Wire Notes Line
	7000 5000 7000 6400
Wire Notes Line
	7600 600  7600 3300
Wire Notes Line
	7600 3300 11100 3300
Wire Notes Line
	11100 3300 11100 600 
Wire Notes Line
	11100 600  7600 600 
$Comp
L GND #PWR011
U 1 1 555FC65D
P 6000 4800
F 0 "#PWR011" H 6000 4550 60  0001 C CNN
F 1 "GND" H 6000 4650 60  0000 C CNN
F 2 "" H 6000 4800 60  0000 C CNN
F 3 "" H 6000 4800 60  0000 C CNN
	1    6000 4800
	1    0    0    -1  
$EndComp
$Comp
L SW_Push SW1
U 1 1 555FCBA5
P 6000 4500
F 0 "SW1" H 6150 4610 50  0000 C CNN
F 1 "CFG_BTN" H 6000 4420 50  0000 C CNN
F 2 "Local:MICRO_SW" H 6000 4500 60  0001 C CNN
F 3 "" H 6000 4500 60  0000 C CNN
	1    6000 4500
	0    -1   -1   0   
$EndComp
Wire Wire Line
	1900 6650 1900 6600
Wire Wire Line
	1900 6200 1900 6400
Wire Wire Line
	2500 5800 2500 5900
Wire Wire Line
	2500 6300 2600 6300
Connection ~ 2500 6300
Wire Wire Line
	1100 6400 1100 6300
Connection ~ 5300 7000
Text Label 10300 2600 1    60   ~ 0
SENS_HTR
$Sheet
S 7000 3900 1300 700 
U 5A574997
F0 "Supply" 60
F1 "supply.sch" 60
$EndSheet
Text GLabel 3000 5900 0    47   Input ~ 0
ZERO
Text GLabel 3000 6000 0    47   Input ~ 0
LINE
Text GLabel 3000 6700 0    47   Input ~ 0
LINE
Text GLabel 2600 6300 2    47   Input ~ 0
ZERO
$Comp
L LTV-817 U60
U 1 1 5A5786A4
P 4900 6400
F 0 "U60" H 4900 6600 50  0000 C CNN
F 1 "LTV-356T" H 4900 6200 50  0000 C CNN
F 2 "Local:MiniFLAT_04P" H 4700 6200 50  0001 L CIN
F 3 "" H 4900 6300 50  0000 L CNN
	1    4900 6400
	-1   0    0    -1  
$EndComp
Wire Wire Line
	5300 6300 5200 6300
Wire Wire Line
	5200 6500 5300 6500
Wire Wire Line
	4600 6500 4500 6500
$Comp
L MOC3023M U70
U 1 1 5A579B85
P 1500 6500
F 0 "U70" H 1500 6700 50  0000 C CNN
F 1 "MOC3022M" H 1500 6300 50  0000 C CNN
F 2 "Local:DIP-6_W7.62mm" H 1300 6300 50  0001 L CIN
F 3 "" H 1475 6500 50  0000 L CNN
	1    1500 6500
	1    0    0    -1  
$EndComp
Wire Wire Line
	1900 6600 1800 6600
Wire Wire Line
	1900 6400 1800 6400
Wire Wire Line
	1200 6400 1100 6400
$Comp
L TH TH3
U 1 1 5A58283A
P 10550 2900
F 0 "TH3" V 10650 2900 50  0000 C CNN
F 1 "10K" V 10550 2900 50  0000 C CNN
F 2 "Local:R_0603" V 10400 2900 30  0001 C CNN
F 3 "" H 10550 2900 60  0000 C CNN
	1    10550 2900
	0    1    -1   0   
$EndComp
$Comp
L R RT3
U 1 1 5A582F27
P 9300 1950
F 0 "RT3" V 9380 1950 40  0000 C CNN
F 1 "4K7" V 9307 1951 40  0000 C CNN
F 2 "Local:R_0603" V 9230 1950 30  0001 C CNN
F 3 "" H 9300 1950 30  0000 C CNN
	1    9300 1950
	-1   0    0    -1  
$EndComp
$Comp
L C CF3
U 1 1 5A5837B3
P 8400 1950
F 0 "CF3" H 8400 2050 40  0000 L CNN
F 1 "10n" H 8406 1865 40  0000 L CNN
F 2 "Local:C_0603" H 8500 1800 30  0001 C CNN
F 3 "" H 8400 1950 60  0000 C CNN
	1    8400 1950
	1    0    0    -1  
$EndComp
Wire Wire Line
	10300 1200 9400 1200
Wire Wire Line
	8400 2100 8400 2300
Connection ~ 8400 2300
Wire Wire Line
	8400 1300 8400 1600
Wire Wire Line
	8400 1600 8400 1800
Wire Wire Line
	8400 1600 9300 1600
Wire Wire Line
	9300 1600 10100 1600
Connection ~ 8400 1600
Wire Wire Line
	9300 1600 9300 1800
Wire Wire Line
	9300 2300 9300 2100
Connection ~ 9100 2300
Wire Wire Line
	10100 2900 10400 2900
Wire Wire Line
	10100 1600 10100 2900
Connection ~ 9300 1600
$Comp
L C C4
U 1 1 5A5850DB
P 2200 4550
F 0 "C4" H 2050 4450 50  0000 L CNN
F 1 "100n" H 2000 4650 50  0000 L CNN
F 2 "Local:C_0603" H 2238 4400 30  0001 C CNN
F 3 "" H 2200 4550 60  0000 C CNN
	1    2200 4550
	1    0    0    1   
$EndComp
$Comp
L C C5
U 1 1 5A5850E2
P 2500 4550
F 0 "C5" H 2350 4450 50  0000 L CNN
F 1 "100n" H 2300 4650 50  0000 L CNN
F 2 "Local:C_0603" H 2538 4400 30  0001 C CNN
F 3 "" H 2500 4550 60  0000 C CNN
	1    2500 4550
	1    0    0    1   
$EndComp
$Comp
L C C6
U 1 1 5A5850E9
P 2800 4550
F 0 "C6" H 2650 4450 50  0000 L CNN
F 1 "100n" H 2600 4650 50  0000 L CNN
F 2 "Local:C_0603" H 2838 4400 30  0001 C CNN
F 3 "" H 2800 4550 60  0000 C CNN
	1    2800 4550
	1    0    0    1   
$EndComp
$Comp
L C C8
U 1 1 5A5850F0
P 3900 4550
F 0 "C8" H 3750 4450 50  0000 L CNN
F 1 "10n" H 3750 4650 50  0000 L CNN
F 2 "Local:C_0603" H 3938 4400 30  0001 C CNN
F 3 "" H 3900 4550 60  0000 C CNN
	1    3900 4550
	1    0    0    1   
$EndComp
$Comp
L C C1
U 1 1 5A5850F7
P 1600 4550
F 0 "C1" H 1650 4650 50  0000 L CNN
F 1 "100n" H 1650 4450 50  0000 L CNN
F 2 "Local:C_0603" H 1638 4400 30  0001 C CNN
F 3 "" H 1600 4550 60  0000 C CNN
	1    1600 4550
	-1   0    0    -1  
$EndComp
$Comp
L GND #PWR012
U 1 1 5A5850FE
P 1600 4800
F 0 "#PWR012" H 1600 4550 50  0001 C CNN
F 1 "GND" H 1600 4650 50  0000 C CNN
F 2 "" H 1600 4800 50  0000 C CNN
F 3 "" H 1600 4800 50  0000 C CNN
	1    1600 4800
	1    0    0    -1  
$EndComp
$Comp
L GND #PWR013
U 1 1 5A585104
P 2200 4800
F 0 "#PWR013" H 2200 4550 50  0001 C CNN
F 1 "GND" H 2200 4650 50  0000 C CNN
F 2 "" H 2200 4800 50  0000 C CNN
F 3 "" H 2200 4800 50  0000 C CNN
	1    2200 4800
	1    0    0    -1  
$EndComp
$Comp
L +3V3 #PWR014
U 1 1 5A58510A
P 2200 4300
F 0 "#PWR014" H 2200 4150 50  0001 C CNN
F 1 "+3V3" H 2200 4440 50  0000 C CNN
F 2 "" H 2200 4300 50  0000 C CNN
F 3 "" H 2200 4300 50  0000 C CNN
	1    2200 4300
	1    0    0    -1  
$EndComp
$Comp
L +3V3 #PWR015
U 1 1 5A585110
P 2500 4300
F 0 "#PWR015" H 2500 4150 50  0001 C CNN
F 1 "+3V3" H 2500 4440 50  0000 C CNN
F 2 "" H 2500 4300 50  0000 C CNN
F 3 "" H 2500 4300 50  0000 C CNN
	1    2500 4300
	1    0    0    -1  
$EndComp
$Comp
L +3V3 #PWR016
U 1 1 5A585116
P 2800 4300
F 0 "#PWR016" H 2800 4150 50  0001 C CNN
F 1 "+3V3" H 2800 4440 50  0000 C CNN
F 2 "" H 2800 4300 50  0000 C CNN
F 3 "" H 2800 4300 50  0000 C CNN
	1    2800 4300
	1    0    0    -1  
$EndComp
$Comp
L GND #PWR017
U 1 1 5A58511C
P 2500 4800
F 0 "#PWR017" H 2500 4550 50  0001 C CNN
F 1 "GND" H 2500 4650 50  0000 C CNN
F 2 "" H 2500 4800 50  0000 C CNN
F 3 "" H 2500 4800 50  0000 C CNN
	1    2500 4800
	1    0    0    -1  
$EndComp
$Comp
L GND #PWR018
U 1 1 5A585122
P 2800 4800
F 0 "#PWR018" H 2800 4550 50  0001 C CNN
F 1 "GND" H 2800 4650 50  0000 C CNN
F 2 "" H 2800 4800 50  0000 C CNN
F 3 "" H 2800 4800 50  0000 C CNN
	1    2800 4800
	1    0    0    -1  
$EndComp
$Comp
L CP C7
U 1 1 5A585128
P 3100 4550
F 0 "C7" H 3100 4650 50  0000 L CNN
F 1 "10u" H 3100 4450 50  0000 L CNN
F 2 "Local:C_0805" H 3138 4400 30  0001 C CNN
F 3 "" H 3100 4550 60  0000 C CNN
	1    3100 4550
	-1   0    0    -1  
$EndComp
$Comp
L GND #PWR019
U 1 1 5A58512F
P 3100 4800
F 0 "#PWR019" H 3100 4550 50  0001 C CNN
F 1 "GND" H 3100 4650 50  0000 C CNN
F 2 "" H 3100 4800 50  0000 C CNN
F 3 "" H 3100 4800 50  0000 C CNN
	1    3100 4800
	1    0    0    -1  
$EndComp
$Comp
L +3V3 #PWR020
U 1 1 5A585135
P 3100 4300
F 0 "#PWR020" H 3100 4150 50  0001 C CNN
F 1 "+3V3" H 3100 4440 50  0000 C CNN
F 2 "" H 3100 4300 50  0000 C CNN
F 3 "" H 3100 4300 50  0000 C CNN
	1    3100 4300
	1    0    0    -1  
$EndComp
Text GLabel 1600 4300 1    47   Input ~ 0
~RESET~
$Comp
L R R1
U 1 1 5A58513C
P 1300 4550
F 0 "R1" V 1200 4550 50  0000 C CNN
F 1 "10K" V 1300 4550 50  0000 C CNN
F 2 "Local:R_0603" V 1230 4550 30  0001 C CNN
F 3 "" H 1300 4550 30  0000 C CNN
	1    1300 4550
	1    0    0    -1  
$EndComp
Text GLabel 1300 4300 1    47   Input ~ 0
BOOT0
$Comp
L GND #PWR021
U 1 1 5A585144
P 1300 4800
F 0 "#PWR021" H 1300 4550 50  0001 C CNN
F 1 "GND" H 1300 4650 50  0000 C CNN
F 2 "" H 1300 4800 50  0000 C CNN
F 3 "" H 1300 4800 50  0000 C CNN
	1    1300 4800
	1    0    0    -1  
$EndComp
$Comp
L CP C9
U 1 1 5A58514A
P 4200 4550
F 0 "C9" H 4200 4650 50  0000 L CNN
F 1 "1u" H 4200 4450 50  0000 L CNN
F 2 "Local:C_0805" H 4238 4400 30  0001 C CNN
F 3 "" H 4200 4550 60  0000 C CNN
	1    4200 4550
	-1   0    0    -1  
$EndComp
Text GLabel 3900 4300 1    47   Input ~ 0
+3V3A
Text GLabel 4200 4300 1    47   Input ~ 0
+3V3A
Text Notes 3300 4800 1    47   ~ 0
CLOSE TO VDD3
Text Notes 4400 4800 1    47   ~ 0
CLOSE TO VDDA
$Comp
L GNDA #PWR022
U 1 1 5A585155
P 3900 4800
F 0 "#PWR022" H 3900 4550 50  0001 C CNN
F 1 "GNDA" H 3900 4650 50  0000 C CNN
F 2 "" H 3900 4800 50  0000 C CNN
F 3 "" H 3900 4800 50  0000 C CNN
	1    3900 4800
	1    0    0    -1  
$EndComp
$Comp
L GNDA #PWR023
U 1 1 5A58515B
P 4200 4800
F 0 "#PWR023" H 4200 4550 50  0001 C CNN
F 1 "GNDA" H 4200 4650 50  0000 C CNN
F 2 "" H 4200 4800 50  0000 C CNN
F 3 "" H 4200 4800 50  0000 C CNN
	1    4200 4800
	1    0    0    -1  
$EndComp
Wire Wire Line
	1600 4300 1600 4400
Wire Wire Line
	1600 4700 1600 4800
Wire Wire Line
	2200 4400 2200 4300
Wire Wire Line
	2200 4800 2200 4700
Wire Wire Line
	2500 4400 2500 4300
Wire Wire Line
	2800 4400 2800 4300
Wire Wire Line
	3900 4400 3900 4300
Wire Wire Line
	2500 4800 2500 4700
Wire Wire Line
	2800 4800 2800 4700
Wire Wire Line
	3900 4800 3900 4700
Wire Wire Line
	3100 4400 3100 4300
Wire Wire Line
	3100 4800 3100 4700
Wire Wire Line
	1300 4400 1300 4300
Wire Wire Line
	1300 4700 1300 4800
Wire Wire Line
	4200 4400 4200 4300
Wire Wire Line
	4200 4800 4200 4700
Text GLabel 1100 2400 0    47   Input ~ 0
~RESET~
Text GLabel 1100 2600 0    47   Input ~ 0
BOOT0
Text GLabel 1100 1000 0    47   Input ~ 0
SENS_T1
Text GLabel 1100 900  0    47   Input ~ 0
SENS_T0
Text GLabel 1100 800  0    47   Input ~ 0
SENS_TE
Text GLabel 1100 1900 0    47   Input ~ 0
~ZERO_DET
Text GLabel 1100 2000 0    47   Input ~ 0
SWDIO
Text GLabel 1100 2100 0    47   Input ~ 0
SWCLK
$Comp
L SWD P1
U 1 1 5A57A592
P 8000 5850
F 0 "P1" H 8000 6150 60  0000 C CNN
F 1 "SWD" V 8200 5850 60  0000 C CNN
F 2 "Local:Pin_Header_Straight_1x04_Pitch2.00mm" H 7950 5850 60  0001 C CNN
F 3 "" H 7950 5850 60  0000 C CNN
	1    8000 5850
	1    0    0    -1  
$EndComp
Text GLabel 7400 5700 0    47   Input ~ 0
SWDIO
Text GLabel 7400 5900 0    47   Input ~ 0
SWCLK
$Comp
L +3V3 #PWR024
U 1 1 5A57A59B
P 7500 5600
F 0 "#PWR024" H 7500 5450 50  0001 C CNN
F 1 "+3V3" H 7500 5740 50  0000 C CNN
F 2 "" H 7500 5600 50  0000 C CNN
F 3 "" H 7500 5600 50  0000 C CNN
	1    7500 5600
	1    0    0    -1  
$EndComp
$Comp
L GND #PWR025
U 1 1 5A57A5A1
P 7500 6100
F 0 "#PWR025" H 7500 5850 50  0001 C CNN
F 1 "GND" H 7500 5950 50  0000 C CNN
F 2 "" H 7500 6100 50  0000 C CNN
F 3 "" H 7500 6100 50  0000 C CNN
	1    7500 6100
	1    0    0    -1  
$EndComp
Wire Wire Line
	7400 5700 7600 5700
Wire Wire Line
	7600 6000 7500 6000
Wire Wire Line
	7600 5800 7500 5800
Wire Wire Line
	7400 5900 7600 5900
Wire Wire Line
	7500 6000 7500 6100
Wire Wire Line
	7500 5800 7500 5600
Text GLabel 4900 4200 1    47   Input ~ 0
OSC_IN
Text GLabel 5400 4200 1    47   Input ~ 0
OSC_OUT
$Comp
L Crystal Y1
U 1 1 5A57B21B
P 5150 4300
F 0 "Y1" H 5150 4450 50  0000 C CNN
F 1 "8MHz" H 5150 4150 50  0000 C CNN
F 2 "Local:Crystal_HC49-U_Vertical" H 5150 4300 60  0001 C CNN
F 3 "" H 5150 4300 60  0000 C CNN
	1    5150 4300
	1    0    0    -1  
$EndComp
$Comp
L C C2
U 1 1 5A57B222
P 4900 4550
F 0 "C2" H 4925 4650 50  0000 L CNN
F 1 "27p" H 4925 4450 50  0000 L CNN
F 2 "Local:C_0603" H 4938 4400 30  0001 C CNN
F 3 "" H 4900 4550 60  0000 C CNN
	1    4900 4550
	-1   0    0    -1  
$EndComp
$Comp
L C C3
U 1 1 5A57B229
P 5400 4550
F 0 "C3" H 5425 4650 50  0000 L CNN
F 1 "27p" H 5425 4450 50  0000 L CNN
F 2 "Local:C_0603" H 5438 4400 30  0001 C CNN
F 3 "" H 5400 4550 60  0000 C CNN
	1    5400 4550
	1    0    0    -1  
$EndComp
$Comp
L GND #PWR026
U 1 1 5A57B230
P 5400 4800
F 0 "#PWR026" H 5400 4550 50  0001 C CNN
F 1 "GND" H 5400 4650 50  0000 C CNN
F 2 "" H 5400 4800 60  0000 C CNN
F 3 "" H 5400 4800 60  0000 C CNN
	1    5400 4800
	1    0    0    -1  
$EndComp
$Comp
L GND #PWR027
U 1 1 5A57B236
P 4900 4800
F 0 "#PWR027" H 4900 4550 50  0001 C CNN
F 1 "GND" H 4900 4650 50  0000 C CNN
F 2 "" H 4900 4800 60  0000 C CNN
F 3 "" H 4900 4800 60  0000 C CNN
	1    4900 4800
	1    0    0    -1  
$EndComp
Wire Wire Line
	5400 4700 5400 4800
Wire Wire Line
	4900 4700 4900 4800
Connection ~ 4900 4300
Wire Wire Line
	5400 4300 5300 4300
Wire Wire Line
	4900 4300 5000 4300
Wire Wire Line
	4900 4200 4900 4300
Wire Wire Line
	4900 4300 4900 4400
Wire Wire Line
	5400 4200 5400 4300
Wire Wire Line
	5400 4300 5400 4400
Connection ~ 5400 4300
Text GLabel 6000 4200 1    47   Input ~ 0
~CFG_BTN
Wire Wire Line
	6500 2400 6400 2400
Wire Wire Line
	6500 3300 6500 3400
Wire Wire Line
	6500 3400 6500 3500
$Comp
L +3V3 #PWR028
U 1 1 5A57EE18
P 6600 3300
F 0 "#PWR028" H 6600 3150 60  0001 C CNN
F 1 "+3V3" V 6600 3550 60  0000 C CNN
F 2 "" H 6600 3300 60  0000 C CNN
F 3 "" H 6600 3300 60  0000 C CNN
	1    6600 3300
	0    1    1    0   
$EndComp
Wire Wire Line
	6400 2600 6500 2600
Wire Wire Line
	6400 2900 6500 2900
Connection ~ 6500 3000
Text GLabel 6500 2700 2    47   Input ~ 0
+3V3A
$Comp
L GNDA #PWR029
U 1 1 5A57F45B
P 6500 2600
F 0 "#PWR029" H 6500 2350 50  0001 C CNN
F 1 "GNDA" V 6500 2400 50  0000 C CNN
F 2 "" H 6500 2600 50  0000 C CNN
F 3 "" H 6500 2600 50  0000 C CNN
	1    6500 2600
	0    -1   -1   0   
$EndComp
Wire Wire Line
	10900 2900 10700 2900
Wire Wire Line
	10900 1100 10900 2000
Wire Wire Line
	10900 2000 10900 2900
Wire Wire Line
	10900 2900 10900 3100
Wire Wire Line
	10900 2000 10700 2000
Wire Wire Line
	10700 1100 10900 1100
Connection ~ 10900 2000
Wire Wire Line
	10900 3100 10000 3100
Wire Wire Line
	10000 3100 10000 1700
Wire Wire Line
	10000 1700 9500 1700
Wire Wire Line
	9500 1700 9500 1100
Connection ~ 10900 2900
Text GLabel 9500 1100 1    47   Input ~ 0
+3V3A
Text GLabel 5800 7200 2    47   Input ~ 0
ZERO
Text GLabel 6500 6200 3    47   Input ~ 0
HV_LINE
Text GLabel 7800 1300 1    47   Input ~ 0
SENS_T0
Text GLabel 8100 1300 1    47   Input ~ 0
SENS_T1
Text GLabel 8400 1300 1    47   Input ~ 0
SENS_TE
Text GLabel 8600 2700 0    47   Input ~ 0
SENS_HT
Text GLabel 6500 700  2    47   Input ~ 0
SENS_HT
Text GLabel 1100 1800 0    47   Input ~ 0
~PWR_GATE
Text GLabel 900  6500 1    47   Input ~ 0
~PWR_GATE
Text GLabel 4500 6200 1    47   Input ~ 0
~ZERO_DET
Wire Wire Line
	4500 6200 4500 6300
Wire Wire Line
	900  6500 900  6600
Text GLabel 1100 2800 0    47   Input ~ 0
OSC_IN
Text GLabel 1100 2900 0    47   Input ~ 0
OSC_OUT
Text GLabel 6500 1200 2    47   Input ~ 0
~CFG_BTN
Connection ~ 7800 1400
$Comp
L GNDA #PWR030
U 1 1 5A596561
P 8100 2400
F 0 "#PWR030" H 8100 2150 50  0001 C CNN
F 1 "GNDA" H 8100 2250 50  0000 C CNN
F 2 "" H 8100 2400 50  0000 C CNN
F 3 "" H 8100 2400 50  0000 C CNN
	1    8100 2400
	1    0    0    -1  
$EndComp
Text GLabel 10600 5800 2    47   Input ~ 0
HUM_SDA
Text GLabel 10600 6000 2    47   Input ~ 0
HUM_SCL
Text GLabel 1100 1600 0    47   Input ~ 0
WRT_TXD
Text GLabel 1100 1700 0    47   Input ~ 0
WRT_RXD
Text GLabel 6500 1700 2    47   Input ~ 0
HUM_SCL
Text GLabel 6500 1800 2    47   Input ~ 0
HUM_SDA
NoConn ~ 6500 1900
NoConn ~ 6500 2000
NoConn ~ 6500 2100
NoConn ~ 6500 2200
Text GLabel 9000 5700 2    47   Input ~ 0
WRT_TXD
Text GLabel 9000 5900 2    47   Input ~ 0
WRT_RXD
$Comp
L R R73
U 1 1 5A5B3105
P 3700 6250
F 0 "R73" V 3780 6250 40  0000 C CNN
F 1 "39R" V 3707 6251 40  0000 C CNN
F 2 "Local:R_1206" V 3630 6250 30  0001 C CNN
F 3 "" H 3700 6250 30  0000 C CNN
	1    3700 6250
	-1   0    0    -1  
$EndComp
$Comp
L C C71
U 1 1 5A5B40DC
P 3700 6650
F 0 "C71" V 3850 6600 50  0000 L CNN
F 1 "10n 1kV" V 3550 6650 50  0000 C CNN
F 2 "Local:C_Disc_D7.0mm_W2.5mm_P5.00mm" H 3738 6500 50  0001 C CNN
F 3 "" H 3700 6650 50  0000 C CNN
	1    3700 6650
	-1   0    0    1   
$EndComp
Wire Wire Line
	3700 6500 3700 6400
Text Label 2500 6800 0    60   ~ 0
FAN
Text Label 3700 6900 0    60   ~ 0
FAN
Wire Wire Line
	3700 6800 3700 6900
Wire Wire Line
	3700 6000 3700 6100
Text GLabel 3700 6000 1    47   Input ~ 0
ZERO
Text GLabel 1100 1500 0    47   Input ~ 0
~ZERO_DET
NoConn ~ 1100 1100
NoConn ~ 6500 800 
Wire Wire Line
	6000 4200 6000 4300
Wire Wire Line
	6000 4700 6000 4800
$Sheet
S 8600 3900 1300 700 
U 5A62EA0D
F0 "Radio" 60
F1 "radio.sch" 60
$EndSheet
$Comp
L CONN_01X01 P40
U 1 1 5A6AC8E5
P 10500 4100
F 0 "P40" H 10500 4200 50  0000 C CNN
F 1 "M3" V 10600 4100 50  0000 C CNN
F 2 "Local:MountingHole_3mm" H 10500 4100 50  0001 C CNN
F 3 "" H 10500 4100 50  0000 C CNN
	1    10500 4100
	1    0    0    -1  
$EndComp
Wire Wire Line
	10300 4100 10200 4100
NoConn ~ 10200 4100
Text Notes -450 2350 0    47   ~ 0
ADC1:\n  CH1: SENS_TE\n  CH2: SENS_T0\n  CH3: SENS_T1\n\nTIM1:\n  ETR: ~ZERO_DET\n  CH1: ~ZERO_DET\n  CH4: ~PWR_GATE\n\nTIM3:\n  CH3: SENS_HT\n\nUART1:\n  TX: WRT_TXD\n  RX: WRT_RXD\n\nI2C2:\n  SCL: HUM_SCL\n  SDA: HUM_SDA
Text Notes 1250 6050 3    47   ~ 0
R_LED
Text Notes 2050 6150 1    47   ~ 0
R_DRV
Text Notes 2650 6150 1    47   ~ 0
R_CHG
Text Notes 700  7500 0    47   ~ 0
Q1: R_LED = (U_CC - Uf_LED) / If_LED;\nQ1, U_CC = 3.3, Uf_LED = 1.5, If_LED = 10e-3;\nQ2: solve(Q1, If_LED)[1];\nQ2, U_CC = 3.3, Uf_LED = 1.5, R_LED = 150;\n\nIf_LED ~~ 12mA
Text Notes 2900 7200 0    47   ~ 0
Q1: R_DRV = U_AC_PK / I_TSM;\nQ1, U_AC_PK = 310, I_TSM = 1A;
$EndSCHEMATC
