EESchema Schematic File Version 2
LIBS:power
LIBS:device
LIBS:transistors
LIBS:conn
LIBS:linear
LIBS:regul
LIBS:74xx
LIBS:cmos4000
LIBS:adc-dac
LIBS:memory
LIBS:xilinx
LIBS:microcontrollers
LIBS:dsp
LIBS:microchip
LIBS:analog_switches
LIBS:motorola
LIBS:texas
LIBS:intel
LIBS:audio
LIBS:interface
LIBS:digital-audio
LIBS:philips
LIBS:display
LIBS:cypress
LIBS:siliconi
LIBS:opto
LIBS:atmel
LIBS:contrib
LIBS:valves
LIBS:stm32
LIBS:common
LIBS:switches
LIBS:addon
LIBS:radio
LIBS:project-cache
EELAYER 25 0
EELAYER END
$Descr A4 11693 8268
encoding utf-8
Sheet 3 3
Title ""
Date ""
Rev ""
Comp ""
Comment1 ""
Comment2 ""
Comment3 ""
Comment4 ""
$EndDescr
$Comp
L ESP-12 U20
U 1 1 5A62F167
P 5600 3150
F 0 "U20" H 5600 3650 60  0000 C CNN
F 1 "ESP-12" H 5600 2650 60  0000 C CNN
F 2 "Local:ESP-12" H 5600 3150 60  0001 C CNN
F 3 "" H 5600 3150 60  0000 C CNN
	1    5600 3150
	1    0    0    -1  
$EndComp
Wire Wire Line
	3200 3500 3100 3500
Wire Wire Line
	8100 3500 8000 3500
Wire Wire Line
	8000 3400 8100 3400
Wire Wire Line
	8000 3300 8100 3300
Wire Wire Line
	8000 3200 8100 3200
Wire Wire Line
	8000 3100 8100 3100
Wire Wire Line
	8000 3000 8100 3000
Wire Wire Line
	8000 2900 8100 2900
Wire Wire Line
	8000 2800 8100 2800
Wire Wire Line
	3200 3400 3100 3400
Wire Wire Line
	3200 3300 3100 3300
Wire Wire Line
	3200 3200 3100 3200
Wire Wire Line
	3200 3100 3100 3100
Wire Wire Line
	3200 3000 3100 3000
Wire Wire Line
	3200 2900 3100 2900
Wire Wire Line
	3200 2800 3100 2800
$Comp
L R R20
U 1 1 5A62F17E
P 2950 3000
F 0 "R20" V 2900 3200 50  0000 C CNN
F 1 "1K" V 2950 3000 50  0000 C CNN
F 2 "Local:R_0603" V 2880 3000 30  0001 C CNN
F 3 "" H 2950 3000 30  0000 C CNN
	1    2950 3000
	0    1    1    0   
$EndComp
Wire Wire Line
	2800 3000 2700 3000
$Comp
L CONN_01X04 P20
U 1 1 5A62F186
P 6400 4550
F 0 "P20" H 6400 4800 50  0000 C CNN
F 1 "WRT_SRT" V 6500 4550 50  0000 C CNN
F 2 "Local:Pin_Header_Straight_1x04_Pitch2.00mm" H 6400 4550 60  0001 C CNN
F 3 "" H 6400 4550 60  0000 C CNN
	1    6400 4550
	1    0    0    1   
$EndComp
Wire Wire Line
	6200 4700 6100 4700
Wire Wire Line
	6100 4700 6100 4800
Text GLabel 6100 4300 1    47   Input ~ 0
3V3_WRT
Wire Wire Line
	6100 4300 6100 4500
Text GLabel 3100 3500 0    47   Input ~ 0
3V3_WRT
Text GLabel 2700 3000 0    47   Input ~ 0
3V3_WRT
Text GLabel 6100 4800 3    47   Input ~ 0
GND_WRT
Wire Wire Line
	6100 4500 6200 4500
Wire Wire Line
	6200 4400 6000 4400
Wire Wire Line
	6200 4600 6000 4600
Text GLabel 6000 4600 0    47   Input ~ 0
TXD_WRT
Text GLabel 6000 4400 0    47   Input ~ 0
RXD_WRT
Text GLabel 8100 2900 2    47   Input ~ 0
RXD_WRT
Text GLabel 8100 2800 2    47   Input ~ 0
TXD_WRT
Text GLabel 8100 3500 2    47   Input ~ 0
GND_WRT
NoConn ~ 3100 3400
NoConn ~ 3100 3300
NoConn ~ 3100 3200
NoConn ~ 3100 3100
NoConn ~ 3100 2900
NoConn ~ 8100 3000
NoConn ~ 8100 3100
Text GLabel 8500 3400 2    47   Input ~ 0
GND_WRT
$Comp
L R R21
U 1 1 5A62F1A4
P 8250 3400
F 0 "R21" V 8200 3200 50  0000 C CNN
F 1 "1K" V 8250 3400 50  0000 C CNN
F 2 "Local:R_0603" V 8180 3400 30  0001 C CNN
F 3 "" H 8250 3400 30  0000 C CNN
	1    8250 3400
	0    1    1    0   
$EndComp
Wire Wire Line
	8500 3400 8400 3400
$Comp
L CONN_01X02 P21
U 1 1 5A62F1AD
P 5200 4650
F 0 "P21" H 5200 4800 50  0000 C CNN
F 1 "WRT_DBG" V 5300 4650 50  0000 C CNN
F 2 "Local:Pin_Header_Straight_1x02_Pitch2.00mm" H 5200 4650 50  0001 C CNN
F 3 "" H 5200 4650 50  0000 C CNN
	1    5200 4650
	1    0    0    1   
$EndComp
Text GLabel 4000 4800 3    47   Input ~ 0
GND_WRT
Text GLabel 8100 3200 2    47   Input ~ 0
~LDR_WRT
Wire Wire Line
	5000 4700 4900 4700
Wire Wire Line
	4900 4700 4900 4800
Text GLabel 4900 4800 3    47   Input ~ 0
GND_WRT
$Comp
L C C20
U 1 1 5A62F1C4
P 7100 4550
F 0 "C20" H 7150 4650 50  0000 L CNN
F 1 "22u" H 7150 4450 50  0000 L CNN
F 2 "Local:C_0805" H 7138 4400 30  0001 C CNN
F 3 "" H 7100 4550 60  0000 C CNN
	1    7100 4550
	1    0    0    -1  
$EndComp
Text GLabel 7100 4800 3    47   Input ~ 0
GND_WRT
Wire Wire Line
	7100 4800 7100 4700
Text GLabel 7100 4300 1    47   Input ~ 0
3V3_WRT
Wire Wire Line
	7100 4300 7100 4400
Wire Wire Line
	5000 4600 4900 4600
Text GLabel 4900 4600 0    47   Input ~ 0
DBG_WRT
Text GLabel 8100 3300 2    47   Input ~ 0
DBG_WRT
$Comp
L SW_Push SW20
U 1 1 5A633220
P 4000 4500
F 0 "SW20" H 4150 4610 50  0000 C CNN
F 1 "LDR_BTN" H 4000 4420 50  0000 C CNN
F 2 "Local:MICRO_SW" H 4000 4500 60  0001 C CNN
F 3 "" H 4000 4500 60  0000 C CNN
	1    4000 4500
	0    -1   -1   0   
$EndComp
Wire Wire Line
	4000 4200 4000 4300
Wire Wire Line
	4000 4700 4000 4800
Text GLabel 4000 4200 1    47   Input ~ 0
~LDR_WRT
NoConn ~ 3100 2800
Text GLabel 8300 4400 3    47   Input ~ 0
GND_WRT
$Comp
L PWR_FLAG #FLG073
U 1 1 5A6D6DC2
P 7900 4400
F 0 "#FLG073" H 7900 4495 50  0001 C CNN
F 1 "PWR_FLAG" H 7900 4580 50  0000 C CNN
F 2 "" H 7900 4400 50  0000 C CNN
F 3 "" H 7900 4400 50  0000 C CNN
	1    7900 4400
	-1   0    0    1   
$EndComp
Wire Wire Line
	7900 4300 7900 4400
Text GLabel 7900 4300 1    47   Input ~ 0
3V3_WRT
$Comp
L PWR_FLAG #FLG074
U 1 1 5A6D710E
P 8300 4300
F 0 "#FLG074" H 8300 4395 50  0001 C CNN
F 1 "PWR_FLAG" H 8300 4480 50  0000 C CNN
F 2 "" H 8300 4300 50  0000 C CNN
F 3 "" H 8300 4300 50  0000 C CNN
	1    8300 4300
	1    0    0    -1  
$EndComp
Wire Wire Line
	8300 4300 8300 4400
$EndSCHEMATC
