EESchema Schematic File Version 2
LIBS:power
LIBS:device
LIBS:transistors
LIBS:conn
LIBS:linear
LIBS:regul
LIBS:74xx
LIBS:cmos4000
LIBS:adc-dac
LIBS:memory
LIBS:xilinx
LIBS:microcontrollers
LIBS:dsp
LIBS:microchip
LIBS:analog_switches
LIBS:motorola
LIBS:texas
LIBS:intel
LIBS:audio
LIBS:interface
LIBS:digital-audio
LIBS:philips
LIBS:display
LIBS:cypress
LIBS:siliconi
LIBS:opto
LIBS:atmel
LIBS:contrib
LIBS:valves
LIBS:stm32
LIBS:common
LIBS:switches
LIBS:addon
LIBS:radio
LIBS:project-cache
EELAYER 25 0
EELAYER END
$Descr A4 11693 8268
encoding utf-8
Sheet 2 3
Title ""
Date ""
Rev ""
Comp ""
Comment1 ""
Comment2 ""
Comment3 ""
Comment4 ""
$EndDescr
$Comp
L CP C97
U 1 1 57DB9558
P 4000 3650
AR Path="/5A574997/57DB9558" Ref="C97"  Part="1" 
AR Path="/5A584284/5928866C/57DB9558" Ref="C97"  Part="1" 
F 0 "C97" H 4025 3750 50  0000 L CNN
F 1 "4u7 400V" H 3850 3550 50  0000 L CNN
F 2 "Local:CP_Radial_D8.0mm_P3.50mm" H 4038 3500 50  0001 C CNN
F 3 "" H 4000 3650 50  0000 C CNN
	1    4000 3650
	1    0    0    -1  
$EndComp
$Comp
L D_Bridge_+-AA D93
U 1 1 57DB95EC
P 3600 3400
AR Path="/5A574997/57DB95EC" Ref="D93"  Part="1" 
AR Path="/5A584284/5928866C/57DB95EC" Ref="D93"  Part="1" 
F 0 "D93" H 3600 3500 50  0000 C CNN
F 1 "MB6S" H 3600 3400 50  0000 C CNN
F 2 "Local:TO-269AA" H 3600 3400 50  0001 C CNN
F 3 "" H 3600 3400 50  0000 C CNN
	1    3600 3400
	1    0    0    1   
$EndComp
$Comp
L Earth #PWR031
U 1 1 57DB966D
P 3200 3500
AR Path="/5A574997/57DB966D" Ref="#PWR031"  Part="1" 
AR Path="/5A584284/5928866C/57DB966D" Ref="#PWR0126"  Part="1" 
F 0 "#PWR031" H 3200 3250 50  0001 C CNN
F 1 "Earth" H 3200 3350 50  0001 C CNN
F 2 "" H 3200 3500 50  0000 C CNN
F 3 "" H 3200 3500 50  0000 C CNN
	1    3200 3500
	1    0    0    -1  
$EndComp
$Comp
L Earth #PWR032
U 1 1 57DB9689
P 4000 3900
AR Path="/5A574997/57DB9689" Ref="#PWR032"  Part="1" 
AR Path="/5A584284/5928866C/57DB9689" Ref="#PWR0127"  Part="1" 
F 0 "#PWR032" H 4000 3650 50  0001 C CNN
F 1 "Earth" H 4000 3750 50  0001 C CNN
F 2 "" H 4000 3900 50  0000 C CNN
F 3 "" H 4000 3900 50  0000 C CNN
	1    4000 3900
	1    0    0    -1  
$EndComp
$Comp
L R R95
U 1 1 57DB991A
P 4800 3550
AR Path="/5A574997/57DB991A" Ref="R95"  Part="1" 
AR Path="/5A584284/5928866C/57DB991A" Ref="R95"  Part="1" 
F 0 "R95" V 4880 3550 50  0000 C CNN
F 1 "1M" V 4800 3550 50  0000 C CNN
F 2 "Local:R_1206" V 4730 3550 50  0001 C CNN
F 3 "" H 4800 3550 50  0000 C CNN
	1    4800 3550
	-1   0    0    -1  
$EndComp
$Comp
L R R96
U 1 1 57DB998E
P 4800 3950
AR Path="/5A574997/57DB998E" Ref="R96"  Part="1" 
AR Path="/5A584284/5928866C/57DB998E" Ref="R96"  Part="1" 
F 0 "R96" V 4880 3950 50  0000 C CNN
F 1 "1M" V 4800 3950 50  0000 C CNN
F 2 "Local:R_1206" V 4730 3950 50  0001 C CNN
F 3 "" H 4800 3950 50  0000 C CNN
	1    4800 3950
	-1   0    0    -1  
$EndComp
$Comp
L THX208H U90
U 1 1 57DB9BED
P 3800 2050
AR Path="/5A574997/57DB9BED" Ref="U90"  Part="1" 
AR Path="/5A584284/5928866C/57DB9BED" Ref="U90"  Part="1" 
F 0 "U90" H 3800 2400 60  0000 C CNN
F 1 "THX208H" V 3800 2050 60  0000 C CNN
F 2 "Local:SOIC-8-6PIN_3.9x4.9mm_Pitch1.27mm" H 3800 2050 60  0001 C CNN
F 3 "" H 3800 2050 60  0000 C CNN
	1    3800 2050
	1    0    0    -1  
$EndComp
$Comp
L C C95
U 1 1 57DB9EE3
P 4800 4450
AR Path="/5A574997/57DB9EE3" Ref="C95"  Part="1" 
AR Path="/5A584284/5928866C/57DB9EE3" Ref="C95"  Part="1" 
F 0 "C95" H 4825 4550 50  0000 L CNN
F 1 "10n" H 4825 4350 50  0000 L CNN
F 2 "Local:C_0603" H 4838 4300 50  0001 C CNN
F 3 "" H 4800 4450 50  0000 C CNN
	1    4800 4450
	1    0    0    -1  
$EndComp
$Comp
L Earth #PWR033
U 1 1 57DB9FA2
P 4800 4700
AR Path="/5A574997/57DB9FA2" Ref="#PWR033"  Part="1" 
AR Path="/5A584284/5928866C/57DB9FA2" Ref="#PWR0128"  Part="1" 
F 0 "#PWR033" H 4800 4450 50  0001 C CNN
F 1 "Earth" H 4800 4550 50  0001 C CNN
F 2 "" H 4800 4700 50  0000 C CNN
F 3 "" H 4800 4700 50  0000 C CNN
	1    4800 4700
	1    0    0    -1  
$EndComp
$Comp
L C C96
U 1 1 57DBA2B3
P 3050 1850
AR Path="/5A574997/57DBA2B3" Ref="C96"  Part="1" 
AR Path="/5A584284/5928866C/57DBA2B3" Ref="C96"  Part="1" 
F 0 "C96" V 3100 1950 50  0000 L CNN
F 1 "330p" V 3000 1600 50  0000 L CNN
F 2 "Local:C_0603" H 3088 1700 50  0001 C CNN
F 3 "" H 3050 1850 50  0000 C CNN
	1    3050 1850
	0    -1   -1   0   
$EndComp
$Comp
L Earth #PWR034
U 1 1 57DBA316
P 2800 1950
AR Path="/5A574997/57DBA316" Ref="#PWR034"  Part="1" 
AR Path="/5A584284/5928866C/57DBA316" Ref="#PWR0129"  Part="1" 
F 0 "#PWR034" H 2800 1700 50  0001 C CNN
F 1 "Earth" H 2800 1800 50  0001 C CNN
F 2 "" H 2800 1950 50  0000 C CNN
F 3 "" H 2800 1950 50  0000 C CNN
	1    2800 1950
	1    0    0    -1  
$EndComp
$Comp
L Earth #PWR035
U 1 1 57DBAB30
P 3200 2350
AR Path="/5A574997/57DBAB30" Ref="#PWR035"  Part="1" 
AR Path="/5A584284/5928866C/57DBAB30" Ref="#PWR0130"  Part="1" 
F 0 "#PWR035" H 3200 2100 50  0001 C CNN
F 1 "Earth" H 3200 2200 50  0001 C CNN
F 2 "" H 3200 2350 50  0000 C CNN
F 3 "" H 3200 2350 50  0000 C CNN
	1    3200 2350
	1    0    0    -1  
$EndComp
Text Label 5150 4200 2    39   ~ 0
INIT_PWR
Text Label 4700 2250 2    39   ~ 0
INIT_PWR
Text Label 4700 1850 2    39   ~ 0
WORK_PWR
Text Label 3000 2050 0    39   ~ 0
FEEDBACK
Text Label 4700 2050 2    39   ~ 0
SWITCH
$Comp
L TRANS_3V T90
U 1 1 57DBB0CD
P 6200 2100
AR Path="/5A574997/57DBB0CD" Ref="T90"  Part="1" 
AR Path="/5A584284/5928866C/57DBB0CD" Ref="T90"  Part="1" 
F 0 "T90" H 6200 2600 50  0000 C CNN
F 1 "TRANS_3X" H 6200 1600 50  0000 C CNN
F 2 "Local:TRANS_EE16_6" H 6200 2100 60  0001 C CNN
F 3 "" H 6200 2100 60  0000 C CNN
	1    6200 2100
	1    0    0    -1  
$EndComp
$Comp
L D D91
U 1 1 57DBB222
P 6850 2200
AR Path="/5A574997/57DBB222" Ref="D91"  Part="1" 
AR Path="/5A584284/5928866C/57DBB222" Ref="D91"  Part="1" 
F 0 "D91" H 6850 2300 50  0000 C CNN
F 1 "1N4148" H 6850 2100 50  0000 C CNN
F 2 "Local:D_MiniMELF" H 6850 2200 50  0001 C CNN
F 3 "" H 6850 2200 50  0000 C CNN
	1    6850 2200
	-1   0    0    -1  
$EndComp
$Comp
L Earth #PWR036
U 1 1 57DBB2BC
P 6700 2600
AR Path="/5A574997/57DBB2BC" Ref="#PWR036"  Part="1" 
AR Path="/5A584284/5928866C/57DBB2BC" Ref="#PWR0131"  Part="1" 
F 0 "#PWR036" H 6700 2350 50  0001 C CNN
F 1 "Earth" H 6700 2450 50  0001 C CNN
F 2 "" H 6700 2600 50  0000 C CNN
F 3 "" H 6700 2600 50  0000 C CNN
	1    6700 2600
	1    0    0    -1  
$EndComp
Text Label 7400 2200 2    39   ~ 0
WORK_PWR
Text Label 5500 2300 0    39   ~ 0
SWITCH
Text Label 4000 3000 3    39   ~ 0
HV_PWR
Text Label 4800 3000 3    39   ~ 0
HV_PWR
Text Label 5500 1900 0    39   ~ 0
HV_PWR
$Comp
L C C90
U 1 1 57DBB933
P 5150 2000
AR Path="/5A574997/57DBB933" Ref="C90"  Part="1" 
AR Path="/5A584284/5928866C/57DBB933" Ref="C90"  Part="1" 
F 0 "C90" V 5300 1950 50  0000 L CNN
F 1 "1n 1kV" V 5100 1600 50  0000 L CNN
F 2 "Local:C_Disc_D7.0mm_W2.5mm_P5.00mm" H 5188 1850 50  0001 C CNN
F 3 "" H 5150 2000 50  0000 C CNN
	1    5150 2000
	0    -1   -1   0   
$EndComp
$Comp
L D D90
U 1 1 57DBB986
P 5150 2300
AR Path="/5A574997/57DBB986" Ref="D90"  Part="1" 
AR Path="/5A584284/5928866C/57DBB986" Ref="D90"  Part="1" 
F 0 "D90" H 5150 2400 50  0000 C CNN
F 1 "FR107" H 5150 2200 50  0000 C CNN
F 2 "Local:D_SOD-123" H 5150 2300 50  0001 C CNN
F 3 "" H 5150 2300 50  0000 C CNN
	1    5150 2300
	1    0    0    -1  
$EndComp
$Comp
L R R90
U 1 1 57DBB9F7
P 5150 1700
AR Path="/5A574997/57DBB9F7" Ref="R90"  Part="1" 
AR Path="/5A584284/5928866C/57DBB9F7" Ref="R90"  Part="1" 
F 0 "R90" V 5230 1700 50  0000 C CNN
F 1 "100K" V 5150 1700 50  0000 C CNN
F 2 "Local:R_1206" V 5080 1700 50  0001 C CNN
F 3 "" H 5150 1700 50  0000 C CNN
	1    5150 1700
	0    -1   -1   0   
$EndComp
$Comp
L GND #PWR037
U 1 1 57DBC4C2
P 6700 2000
AR Path="/5A574997/57DBC4C2" Ref="#PWR037"  Part="1" 
AR Path="/5A584284/5928866C/57DBC4C2" Ref="#PWR0132"  Part="1" 
F 0 "#PWR037" H 6700 1750 50  0001 C CNN
F 1 "GND" V 6700 1800 50  0000 C CNN
F 2 "" H 6700 2000 50  0000 C CNN
F 3 "" H 6700 2000 50  0000 C CNN
	1    6700 2000
	0    -1   -1   0   
$EndComp
$Comp
L D_Schottky D92
U 1 1 57DBC627
P 6850 1700
AR Path="/5A574997/57DBC627" Ref="D92"  Part="1" 
AR Path="/5A584284/5928866C/57DBC627" Ref="D92"  Part="1" 
F 0 "D92" H 6850 1800 50  0000 C CNN
F 1 "SS14" H 6850 1600 50  0000 C CNN
F 2 "Local:D_SMA" H 6850 1700 50  0001 C CNN
F 3 "" H 6850 1700 50  0000 C CNN
	1    6850 1700
	-1   0    0    -1  
$EndComp
$Comp
L CP C91
U 1 1 57DBC935
P 7800 2050
AR Path="/5A574997/57DBC935" Ref="C91"  Part="1" 
AR Path="/5A584284/5928866C/57DBC935" Ref="C91"  Part="1" 
F 0 "C91" H 7825 2150 50  0000 L CNN
F 1 "470u 25V" H 7600 1950 50  0000 L CNN
F 2 "Local:CP_Radial_D8.0mm_P3.50mm" H 7838 1900 50  0001 C CNN
F 3 "" H 7800 2050 50  0000 C CNN
	1    7800 2050
	1    0    0    -1  
$EndComp
$Comp
L GND #PWR038
U 1 1 57DBC98A
P 7800 2300
AR Path="/5A574997/57DBC98A" Ref="#PWR038"  Part="1" 
AR Path="/5A584284/5928866C/57DBC98A" Ref="#PWR0133"  Part="1" 
F 0 "#PWR038" H 7800 2050 50  0001 C CNN
F 1 "GND" H 7800 2150 50  0000 C CNN
F 2 "" H 7800 2300 50  0000 C CNN
F 3 "" H 7800 2300 50  0000 C CNN
	1    7800 2300
	1    0    0    -1  
$EndComp
$Comp
L R R92
U 1 1 57DBDB6B
P 6950 3700
AR Path="/5A574997/57DBDB6B" Ref="R92"  Part="1" 
AR Path="/5A584284/5928866C/57DBDB6B" Ref="R92"  Part="1" 
F 0 "R92" V 7030 3700 50  0000 C CNN
F 1 "1K" V 6950 3700 50  0000 C CNN
F 2 "Local:R_0603" V 6880 3700 50  0001 C CNN
F 3 "" H 6950 3700 50  0000 C CNN
	1    6950 3700
	0    1    -1   0   
$EndComp
$Comp
L PC817 U91
U 1 1 57DBEDF9
P 6300 3800
AR Path="/5A574997/57DBEDF9" Ref="U91"  Part="1" 
AR Path="/5A584284/5928866C/57DBEDF9" Ref="U91"  Part="1" 
F 0 "U91" H 6250 4000 50  0000 L CNN
F 1 "LTV-356T" H 6100 3600 50  0000 L CNN
F 2 "Local:MiniFLAT_04P" H 6100 3600 50  0001 L CIN
F 3 "" H 6300 3800 50  0000 L CNN
	1    6300 3800
	-1   0    0    -1  
$EndComp
$Comp
L R R91
U 1 1 57DBF107
P 6700 3450
AR Path="/5A574997/57DBF107" Ref="R91"  Part="1" 
AR Path="/5A584284/5928866C/57DBF107" Ref="R91"  Part="1" 
F 0 "R91" V 6780 3450 50  0000 C CNN
F 1 "1K" V 6700 3450 50  0000 C CNN
F 2 "Local:R_0603" V 6630 3450 50  0001 C CNN
F 3 "" H 6700 3450 50  0000 C CNN
	1    6700 3450
	-1   0    0    -1  
$EndComp
Text Label 5600 3700 0    39   ~ 0
FEEDBACK
$Comp
L Earth #PWR039
U 1 1 57DBFC75
P 5900 4000
AR Path="/5A574997/57DBFC75" Ref="#PWR039"  Part="1" 
AR Path="/5A584284/5928866C/57DBFC75" Ref="#PWR0134"  Part="1" 
F 0 "#PWR039" H 5900 3750 50  0001 C CNN
F 1 "Earth" H 5900 3850 50  0001 C CNN
F 2 "" H 5900 4000 50  0000 C CNN
F 3 "" H 5900 4000 50  0000 C CNN
	1    5900 4000
	1    0    0    -1  
$EndComp
$Comp
L C C94
U 1 1 57DC0078
P 5400 4450
AR Path="/5A574997/57DC0078" Ref="C94"  Part="1" 
AR Path="/5A584284/5928866C/57DC0078" Ref="C94"  Part="1" 
F 0 "C94" H 5425 4550 50  0000 L CNN
F 1 "10n" H 5425 4350 50  0000 L CNN
F 2 "Local:C_0603" H 5438 4300 50  0001 C CNN
F 3 "" H 5400 4450 50  0000 C CNN
	1    5400 4450
	1    0    0    -1  
$EndComp
Text Label 5400 3900 3    39   ~ 0
FEEDBACK
$Comp
L Earth #PWR040
U 1 1 57DC0819
P 5400 4700
AR Path="/5A574997/57DC0819" Ref="#PWR040"  Part="1" 
AR Path="/5A584284/5928866C/57DC0819" Ref="#PWR0135"  Part="1" 
F 0 "#PWR040" H 5400 4450 50  0001 C CNN
F 1 "Earth" H 5400 4550 50  0001 C CNN
F 2 "" H 5400 4700 50  0000 C CNN
F 3 "" H 5400 4700 50  0000 C CNN
	1    5400 4700
	1    0    0    -1  
$EndComp
$Comp
L C C93
U 1 1 57DC12C6
P 6050 2900
AR Path="/5A574997/57DC12C6" Ref="C93"  Part="1" 
AR Path="/5A584284/5928866C/57DC12C6" Ref="C93"  Part="1" 
F 0 "C93" V 6200 2850 50  0000 L CNN
F 1 "2n2 400V" V 5900 2700 50  0000 L CNN
F 2 "Local:C_Disc_D7.5mm_W3.5mm_P7.50mm" H 6088 2750 50  0001 C CNN
F 3 "" H 6050 2900 50  0000 C CNN
	1    6050 2900
	0    -1   -1   0   
$EndComp
$Comp
L Earth #PWR041
U 1 1 57DC1364
P 5700 3000
AR Path="/5A574997/57DC1364" Ref="#PWR041"  Part="1" 
AR Path="/5A584284/5928866C/57DC1364" Ref="#PWR0136"  Part="1" 
F 0 "#PWR041" H 5700 2750 50  0001 C CNN
F 1 "Earth" H 5700 2850 50  0001 C CNN
F 2 "" H 5700 3000 50  0000 C CNN
F 3 "" H 5700 3000 50  0000 C CNN
	1    5700 3000
	1    0    0    -1  
$EndComp
$Comp
L GND #PWR042
U 1 1 57DC13E3
P 6400 3000
AR Path="/5A574997/57DC13E3" Ref="#PWR042"  Part="1" 
AR Path="/5A584284/5928866C/57DC13E3" Ref="#PWR0137"  Part="1" 
F 0 "#PWR042" H 6400 2750 50  0001 C CNN
F 1 "GND" H 6400 2850 50  0000 C CNN
F 2 "" H 6400 3000 50  0000 C CNN
F 3 "" H 6400 3000 50  0000 C CNN
	1    6400 3000
	1    0    0    -1  
$EndComp
$Comp
L CP C92
U 1 1 57DC1D09
P 3800 4750
AR Path="/5A574997/57DC1D09" Ref="C92"  Part="1" 
AR Path="/5A584284/5928866C/57DC1D09" Ref="C92"  Part="1" 
F 0 "C92" H 3825 4850 50  0000 L CNN
F 1 "22u 16V" H 3650 4650 50  0000 L CNN
F 2 "Local:CP_Radial_D5.0mm_P2.00mm" H 3838 4600 50  0001 C CNN
F 3 "" H 3800 4750 50  0000 C CNN
	1    3800 4750
	1    0    0    -1  
$EndComp
$Comp
L Earth #PWR043
U 1 1 57DC229B
P 3800 5000
AR Path="/5A574997/57DC229B" Ref="#PWR043"  Part="1" 
AR Path="/5A584284/5928866C/57DC229B" Ref="#PWR0138"  Part="1" 
F 0 "#PWR043" H 3800 4750 50  0001 C CNN
F 1 "Earth" H 3800 4850 50  0001 C CNN
F 2 "" H 3800 5000 50  0000 C CNN
F 3 "" H 3800 5000 50  0000 C CNN
	1    3800 5000
	1    0    0    -1  
$EndComp
Text Label 3800 4200 3    39   ~ 0
WORK_PWR
Text Notes 5900 2100 0    60   ~ 0
W1
Text Notes 6450 2350 0    60   ~ 0
W2
Text Notes 6450 1850 0    60   ~ 0
W3
Text Notes 5900 1450 0    60   ~ 0
Core: EE16/12/5\nGap: 0.25mm\n\nW1: 0.20mm x1 186T 1.7A/mm^2 2.9mH\nW2: 0.15mm x1 15T 4.1A/mm^2\nW3: 0.50mm x1 13T 5.2A/mm^2
Text Label 6700 2900 3    39   ~ 0
OUT_PWR
Wire Wire Line
	3300 3400 3200 3400
Wire Wire Line
	3200 3400 3200 3500
Wire Wire Line
	4000 3800 4000 3900
Wire Wire Line
	4000 3000 4000 3500
Wire Wire Line
	3900 3400 4400 3400
Wire Wire Line
	3600 3100 3600 3000
Wire Wire Line
	3600 3000 3500 3000
Wire Wire Line
	4800 3700 4800 3800
Connection ~ 4000 3400
Wire Wire Line
	4800 3000 4800 3400
Wire Wire Line
	4800 4100 4800 4300
Wire Wire Line
	4800 4600 4800 4700
Wire Wire Line
	4800 4200 5150 4200
Connection ~ 4800 4200
Wire Wire Line
	4700 2250 4300 2250
Wire Wire Line
	2800 1950 2800 1850
Wire Wire Line
	2800 1850 2900 1850
Wire Wire Line
	3300 1850 3200 1850
Wire Wire Line
	4300 1850 4700 1850
Wire Wire Line
	3300 2250 3200 2250
Wire Wire Line
	3200 2250 3200 2350
Wire Wire Line
	3300 2050 3000 2050
Wire Wire Line
	4300 2050 4700 2050
Wire Wire Line
	6600 2200 6700 2200
Wire Wire Line
	6600 2500 6700 2500
Wire Wire Line
	6700 2500 6700 2600
Wire Wire Line
	7000 2200 7400 2200
Wire Wire Line
	5800 2300 5300 2300
Wire Wire Line
	5800 1900 5400 1900
Wire Wire Line
	4900 2300 5000 2300
Wire Wire Line
	4900 1700 4900 2300
Wire Wire Line
	4900 2000 5000 2000
Wire Wire Line
	5000 1700 4900 1700
Connection ~ 4900 2000
Wire Wire Line
	5300 1700 5400 1700
Wire Wire Line
	5400 1700 5400 2000
Wire Wire Line
	5400 2000 5300 2000
Connection ~ 5400 1900
Wire Wire Line
	6600 2000 6700 2000
Wire Wire Line
	6600 1700 6700 1700
Wire Wire Line
	7000 1700 7400 1700
Wire Wire Line
	7800 2200 7800 2300
Wire Wire Line
	7800 1900 7800 1600
Wire Wire Line
	6600 3900 7400 3900
Wire Wire Line
	6900 3900 6900 4000
Connection ~ 6900 3900
Wire Wire Line
	6600 3700 6800 3700
Wire Wire Line
	6700 3700 6700 3600
Wire Wire Line
	6700 3300 6700 2900
Wire Wire Line
	6000 3900 5900 3900
Wire Wire Line
	5900 3900 5900 4000
Wire Wire Line
	6000 3700 5600 3700
Wire Wire Line
	5400 4600 5400 4700
Wire Wire Line
	5400 4300 5400 3900
Wire Wire Line
	6200 2900 6400 2900
Wire Wire Line
	6400 2900 6400 3000
Wire Wire Line
	5900 2900 5700 2900
Wire Wire Line
	5700 2900 5700 3000
Wire Wire Line
	3800 4900 3800 5000
Wire Wire Line
	3800 4600 3800 4200
Text Label 7400 1700 2    39   ~ 0
OUT_PWR
Wire Wire Line
	8200 2000 8200 1600
Wire Wire Line
	8400 2000 8200 2000
Text Label 8200 1600 3    39   ~ 0
OUT_PWR
Text Label 7800 1600 3    39   ~ 0
OUT_PWR
Wire Wire Line
	8400 2000 8400 1900
Wire Wire Line
	6900 4400 6900 4700
$Comp
L GND #PWR044
U 1 1 5928C824
P 6900 4700
AR Path="/5A574997/5928C824" Ref="#PWR044"  Part="1" 
AR Path="/5A584284/5928866C/5928C824" Ref="#PWR0139"  Part="1" 
F 0 "#PWR044" H 6900 4450 50  0001 C CNN
F 1 "GND" H 6900 4550 50  0000 C CNN
F 2 "" H 6900 4700 50  0000 C CNN
F 3 "" H 6900 4700 50  0000 C CNN
	1    6900 4700
	1    0    0    -1  
$EndComp
Wire Wire Line
	2800 3000 2700 3000
Wire Wire Line
	3600 3700 3600 3800
Wire Wire Line
	3600 3800 3100 3800
$Comp
L R R93
U 1 1 5927C526
P 2950 3000
AR Path="/5A574997/5927C526" Ref="R93"  Part="1" 
AR Path="/5A584284/5928866C/5927C526" Ref="R93"  Part="1" 
F 0 "R93" V 3030 3000 50  0000 C CNN
F 1 "0R" V 2950 3000 50  0000 C CNN
F 2 "Local:R_1206" V 2880 3000 50  0001 C CNN
F 3 "" H 2950 3000 50  0000 C CNN
	1    2950 3000
	0    1    -1   0   
$EndComp
$Comp
L PWR_FLAG #FLG045
U 1 1 5929AFFA
P 8400 2800
AR Path="/5A574997/5929AFFA" Ref="#FLG045"  Part="1" 
AR Path="/5A584284/5928866C/5929AFFA" Ref="#FLG0140"  Part="1" 
F 0 "#FLG045" H 8400 2895 50  0001 C CNN
F 1 "PWR_FLAG" H 8400 2980 50  0000 C CNN
F 2 "" H 8400 2800 50  0000 C CNN
F 3 "" H 8400 2800 50  0000 C CNN
	1    8400 2800
	1    0    0    -1  
$EndComp
$Comp
L GND #PWR046
U 1 1 5929B09C
P 8400 2900
AR Path="/5A574997/5929B09C" Ref="#PWR046"  Part="1" 
AR Path="/5A584284/5928866C/5929B09C" Ref="#PWR0141"  Part="1" 
F 0 "#PWR046" H 8400 2650 50  0001 C CNN
F 1 "GND" H 8400 2750 50  0000 C CNN
F 2 "" H 8400 2900 50  0000 C CNN
F 3 "" H 8400 2900 50  0000 C CNN
	1    8400 2900
	1    0    0    -1  
$EndComp
Wire Wire Line
	8400 2800 8400 2900
$Comp
L PWR_FLAG #FLG047
U 1 1 5929C234
P 8800 1900
AR Path="/5A574997/5929C234" Ref="#FLG047"  Part="1" 
AR Path="/5A584284/5928866C/5929C234" Ref="#FLG0142"  Part="1" 
F 0 "#FLG047" H 8800 1995 50  0001 C CNN
F 1 "PWR_FLAG" H 8800 2080 50  0000 C CNN
F 2 "" H 8800 1900 50  0000 C CNN
F 3 "" H 8800 1900 50  0000 C CNN
	1    8800 1900
	1    0    0    -1  
$EndComp
Wire Wire Line
	8800 1900 8800 2000
Wire Wire Line
	8800 2000 9100 2000
Wire Wire Line
	9100 2000 9100 1900
Text Label 4200 5000 1    39   ~ 0
WORK_PWR
$Comp
L PWR_FLAG #FLG048
U 1 1 5929C83B
P 4200 4650
AR Path="/5A574997/5929C83B" Ref="#FLG048"  Part="1" 
AR Path="/5A584284/5928866C/5929C83B" Ref="#FLG0143"  Part="1" 
F 0 "#FLG048" H 4200 4745 50  0001 C CNN
F 1 "PWR_FLAG" H 4200 4830 50  0000 C CNN
F 2 "" H 4200 4650 50  0000 C CNN
F 3 "" H 4200 4650 50  0000 C CNN
	1    4200 4650
	1    0    0    -1  
$EndComp
Wire Wire Line
	4200 4650 4200 5000
$Comp
L Earth #PWR049
U 1 1 5929D0D9
P 5300 3000
AR Path="/5A574997/5929D0D9" Ref="#PWR049"  Part="1" 
AR Path="/5A584284/5928866C/5929D0D9" Ref="#PWR0144"  Part="1" 
F 0 "#PWR049" H 5300 2750 50  0001 C CNN
F 1 "Earth" H 5300 2850 50  0001 C CNN
F 2 "" H 5300 3000 50  0000 C CNN
F 3 "" H 5300 3000 50  0000 C CNN
	1    5300 3000
	1    0    0    -1  
$EndComp
$Comp
L PWR_FLAG #FLG050
U 1 1 5929D174
P 5300 2900
AR Path="/5A574997/5929D174" Ref="#FLG050"  Part="1" 
AR Path="/5A584284/5928866C/5929D174" Ref="#FLG0145"  Part="1" 
F 0 "#FLG050" H 5300 2995 50  0001 C CNN
F 1 "PWR_FLAG" H 5300 3080 50  0000 C CNN
F 2 "" H 5300 2900 50  0000 C CNN
F 3 "" H 5300 2900 50  0000 C CNN
	1    5300 2900
	1    0    0    -1  
$EndComp
Wire Wire Line
	5300 2900 5300 3000
Text GLabel 3100 3800 0    60   Input ~ 0
ZERO
Text GLabel 2700 3000 0    60   Input ~ 0
LINE
$Comp
L TL431SI U92
U 1 1 59B233D7
P 6900 4200
AR Path="/5A574997/59B233D7" Ref="U92"  Part="1" 
AR Path="/5A584284/5928866C/59B233D7" Ref="U92"  Part="1" 
F 0 "U92" H 6800 4300 50  0000 C CNN
F 1 "TL431S" V 7000 4200 50  0000 C CNN
F 2 "Local:SOT-23" V 6900 4200 60  0001 C CNN
F 3 "" V 6900 4200 60  0000 C CNN
	1    6900 4200
	-1   0    0    -1  
$EndComp
$Comp
L C C98
U 1 1 59B24177
P 7550 3900
AR Path="/5A574997/59B24177" Ref="C98"  Part="1" 
AR Path="/5A584284/5928866C/59B24177" Ref="C98"  Part="1" 
F 0 "C98" V 7700 3850 50  0000 L CNN
F 1 "100n" V 7400 3700 50  0000 L CNN
F 2 "Local:C_0603" H 7588 3750 50  0001 C CNN
F 3 "" H 7550 3900 50  0000 C CNN
	1    7550 3900
	0    -1   -1   0   
$EndComp
$Comp
L R R97
U 1 1 59B243F5
P 7800 4450
AR Path="/5A574997/59B243F5" Ref="R97"  Part="1" 
AR Path="/5A584284/5928866C/59B243F5" Ref="R97"  Part="1" 
F 0 "R97" V 7880 4450 50  0000 C CNN
F 1 "2K2" V 7800 4450 50  0000 C CNN
F 2 "Local:R_0603" V 7730 4450 50  0001 C CNN
F 3 "" H 7800 4450 50  0000 C CNN
	1    7800 4450
	-1   0    0    -1  
$EndComp
$Comp
L R R98
U 1 1 59B244D7
P 7800 3650
AR Path="/5A574997/59B244D7" Ref="R98"  Part="1" 
AR Path="/5A584284/5928866C/59B244D7" Ref="R98"  Part="1" 
F 0 "R98" V 7880 3650 50  0000 C CNN
F 1 "2K2" V 7800 3650 50  0000 C CNN
F 2 "Local:R_0603" V 7730 3650 50  0001 C CNN
F 3 "" H 7800 3650 50  0000 C CNN
	1    7800 3650
	-1   0    0    -1  
$EndComp
Text Label 7800 2800 3    39   ~ 0
OUT_PWR
Wire Wire Line
	7800 2800 7800 3100
Wire Wire Line
	7800 3800 7800 4300
Wire Wire Line
	7800 3900 7700 3900
Connection ~ 7800 3900
$Comp
L GND #PWR051
U 1 1 59B2502B
P 7800 4700
AR Path="/5A574997/59B2502B" Ref="#PWR051"  Part="1" 
AR Path="/5A584284/5928866C/59B2502B" Ref="#PWR0146"  Part="1" 
F 0 "#PWR051" H 7800 4450 50  0001 C CNN
F 1 "GND" H 7800 4550 50  0000 C CNN
F 2 "" H 7800 4700 50  0000 C CNN
F 3 "" H 7800 4700 50  0000 C CNN
	1    7800 4700
	1    0    0    -1  
$EndComp
Wire Wire Line
	7800 4600 7800 4700
Wire Wire Line
	7100 4200 7800 4200
Connection ~ 7800 4200
Wire Wire Line
	7100 3700 7250 3700
Wire Wire Line
	7250 3700 7250 3900
Connection ~ 7250 3900
Connection ~ 6700 3700
Text Notes 8050 4300 0    60   ~ 0
/* Voltage regulation */\nQ: Uout*R1/(R1+R2)=Uref, Uref=2.5, R1=2.2;\nsolve(Q), Uout=5, numer;\nsolve(Q), R2=2.2, numer;
Text Notes 8050 4600 0    60   ~ 0
Uout = 5V
$Comp
L CP C99
U 1 1 59B67213
P 4400 3650
AR Path="/5A574997/59B67213" Ref="C99"  Part="1" 
AR Path="/5A584284/5928866C/59B67213" Ref="C99"  Part="1" 
F 0 "C99" H 4425 3750 50  0000 L CNN
F 1 "4u7 400V" H 4250 3550 50  0000 L CNN
F 2 "Local:CP_Radial_D8.0mm_P3.50mm" H 4438 3500 50  0001 C CNN
F 3 "" H 4400 3650 50  0000 C CNN
	1    4400 3650
	1    0    0    -1  
$EndComp
Wire Wire Line
	4400 3400 4400 3500
Wire Wire Line
	4400 3800 4400 3900
$Comp
L Earth #PWR052
U 1 1 59B67410
P 4400 3900
AR Path="/5A574997/59B67410" Ref="#PWR052"  Part="1" 
AR Path="/5A584284/5928866C/59B67410" Ref="#PWR0147"  Part="1" 
F 0 "#PWR052" H 4400 3650 50  0001 C CNN
F 1 "Earth" H 4400 3750 50  0001 C CNN
F 2 "" H 4400 3900 50  0000 C CNN
F 3 "" H 4400 3900 50  0000 C CNN
	1    4400 3900
	1    0    0    -1  
$EndComp
$Comp
L +5V #PWR053
U 1 1 5A57DEC3
P 8400 1900
AR Path="/5A574997/5A57DEC3" Ref="#PWR053"  Part="1" 
AR Path="/5A584284/5928866C/5A57DEC3" Ref="#PWR0148"  Part="1" 
F 0 "#PWR053" H 8400 1750 50  0001 C CNN
F 1 "+5V" H 8400 2040 50  0000 C CNN
F 2 "" H 8400 1900 50  0000 C CNN
F 3 "" H 8400 1900 50  0000 C CNN
	1    8400 1900
	1    0    0    -1  
$EndComp
$Comp
L +5V #PWR054
U 1 1 5A57DF23
P 9100 1900
AR Path="/5A574997/5A57DF23" Ref="#PWR054"  Part="1" 
AR Path="/5A584284/5928866C/5A57DF23" Ref="#PWR0149"  Part="1" 
F 0 "#PWR054" H 9100 1750 50  0001 C CNN
F 1 "+5V" H 9100 2040 50  0000 C CNN
F 2 "" H 9100 1900 50  0000 C CNN
F 3 "" H 9100 1900 50  0000 C CNN
	1    9100 1900
	1    0    0    -1  
$EndComp
$Comp
L R R99
U 1 1 5A58127D
P 7800 3250
AR Path="/5A574997/5A58127D" Ref="R99"  Part="1" 
AR Path="/5A584284/5928866C/5A58127D" Ref="R99"  Part="1" 
F 0 "R99" V 7880 3250 50  0000 C CNN
F 1 "100" V 7800 3250 50  0000 C CNN
F 2 "Local:R_0603" V 7730 3250 50  0001 C CNN
F 3 "" H 7800 3250 50  0000 C CNN
	1    7800 3250
	-1   0    0    -1  
$EndComp
Wire Wire Line
	7800 3400 7800 3500
$Comp
L LD1117S33CTR U80
U 1 1 5A580B8B
P 3700 5750
AR Path="/5A574997/5A580B8B" Ref="U80"  Part="1" 
AR Path="/5A584284/5928866C/5A580B8B" Ref="U80"  Part="1" 
F 0 "U80" H 3700 6050 40  0000 C CNN
F 1 "AD1117-3V3" H 3700 5950 40  0000 C CNN
F 2 "Local:SOT-223-3Lead_TabPin2" H 3700 5850 40  0001 C CNN
F 3 "" H 3700 5750 60  0000 C CNN
	1    3700 5750
	1    0    0    -1  
$EndComp
$Comp
L C C81
U 1 1 5A580B92
P 4200 5950
AR Path="/5A574997/5A580B92" Ref="C81"  Part="1" 
AR Path="/5A584284/5928866C/5A580B92" Ref="C81"  Part="1" 
F 0 "C81" H 4250 6050 50  0000 L CNN
F 1 "47u 16V" H 4050 5850 50  0000 L CNN
F 2 "Local:C_1206" H 4238 5800 30  0001 C CNN
F 3 "" H 4200 5950 60  0000 C CNN
	1    4200 5950
	1    0    0    -1  
$EndComp
$Comp
L GND #PWR055
U 1 1 5A580B99
P 3700 6200
AR Path="/5A574997/5A580B99" Ref="#PWR055"  Part="1" 
AR Path="/5A584284/5928866C/5A580B99" Ref="#PWR0150"  Part="1" 
F 0 "#PWR055" H 3700 5950 60  0001 C CNN
F 1 "GND" H 3700 6050 60  0000 C CNN
F 2 "" H 3700 6200 60  0000 C CNN
F 3 "" H 3700 6200 60  0000 C CNN
	1    3700 6200
	1    0    0    -1  
$EndComp
$Comp
L +3V3 #PWR056
U 1 1 5A580B9F
P 4200 5600
AR Path="/5A574997/5A580B9F" Ref="#PWR056"  Part="1" 
AR Path="/5A584284/5928866C/5A580B9F" Ref="#PWR0151"  Part="1" 
F 0 "#PWR056" H 4200 5450 60  0001 C CNN
F 1 "+3V3" H 4200 5740 60  0000 C CNN
F 2 "" H 4200 5600 60  0000 C CNN
F 3 "" H 4200 5600 60  0000 C CNN
	1    4200 5600
	1    0    0    -1  
$EndComp
$Comp
L C C80
U 1 1 5A580BA5
P 3200 5950
AR Path="/5A574997/5A580BA5" Ref="C80"  Part="1" 
AR Path="/5A584284/5928866C/5A580BA5" Ref="C80"  Part="1" 
F 0 "C80" H 3250 6050 50  0000 L CNN
F 1 "10u 16V" H 3050 5850 50  0000 L CNN
F 2 "Local:C_1206" H 3238 5800 30  0001 C CNN
F 3 "" H 3200 5950 60  0000 C CNN
	1    3200 5950
	-1   0    0    -1  
$EndComp
$Comp
L GND #PWR057
U 1 1 5A580BAC
P 3200 6200
AR Path="/5A574997/5A580BAC" Ref="#PWR057"  Part="1" 
AR Path="/5A584284/5928866C/5A580BAC" Ref="#PWR0152"  Part="1" 
F 0 "#PWR057" H 3200 5950 60  0001 C CNN
F 1 "GND" H 3200 6050 60  0000 C CNN
F 2 "" H 3200 6200 60  0000 C CNN
F 3 "" H 3200 6200 60  0000 C CNN
	1    3200 6200
	1    0    0    -1  
$EndComp
$Comp
L GND #PWR058
U 1 1 5A580BB2
P 4200 6200
AR Path="/5A574997/5A580BB2" Ref="#PWR058"  Part="1" 
AR Path="/5A584284/5928866C/5A580BB2" Ref="#PWR0153"  Part="1" 
F 0 "#PWR058" H 4200 5950 60  0001 C CNN
F 1 "GND" H 4200 6050 60  0000 C CNN
F 2 "" H 4200 6200 60  0000 C CNN
F 3 "" H 4200 6200 60  0000 C CNN
	1    4200 6200
	1    0    0    -1  
$EndComp
$Comp
L GND #PWR059
U 1 1 5A580BB8
P 6000 6200
AR Path="/5A574997/5A580BB8" Ref="#PWR059"  Part="1" 
AR Path="/5A584284/5928866C/5A580BB8" Ref="#PWR0154"  Part="1" 
F 0 "#PWR059" H 6000 5950 60  0001 C CNN
F 1 "GND" H 6000 6050 60  0000 C CNN
F 2 "" H 6000 6200 60  0000 C CNN
F 3 "" H 6000 6200 60  0000 C CNN
	1    6000 6200
	1    0    0    -1  
$EndComp
Text GLabel 7200 5600 1    47   Input ~ 0
+3V3A
$Comp
L LD1117S33CTR U81
U 1 1 5A580BBF
P 6000 5750
AR Path="/5A574997/5A580BBF" Ref="U81"  Part="1" 
AR Path="/5A584284/5928866C/5A580BBF" Ref="U81"  Part="1" 
F 0 "U81" H 6000 6050 40  0000 C CNN
F 1 "XC6206-P332MR" H 6000 5950 40  0000 C CNN
F 2 "Local:SOT-23" H 6000 5850 40  0001 C CNN
F 3 "" H 6000 5750 60  0000 C CNN
	1    6000 5750
	1    0    0    -1  
$EndComp
$Comp
L GND #PWR060
U 1 1 5A580BC6
P 6500 6200
AR Path="/5A574997/5A580BC6" Ref="#PWR060"  Part="1" 
AR Path="/5A584284/5928866C/5A580BC6" Ref="#PWR0155"  Part="1" 
F 0 "#PWR060" H 6500 5950 60  0001 C CNN
F 1 "GND" H 6500 6050 60  0000 C CNN
F 2 "" H 6500 6200 60  0000 C CNN
F 3 "" H 6500 6200 60  0000 C CNN
	1    6500 6200
	1    0    0    -1  
$EndComp
$Comp
L C C85
U 1 1 5A580BCC
P 6500 5950
AR Path="/5A574997/5A580BCC" Ref="C85"  Part="1" 
AR Path="/5A584284/5928866C/5A580BCC" Ref="C85"  Part="1" 
F 0 "C85" H 6550 6050 50  0000 L CNN
F 1 "22u" H 6550 5850 50  0000 L CNN
F 2 "Local:C_0805" H 6538 5800 30  0001 C CNN
F 3 "" H 6500 5950 60  0000 C CNN
	1    6500 5950
	1    0    0    -1  
$EndComp
$Comp
L C C84
U 1 1 5A580BD3
P 5500 5950
AR Path="/5A574997/5A580BD3" Ref="C84"  Part="1" 
AR Path="/5A584284/5928866C/5A580BD3" Ref="C84"  Part="1" 
F 0 "C84" H 5550 6050 50  0000 L CNN
F 1 "1u" H 5550 5850 50  0000 L CNN
F 2 "Local:C_0805" H 5538 5800 30  0001 C CNN
F 3 "" H 5500 5950 60  0000 C CNN
	1    5500 5950
	-1   0    0    -1  
$EndComp
$Comp
L GND #PWR061
U 1 1 5A580BDA
P 5500 6200
AR Path="/5A574997/5A580BDA" Ref="#PWR061"  Part="1" 
AR Path="/5A584284/5928866C/5A580BDA" Ref="#PWR0156"  Part="1" 
F 0 "#PWR061" H 5500 5950 60  0001 C CNN
F 1 "GND" H 5500 6050 60  0000 C CNN
F 2 "" H 5500 6200 60  0000 C CNN
F 3 "" H 5500 6200 60  0000 C CNN
	1    5500 6200
	1    0    0    -1  
$EndComp
$Comp
L GNDA #PWR062
U 1 1 5A580BE0
P 7200 6200
AR Path="/5A574997/5A580BE0" Ref="#PWR062"  Part="1" 
AR Path="/5A584284/5928866C/5A580BE0" Ref="#PWR0157"  Part="1" 
F 0 "#PWR062" H 7200 5950 50  0001 C CNN
F 1 "GNDA" H 7200 6050 50  0000 C CNN
F 2 "" H 7200 6200 50  0000 C CNN
F 3 "" H 7200 6200 50  0000 C CNN
	1    7200 6200
	1    0    0    -1  
$EndComp
$Comp
L GND #PWR063
U 1 1 5A580BE6
P 6700 6200
AR Path="/5A574997/5A580BE6" Ref="#PWR063"  Part="1" 
AR Path="/5A584284/5928866C/5A580BE6" Ref="#PWR0158"  Part="1" 
F 0 "#PWR063" H 6700 5950 60  0001 C CNN
F 1 "GND" H 6700 6050 60  0000 C CNN
F 2 "" H 6700 6200 60  0000 C CNN
F 3 "" H 6700 6200 60  0000 C CNN
	1    6700 6200
	1    0    0    -1  
$EndComp
$Comp
L Ferrite_Bead L81
U 1 1 5A580BEC
P 6950 6100
AR Path="/5A574997/5A580BEC" Ref="L81"  Part="1" 
AR Path="/5A584284/5928866C/5A580BEC" Ref="L81"  Part="1" 
F 0 "L81" V 6800 6125 50  0000 C CNN
F 1 "470R" V 7100 6100 50  0000 C CNN
F 2 "Local:R_0603" V 6880 6100 50  0001 C CNN
F 3 "" H 6950 6100 50  0000 C CNN
	1    6950 6100
	0    1    1    0   
$EndComp
$Comp
L +5V #PWR064
U 1 1 5A580BF3
P 3200 5600
AR Path="/5A574997/5A580BF3" Ref="#PWR064"  Part="1" 
AR Path="/5A584284/5928866C/5A580BF3" Ref="#PWR0159"  Part="1" 
F 0 "#PWR064" H 3200 5450 50  0001 C CNN
F 1 "+5V" H 3200 5740 50  0000 C CNN
F 2 "" H 3200 5600 50  0000 C CNN
F 3 "" H 3200 5600 50  0000 C CNN
	1    3200 5600
	1    0    0    -1  
$EndComp
$Comp
L +5V #PWR065
U 1 1 5A580BF9
P 5500 5600
AR Path="/5A574997/5A580BF9" Ref="#PWR065"  Part="1" 
AR Path="/5A584284/5928866C/5A580BF9" Ref="#PWR0160"  Part="1" 
F 0 "#PWR065" H 5500 5450 50  0001 C CNN
F 1 "+5V" H 5500 5740 50  0000 C CNN
F 2 "" H 5500 5600 50  0000 C CNN
F 3 "" H 5500 5600 50  0000 C CNN
	1    5500 5600
	1    0    0    -1  
$EndComp
$Comp
L Ferrite_Bead L80
U 1 1 5A580BFF
P 6950 5700
AR Path="/5A574997/5A580BFF" Ref="L80"  Part="1" 
AR Path="/5A584284/5928866C/5A580BFF" Ref="L80"  Part="1" 
F 0 "L80" V 6800 5725 50  0000 C CNN
F 1 "470R" V 7100 5700 50  0000 C CNN
F 2 "Local:R_0603" V 6880 5700 50  0001 C CNN
F 3 "" H 6950 5700 50  0000 C CNN
	1    6950 5700
	0    1    1    0   
$EndComp
$Comp
L CP C83
U 1 1 5A580C06
P 5050 5950
AR Path="/5A574997/5A580C06" Ref="C83"  Part="1" 
AR Path="/5A584284/5928866C/5A580C06" Ref="C83"  Part="1" 
F 0 "C83" H 5100 6050 50  0000 L CNN
F 1 "47u 25V" H 4900 5850 50  0000 L CNN
F 2 "Local:CP_Radial_D5.0mm_P2.00mm" H 5088 5800 30  0001 C CNN
F 3 "" H 5050 5950 60  0000 C CNN
	1    5050 5950
	1    0    0    -1  
$EndComp
$Comp
L GND #PWR066
U 1 1 5A580C0D
P 5050 6200
AR Path="/5A574997/5A580C0D" Ref="#PWR066"  Part="1" 
AR Path="/5A584284/5928866C/5A580C0D" Ref="#PWR0161"  Part="1" 
F 0 "#PWR066" H 5050 5950 60  0001 C CNN
F 1 "GND" H 5050 6050 60  0000 C CNN
F 2 "" H 5050 6200 60  0000 C CNN
F 3 "" H 5050 6200 60  0000 C CNN
	1    5050 6200
	1    0    0    -1  
$EndComp
$Comp
L +3V3 #PWR067
U 1 1 5A580C13
P 5050 5600
AR Path="/5A574997/5A580C13" Ref="#PWR067"  Part="1" 
AR Path="/5A584284/5928866C/5A580C13" Ref="#PWR0162"  Part="1" 
F 0 "#PWR067" H 5050 5450 60  0001 C CNN
F 1 "+3V3" H 5050 5740 60  0000 C CNN
F 2 "" H 5050 5600 60  0000 C CNN
F 3 "" H 5050 5600 60  0000 C CNN
	1    5050 5600
	1    0    0    -1  
$EndComp
$Comp
L PWR_FLAG #FLG068
U 1 1 5A580C19
P 7500 5700
AR Path="/5A574997/5A580C19" Ref="#FLG068"  Part="1" 
AR Path="/5A584284/5928866C/5A580C19" Ref="#FLG0163"  Part="1" 
F 0 "#FLG068" H 7500 5795 50  0001 C CNN
F 1 "PWR_FLAG" H 7500 5880 50  0000 C CNN
F 2 "" H 7500 5700 50  0000 C CNN
F 3 "" H 7500 5700 50  0000 C CNN
	1    7500 5700
	1    0    0    -1  
$EndComp
Text GLabel 7500 5800 3    47   Input ~ 0
+3V3A
$Comp
L GNDA #PWR069
U 1 1 5A580C20
P 7800 6200
AR Path="/5A574997/5A580C20" Ref="#PWR069"  Part="1" 
AR Path="/5A584284/5928866C/5A580C20" Ref="#PWR0164"  Part="1" 
F 0 "#PWR069" H 7800 5950 50  0001 C CNN
F 1 "GNDA" H 7800 6050 50  0000 C CNN
F 2 "" H 7800 6200 50  0000 C CNN
F 3 "" H 7800 6200 50  0000 C CNN
	1    7800 6200
	1    0    0    -1  
$EndComp
$Comp
L PWR_FLAG #FLG070
U 1 1 5A580C26
P 7800 6100
AR Path="/5A574997/5A580C26" Ref="#FLG070"  Part="1" 
AR Path="/5A584284/5928866C/5A580C26" Ref="#FLG0165"  Part="1" 
F 0 "#FLG070" H 7800 6195 50  0001 C CNN
F 1 "PWR_FLAG" H 7800 6280 50  0000 C CNN
F 2 "" H 7800 6100 50  0000 C CNN
F 3 "" H 7800 6100 50  0000 C CNN
	1    7800 6100
	1    0    0    -1  
$EndComp
Wire Wire Line
	4200 6100 4200 6200
Connection ~ 3200 5700
Wire Wire Line
	3200 5600 3200 5800
Wire Wire Line
	3200 6100 3200 6200
Wire Wire Line
	3200 5700 3300 5700
Connection ~ 4200 5700
Wire Wire Line
	3700 6000 3700 6200
Wire Wire Line
	4200 5600 4200 5800
Wire Wire Line
	4100 5700 4200 5700
Wire Wire Line
	6400 5700 6800 5700
Wire Wire Line
	6500 5700 6500 5800
Wire Wire Line
	6000 6000 6000 6200
Connection ~ 6500 5700
Wire Wire Line
	6500 6100 6500 6200
Wire Wire Line
	5600 5700 5500 5700
Wire Wire Line
	5500 5600 5500 5800
Wire Wire Line
	5500 6200 5500 6100
Connection ~ 5500 5700
Wire Wire Line
	6800 6100 6700 6100
Wire Wire Line
	6700 6100 6700 6200
Wire Wire Line
	7100 6100 7200 6100
Wire Wire Line
	7200 6100 7200 6200
Wire Wire Line
	7100 5700 7200 5700
Wire Wire Line
	7200 5700 7200 5600
Wire Wire Line
	5050 5600 5050 5800
Wire Wire Line
	5050 6100 5050 6200
Wire Wire Line
	7500 5700 7500 5800
Wire Wire Line
	7800 6100 7800 6200
$Comp
L GND #PWR071
U 1 1 5A580C48
P 4600 6200
AR Path="/5A574997/5A580C48" Ref="#PWR071"  Part="1" 
AR Path="/5A584284/5928866C/5A580C48" Ref="#PWR0166"  Part="1" 
F 0 "#PWR071" H 4600 5950 60  0001 C CNN
F 1 "GND" H 4600 6050 60  0000 C CNN
F 2 "" H 4600 6200 60  0000 C CNN
F 3 "" H 4600 6200 60  0000 C CNN
	1    4600 6200
	1    0    0    -1  
$EndComp
$Comp
L +3V3 #PWR072
U 1 1 5A580C4E
P 4600 5600
AR Path="/5A574997/5A580C4E" Ref="#PWR072"  Part="1" 
AR Path="/5A584284/5928866C/5A580C4E" Ref="#PWR0167"  Part="1" 
F 0 "#PWR072" H 4600 5450 60  0001 C CNN
F 1 "+3V3" H 4600 5740 60  0000 C CNN
F 2 "" H 4600 5600 60  0000 C CNN
F 3 "" H 4600 5600 60  0000 C CNN
	1    4600 5600
	1    0    0    -1  
$EndComp
Wire Wire Line
	4600 6200 4600 6100
Wire Wire Line
	4600 5800 4600 5600
$Comp
L C C82
U 1 1 5A580C56
P 4600 5950
AR Path="/5A574997/5A580C56" Ref="C82"  Part="1" 
AR Path="/5A584284/5928866C/5A580C56" Ref="C82"  Part="1" 
F 0 "C82" H 4650 6050 50  0000 L CNN
F 1 "47u 16V" H 4450 5850 50  0000 L CNN
F 2 "Local:C_1206" H 4638 5800 30  0001 C CNN
F 3 "" H 4600 5950 60  0000 C CNN
	1    4600 5950
	1    0    0    -1  
$EndComp
$Comp
L R R94
U 1 1 5A6D6694
P 3350 3000
F 0 "R94" V 3430 3000 50  0000 C CNN
F 1 "15R" V 3350 3000 50  0000 C CNN
F 2 "Local:R_Axial_DIN0411_L9.9mm_D3.6mm_P5.08mm_Vertical" V 3280 3000 50  0001 C CNN
F 3 "" H 3350 3000 50  0000 C CNN
	1    3350 3000
	0    1    -1   0   
$EndComp
Wire Wire Line
	3100 3000 3200 3000
Text GLabel 3600 3000 1    47   Input ~ 0
HV_LINE
$EndSCHEMATC
