#VRML V2.0 utf8


Group {
  children 
    Group {
      children [ 
        Group {
          children 
            Transform {
              translation 0 0 0
              rotation 0 0 1  0
              scale 1 1 1
              scaleOrientation 0 0 1  0
              center 0 0 0
              children 
                Switch {
                  whichChoice 0
                  choice [ 
                    Group {
                      children [ 
                        DEF o0 Group {
                          children 
                            Shape {
                              appearance 
                              Appearance {
                                material 
                                Material {
                                  diffuseColor 0.098039217 0.098039217 0.098039217
                                  shininess 1

                                }

                              }
                              geometry 
                              IndexedLineSet {
                                coord 
                                DEF o1 Coordinate {
                                  point [ 1.9 2.2 1.6891381,
                                      -1.9 2.2 1.6891381,
                                      1.9 2.2 -1.6891381,
                                      -1.9 2.2 -1.6891381,
                                      -1.2725337 2.2 -0.67792928,
                                      -0.92253363 2.2 -1.0279293,
                                      -1.1912129 2.2 -0.68750757,
                                      -1.1171968 2.2 -0.71428865,
                                      -1.0551261 2.2 -0.75364119,
                                      -1.0020691 2.2 -0.80578303,
                                      -0.96158081 2.2 -0.86727953,
                                      -0.9354744 2.2 -0.9336369,
                                      -0.92563629 2.2 -0.9814297,
                                      -1.6225337 2.2 -1.0279293,
                                      -1.6129553 2.2 -0.94660848,
                                      -1.5861742 2.2 -0.87259239,
                                      -1.5468217 2.2 -0.81052172,
                                      -1.4946799 2.2 -0.75746477,
                                      -1.4331834 2.2 -0.71697646,
                                      -1.3668261 2.2 -0.69086999,
                                      -1.3190333 2.2 -0.68103188,
                                      -1.2725337 2.2 -1.3779293,
                                      -1.3538544 2.2 -1.368351,
                                      -1.4278705 2.2 -1.3415699,
                                      -1.4899411 2.2 -1.3022174,
                                      -1.5429982 2.2 -1.2500756,
                                      -1.5834864 2.2 -1.1885791,
                                      -1.6095929 2.2 -1.1222216,
                                      -1.619431 2.2 -1.0744289,
                                      -1.1912129 2.2 -1.368351,
                                      -1.1171968 2.2 -1.3415699,
                                      -1.0551261 2.2 -1.3022174,
                                      -1.0020691 2.2 -1.2500756,
                                      -0.96158081 2.2 -1.1885791,
                                      -0.9354744 2.2 -1.1222216,
                                      -0.92563629 2.2 -1.0744289,
                                      -2.1700001 1.3 -1.47,
                                      -2.2 1.2 -1.47,
                                      -2.1700001 1.3 -1.0700001,
                                      -2.2 1.2 -1.0700001,
                                      -2.2 1.2 1.0700001,
                                      -2.1700001 1.3 1.0700001,
                                      -2.1700001 1.3 1.47,
                                      -2.2 1.2 1.47,
                                      -2.2 1.2 1.925,
                                      -1.9 2.2 1.6891381,
                                      -1.9 2.2 -1.6891381,
                                      -2.2 1.2 -1.925,
                                      -1.2725337 2.2 -1.3779293,
                                      -0.92253363 2.2 -1.0279293,
                                      -1.1912129 2.2 -1.368351,
                                      -1.1171968 2.2 -1.3415699,
                                      -1.0551261 2.2 -1.3022174,
                                      -1.0020691 2.2 -1.2500756,
                                      -0.96158081 2.2 -1.1885791,
                                      -0.9354744 2.2 -1.1222216,
                                      -0.92563629 2.2 -1.0744289,
                                      -1.2725337 2.0999999 -1.3779293,
                                      -0.92253363 2.0999999 -1.0279293,
                                      -1.1912129 2.0999999 -1.368351,
                                      -1.1171968 2.0999999 -1.3415699,
                                      -1.0551261 2.0999999 -1.3022174,
                                      -1.0020691 2.0999999 -1.2500756,
                                      -0.96158081 2.0999999 -1.1885791,
                                      -0.9354744 2.0999999 -1.1222216,
                                      -0.92563629 2.0999999 -1.0744289,
                                      -1.2725337 2.0999999 -1.3779293,
                                      -0.92253363 2.0999999 -1.0279293,
                                      -1.1912129 2.0999999 -1.368351,
                                      -1.1171968 2.0999999 -1.3415699,
                                      -1.0551261 2.0999999 -1.3022174,
                                      -1.0020691 2.0999999 -1.2500756,
                                      -0.96158081 2.0999999 -1.1885791,
                                      -0.9354744 2.0999999 -1.1222216,
                                      -0.92563629 2.0999999 -1.0744289,
                                      -1.6225337 2.0999999 -1.0279293,
                                      -1.6129553 2.0999999 -1.1092501,
                                      -1.5861742 2.0999999 -1.1832662,
                                      -1.5468217 2.0999999 -1.2453368,
                                      -1.4946799 2.0999999 -1.2983937,
                                      -1.4331834 2.0999999 -1.3388821,
                                      -1.3668261 2.0999999 -1.3649886,
                                      -1.3190333 2.0999999 -1.3748267,
                                      -1.2725337 2.0999999 -0.67792928,
                                      -1.6129553 2.0999999 -0.94660848,
                                      -1.5861742 2.0999999 -0.87259239,
                                      -1.5468217 2.0999999 -0.81052172,
                                      -1.4946799 2.0999999 -0.75746477,
                                      -1.4331834 2.0999999 -0.71697646,
                                      -1.3668261 2.0999999 -0.69086999,
                                      -1.3190333 2.0999999 -0.68103188,
                                      -1.1912129 2.0999999 -0.68750757,
                                      -1.1171968 2.0999999 -0.71428865,
                                      -1.0551261 2.0999999 -0.75364119,
                                      -1.0020691 2.0999999 -0.80578303,
                                      -0.96158081 2.0999999 -0.86727953,
                                      -0.9354744 2.0999999 -0.9336369,
                                      -0.92563629 2.0999999 -0.9814297,
                                      -1.2725337 2.2 -1.3779293,
                                      -1.6225337 2.2 -1.0279293,
                                      -1.3538544 2.2 -1.368351,
                                      -1.4278705 2.2 -1.3415699,
                                      -1.4899411 2.2 -1.3022174,
                                      -1.5429982 2.2 -1.2500756,
                                      -1.5834864 2.2 -1.1885791,
                                      -1.6095929 2.2 -1.1222216,
                                      -1.619431 2.2 -1.0744289,
                                      -1.6225337 2.0999999 -1.0279293,
                                      -1.2725337 2.0999999 -1.3779293,
                                      -1.6129553 2.0999999 -1.1092501,
                                      -1.5861742 2.0999999 -1.1832662,
                                      -1.5468217 2.0999999 -1.2453368,
                                      -1.4946799 2.0999999 -1.2983937,
                                      -1.4331834 2.0999999 -1.3388821,
                                      -1.3668261 2.0999999 -1.3649886,
                                      -1.3190333 2.0999999 -1.3748267,
                                      -1.2725337 2.2 -0.67792928,
                                      -0.92253363 2.2 -1.0279293,
                                      -1.1912129 2.2 -0.68750757,
                                      -1.1171968 2.2 -0.71428865,
                                      -1.0551261 2.2 -0.75364119,
                                      -1.0020691 2.2 -0.80578303,
                                      -0.96158081 2.2 -0.86727953,
                                      -0.9354744 2.2 -0.9336369,
                                      -0.92563629 2.2 -0.9814297,
                                      -0.92253363 2.0999999 -1.0279293,
                                      -1.2725337 2.0999999 -0.67792928,
                                      -1.1912129 2.0999999 -0.68750757,
                                      -1.1171968 2.0999999 -0.71428865,
                                      -1.0551261 2.0999999 -0.75364119,
                                      -1.0020691 2.0999999 -0.80578303,
                                      -0.96158081 2.0999999 -0.86727953,
                                      -0.9354744 2.0999999 -0.9336369,
                                      -0.92563629 2.0999999 -0.9814297,
                                      -1.6225337 2.2 -1.0279293,
                                      -1.2725337 2.2 -0.67792928,
                                      -1.6129553 2.2 -0.94660848,
                                      -1.5861742 2.2 -0.87259239,
                                      -1.5468217 2.2 -0.81052172,
                                      -1.4946799 2.2 -0.75746477,
                                      -1.4331834 2.2 -0.71697646,
                                      -1.3668261 2.2 -0.69086999,
                                      -1.3190333 2.2 -0.68103188,
                                      -1.2725337 2.0999999 -0.67792928,
                                      -1.6225337 2.0999999 -1.0279293,
                                      -1.6129553 2.0999999 -0.94660848,
                                      -1.5861742 2.0999999 -0.87259239,
                                      -1.5468217 2.0999999 -0.81052172,
                                      -1.4946799 2.0999999 -0.75746477,
                                      -1.4331834 2.0999999 -0.71697646,
                                      -1.3668261 2.0999999 -0.69086999,
                                      -1.3190333 2.0999999 -0.68103188,
                                      2.2 1.2 1.925,
                                      -2.2 1.2 1.925,
                                      1.9 2.2 1.6891381,
                                      -1.9 2.2 1.6891381,
                                      2.2 1.2 1.47,
                                      2.2 1.2 1.925,
                                      2.1700001 1.3 1.47,
                                      2.1700001 1.3 1.0700001,
                                      2.2 1.2 1.0700001,
                                      2.2 1.2 -1.0700001,
                                      2.1700001 1.3 -1.0700001,
                                      2.1700001 1.3 -1.47,
                                      2.2 1.2 -1.47,
                                      2.2 1.2 -1.925,
                                      1.9 2.2 -1.6891381,
                                      1.9 2.2 1.6891381,
                                      -1.9 2.2 -1.6891381,
                                      1.9 2.2 -1.6891381,
                                      2.2 1.2 -1.925,
                                      -2.2 1.2 -1.925,
                                      -2.2 1.2 -1.925,
                                      2.2 1.2 -1.925,
                                      2.0999999 0.2 -1.8652009,
                                      -2.0999999 0.2 -1.8652009,
                                      -2.0999999 0.2 -1.8652009,
                                      2.0999999 0.2 -1.8652009,
                                      2.0999999 0.2 1.8652009,
                                      -2.0999999 0.2 1.8652009,
                                      2.1900001 1.1 -1.47,
                                      2.2 1.2 -1.47,
                                      2.1900001 1.1 -1.0700001,
                                      2.2 1.2 -1.0700001,
                                      2.2 1.2 1.0700001,
                                      2.1900001 1.1 1.0700001,
                                      2.1900001 1.1 1.47,
                                      2.2 1.2 1.47,
                                      2.2 1.2 1.925,
                                      2.0999999 0.2 1.8652009,
                                      2.0999999 0.2 -1.8652009,
                                      2.2 1.2 -1.925,
                                      -2.0999999 0.2 1.8652009,
                                      2.0999999 0.2 1.8652009,
                                      2.2 1.2 1.925,
                                      -2.2 1.2 1.925,
                                      -2.2 1.2 1.925,
                                      -2.2 1.2 1.47,
                                      -2.1900001 1.1 1.47,
                                      -2.1900001 1.1 1.0700001,
                                      -2.2 1.2 1.0700001,
                                      -2.2 1.2 -1.0700001,
                                      -2.1900001 1.1 -1.0700001,
                                      -2.1900001 1.1 -1.47,
                                      -2.2 1.2 -1.47,
                                      -2.2 1.2 -1.925,
                                      -2.0999999 0.2 -1.8652009,
                                      -2.0999999 0.2 1.8652009,
                                      1.9 2.2 1.6891381,
                                      -1.9 2.2 1.6891381,
                                      1.9 2.2 -1.6891381,
                                      -1.9 2.2 -1.6891381,
                                      -1.2725337 2.2 -0.67792928,
                                      -0.92253363 2.2 -1.0279293,
                                      -1.6225337 2.2 -1.0279293,
                                      -1.2725337 2.2 -1.3779293,
                                      -2.1700001 1.3 -1.47,
                                      -2.2 1.2 -1.47,
                                      -2.1700001 1.3 -1.0700001,
                                      -2.2 1.2 -1.0700001,
                                      -2.2 1.2 1.0700001,
                                      -2.1700001 1.3 1.0700001,
                                      -2.1700001 1.3 1.47,
                                      -2.2 1.2 1.47,
                                      -2.2 1.2 1.925,
                                      -2.2 1.2 -1.925,
                                      -1.2725337 2.0999999 -1.3779293,
                                      -0.92253363 2.0999999 -1.0279293,
                                      -1.6225337 2.0999999 -1.0279293,
                                      -1.2725337 2.0999999 -0.67792928,
                                      2.2 1.2 1.925,
                                      2.2 1.2 1.47,
                                      2.1700001 1.3 1.47,
                                      2.1700001 1.3 1.0700001,
                                      2.2 1.2 1.0700001,
                                      2.2 1.2 -1.0700001,
                                      2.1700001 1.3 -1.0700001,
                                      2.1700001 1.3 -1.47,
                                      2.2 1.2 -1.47,
                                      2.2 1.2 -1.925,
                                      2.0999999 0.2 -1.8652009,
                                      -2.0999999 0.2 -1.8652009,
                                      2.0999999 0.2 1.8652009,
                                      -2.0999999 0.2 1.8652009,
                                      2.1900001 1.1 -1.47,
                                      2.1900001 1.1 -1.0700001,
                                      2.1900001 1.1 1.0700001,
                                      2.1900001 1.1 1.47,
                                      -2.1900001 1.1 1.47,
                                      -2.1900001 1.1 1.0700001,
                                      -2.1900001 1.1 -1.0700001,
                                      -2.1900001 1.1 -1.47 ]

                                }
                                coordIndex [ 0, 1, -1, 2, 0, -1, 3, 2,
                                    -1, 1, 3, -1, 4, 6, 7, 8,
                                    9, 10, 11, 12, 5, -1, 13, 14,
                                    15, 16, 17, 18, 19, 20, 4, -1,
                                    21, 22, 23, 24, 25, 26, 27, 28,
                                    13, -1, 21, 29, 30, 31, 32, 33,
                                    34, 35, 5, -1, 36, 37, -1, 38,
                                    36, -1, 39, 38, -1, 40, 39, -1,
                                    41, 40, -1, 42, 41, -1, 43, 42,
                                    -1, 44, 43, -1, 45, 44, -1, 47,
                                    46, -1, 37, 47, -1, 57, 48, -1,
                                    57, 59, 60, 61, 62, 63, 64, 65,
                                    58, -1, 49, 58, -1, 75, 76, 77,
                                    78, 79, 80, 81, 82, 66, -1, 75,
                                    84, 85, 86, 87, 88, 89, 90, 83,
                                    -1, 83, 91, 92, 93, 94, 95, 96,
                                    97, 67, -1, 107, 99, -1, 116, 126,
                                    -1, 152, 153, -1, 154, 152, -1, 156,
                                    157, -1, 158, 156, -1, 159, 158, -1,
                                    160, 159, -1, 161, 160, -1, 162, 161,
                                    -1, 163, 162, -1, 164, 163, -1, 165,
                                    164, -1, 166, 165, -1, 171, 170, -1,
                                    174, 173, -1, 175, 174, -1, 172, 175,
                                    -1, 178, 177, -1, 179, 178, -1, 176,
                                    179, -1, 180, 181, -1, 182, 180, -1,
                                    183, 182, -1, 185, 184, -1, 186, 185,
                                    -1, 187, 186, -1, 189, 188, -1, 192,
                                    195, -1, 198, 197, -1, 199, 198, -1,
                                    200, 199, -1, 202, 201, -1, 203, 202,
                                    -1, 204, 203, -1 ]

                              }

                            }

                        },
                          
                        DEF o2 Group {
                          children 
                            Shape {
                              appearance 
                              Appearance {
                                material 
                                Material {
                                  diffuseColor 0.17647059 0.17647059 0.17647059
                                  ambientIntensity 0.1
                                  specularColor 0.059999999 0.059999999 0.059999999
                                  shininess 0.0077999998

                                }

                              }
                              geometry 
                              IndexedFaceSet {
                                coord 
                                USE o1
                                coordIndex [ 1, 15, 14, -1, 1, 16, 15, -1,
                                    1, 17, 16, -1, 1, 18, 17, -1,
                                    1, 19, 18, -1, 1, 20, 19, -1,
                                    1, 4, 20, -1, 1, 14, 3, -1,
                                    24, 3, 25, -1, 2, 11, 10, -1,
                                    26, 25, 3, -1, 2, 12, 11, -1,
                                    2, 5, 12, -1, 2, 29, 30, -1,
                                    2, 30, 31, -1, 2, 31, 32, -1,
                                    23, 3, 24, -1, 2, 32, 33, -1,
                                    2, 33, 34, -1, 2, 34, 35, -1,
                                    2, 35, 5, -1, 2, 3, 29, -1,
                                    27, 26, 3, -1, 0, 9, 8, -1,
                                    0, 10, 9, -1, 22, 3, 23, -1,
                                    0, 2, 10, -1, 0, 8, 1, -1,
                                    28, 27, 3, -1, 21, 3, 22, -1,
                                    13, 28, 3, -1, 29, 3, 21, -1,
                                    14, 13, 3, -1, 1, 6, 4, -1,
                                    1, 7, 6, -1, 1, 8, 7, -1,
                                    42, 43, 44, -1, 45, 41, 42, -1,
                                    45, 42, 44, -1, 39, 40, 41, -1,
                                    38, 39, 41, -1, 38, 41, 45, -1,
                                    47, 37, 36, -1, 46, 36, 38, -1,
                                    46, 38, 45, -1, 46, 47, 36, -1,
                                    48, 57, 59, -1, 50, 48, 59, -1,
                                    51, 59, 60, -1, 51, 50, 59, -1,
                                    52, 60, 61, -1, 52, 51, 60, -1,
                                    53, 61, 62, -1, 53, 62, 63, -1,
                                    53, 52, 61, -1, 54, 53, 63, -1,
                                    55, 63, 64, -1, 55, 54, 63, -1,
                                    56, 64, 65, -1, 56, 55, 64, -1,
                                    49, 65, 58, -1, 49, 56, 65, -1,
                                    81, 80, 79, -1, 76, 78, 77, -1,
                                    84, 76, 75, -1, 68, 79, 78, -1,
                                    68, 82, 81, -1, 68, 66, 82, -1,
                                    68, 81, 79, -1, 86, 84, 85, -1,
                                    86, 78, 76, -1, 86, 76, 84, -1,
                                    70, 69, 68, -1, 70, 68, 78, -1,
                                    89, 87, 88, -1, 73, 72, 71, -1,
                                    67, 74, 73, -1, 67, 73, 71, -1,
                                    91, 86, 87, -1, 91, 89, 90, -1,
                                    91, 90, 83, -1, 91, 87, 89, -1,
                                    96, 97, 67, -1, 93, 71, 70, -1,
                                    93, 91, 92, -1, 93, 78, 86, -1,
                                    93, 70, 78, -1, 93, 86, 91, -1,
                                    94, 95, 96, -1, 94, 67, 71, -1,
                                    94, 96, 67, -1, 94, 71, 93, -1,
                                    106, 99, 107, -1, 106, 107, 109, -1,
                                    105, 109, 110, -1, 105, 106, 109, -1,
                                    104, 110, 111, -1, 104, 105, 110, -1,
                                    103, 111, 112, -1, 103, 104, 111, -1,
                                    102, 112, 113, -1, 102, 103, 112, -1,
                                    101, 113, 114, -1, 101, 102, 113, -1,
                                    100, 114, 115, -1, 100, 101, 114, -1,
                                    98, 115, 108, -1, 98, 100, 115, -1,
                                    117, 125, 133, -1, 124, 133, 132, -1,
                                    124, 117, 133, -1, 123, 124, 132, -1,
                                    122, 131, 130, -1, 122, 132, 131, -1,
                                    122, 123, 132, -1, 121, 122, 130, -1,
                                    120, 129, 128, -1, 120, 130, 129, -1,
                                    120, 121, 130, -1, 119, 120, 128, -1,
                                    118, 127, 126, -1, 118, 128, 127, -1,
                                    118, 119, 128, -1, 116, 118, 126, -1,
                                    142, 135, 143, -1, 142, 143, 151, -1,
                                    141, 151, 150, -1, 141, 142, 151, -1,
                                    140, 149, 148, -1, 140, 150, 149, -1,
                                    140, 141, 150, -1, 139, 140, 148, -1,
                                    138, 147, 146, -1, 138, 148, 147, -1,
                                    138, 139, 148, -1, 137, 138, 146, -1,
                                    136, 145, 144, -1, 136, 146, 145, -1,
                                    136, 137, 146, -1, 134, 136, 144, -1,
                                    152, 154, 155, -1, 152, 155, 153, -1,
                                    158, 167, 157, -1, 156, 158, 157, -1,
                                    159, 167, 158, -1, 162, 159, 160, -1,
                                    162, 166, 167, -1, 162, 167, 159, -1,
                                    161, 162, 160, -1, 163, 166, 162, -1,
                                    165, 163, 164, -1, 165, 166, 163, -1,
                                    170, 171, 168, -1, 169, 170, 168, -1,
                                    174, 175, 172, -1, 173, 174, 172, -1,
                                    177, 178, 179, -1, 177, 179, 176, -1,
                                    186, 187, 188, -1, 189, 185, 186, -1,
                                    189, 186, 188, -1, 183, 184, 185, -1,
                                    182, 185, 189, -1, 182, 183, 185, -1,
                                    191, 181, 180, -1, 190, 180, 182, -1,
                                    190, 182, 189, -1, 190, 191, 180, -1,
                                    194, 195, 192, -1, 193, 194, 192, -1,
                                    198, 207, 196, -1, 197, 198, 196, -1,
                                    199, 207, 198, -1, 206, 207, 199, -1,
                                    202, 199, 200, -1, 202, 206, 199, -1,
                                    201, 202, 200, -1, 203, 206, 202, -1,
                                    205, 203, 204, -1, 205, 206, 203, -1 ]
                                ccw TRUE
                                solid FALSE
                                convex TRUE
                                creaseAngle 0

                              }

                            }

                        },
                          
                        DEF o3 Group {
                          children 
                            Shape {
                              appearance 
                              Appearance {
                                material 
                                Material {
                                  emissiveColor 0.098039217 0.098039217 0.098039217

                                }

                              }
                              geometry 
                              PointSet {
                                coord 
                                USE o1

                              }

                            }

                        } ]

                    },
                      
                    USE o2,
                      
                    Group {
                      children [ 
                        USE o0,
                          
                        USE o3 ]

                    },
                      
                    USE o3 ]

                }

            }

        },
          
        Group {
          children 
            Transform {
              translation 0 0 0
              rotation 0 0 1  0
              scale 1 1 1
              scaleOrientation 0 0 1  0
              center 0 0 0
              children 
                Switch {
                  whichChoice 0
                  choice [ 
                    Group {
                      children [ 
                        DEF o4 Group {
                          children 
                            Shape {
                              appearance 
                              Appearance {
                                material 
                                Material {
                                  diffuseColor 0.098039217 0.098039217 0.098039217
                                  shininess 1

                                }

                              }
                              geometry 
                              IndexedLineSet {
                                coord 
                                DEF o5 Coordinate {
                                  point [ 2.6500001 1.173685 1.47,
                                      2.4640684 1.3 1.47,
                                      2.6324928 1.2078576 1.47,
                                      2.6076877 1.2391889 1.47,
                                      2.5764585 1.2654343 1.47,
                                      2.5405536 1.2847972 1.47,
                                      2.5022874 1.2963144 1.47,
                                      2.6500001 1.173685 1.0700001,
                                      2.4640684 1.3 1.0700001,
                                      2.6324928 1.2078576 1.0700001,
                                      2.6076877 1.2391889 1.0700001,
                                      2.5764585 1.2654343 1.0700001,
                                      2.5405536 1.2847972 1.0700001,
                                      2.5022874 1.2963144 1.0700001,
                                      2.1900001 1.1 1.0700001,
                                      2.4640684 1.1 1.0700001,
                                      2.2 1.2 1.0700001,
                                      2.1700001 1.3 1.0700001,
                                      2.4640684 1.3 1.0700001,
                                      2.6500001 1.173685 1.0700001,
                                      2.6324928 1.2078576 1.0700001,
                                      2.6076877 1.2391889 1.0700001,
                                      2.5764585 1.2654343 1.0700001,
                                      2.5405536 1.2847972 1.0700001,
                                      2.5022874 1.2963144 1.0700001,
                                      3.0358727 0.2 1.0700001,
                                      3.5 0.2 1.0700001,
                                      3.5 0 1.0700001,
                                      2.9000001 0 1.0700001,
                                      2.1900001 1.1 1.47,
                                      2.4640684 1.1 1.47,
                                      2.1900001 1.1 1.0700001,
                                      2.4640684 1.1 1.0700001,
                                      2.9000001 0 1.47,
                                      3.5 0 1.47,
                                      2.9000001 0 1.0700001,
                                      3.5 0 1.0700001,
                                      3.5 0.2 1.47,
                                      3.0358727 0.2 1.47,
                                      3.5 0.2 1.0700001,
                                      3.0358727 0.2 1.0700001,
                                      2.1700001 1.3 1.47,
                                      2.1700001 1.3 1.0700001,
                                      2.4640684 1.3 1.47,
                                      2.4640684 1.3 1.0700001,
                                      2.2 1.2 1.47,
                                      2.1700001 1.3 1.47,
                                      2.1900001 1.1 1.47,
                                      2.4640684 1.1 1.47,
                                      2.9000001 0 1.47,
                                      3.5 0 1.47,
                                      3.5 0.2 1.47,
                                      3.0358727 0.2 1.47,
                                      2.6500001 1.173685 1.47,
                                      2.4640684 1.3 1.47,
                                      2.6324928 1.2078576 1.47,
                                      2.6076877 1.2391889 1.47,
                                      2.5764585 1.2654343 1.47,
                                      2.5405536 1.2847972 1.47,
                                      2.5022874 1.2963144 1.47,
                                      2.9000001 0 1.47,
                                      2.4640684 1.1 1.47,
                                      2.4640684 1.1 1.0700001,
                                      2.9000001 0 1.0700001,
                                      3.5 0.2 1.47,
                                      3.5 0 1.47,
                                      3.5 0 1.0700001,
                                      3.5 0.2 1.0700001,
                                      2.6500001 1.173685 1.47,
                                      3.0358727 0.2 1.47,
                                      3.0358727 0.2 1.0700001,
                                      2.6500001 1.173685 1.0700001,
                                      -2.1700001 1.3 1.47,
                                      -2.4640684 1.3 1.47,
                                      -2.1700001 1.3 1.0700001,
                                      -2.4640684 1.3 1.0700001,
                                      -2.4640684 1.3 1.0700001,
                                      -2.1700001 1.3 1.0700001,
                                      -2.2 1.2 1.0700001,
                                      -2.1900001 1.1 1.0700001,
                                      -2.4640684 1.1 1.0700001,
                                      -2.9000001 0 1.0700001,
                                      -3.5 0 1.0700001,
                                      -3.5 0.2 1.0700001,
                                      -3.0358727 0.2 1.0700001,
                                      -2.6500001 1.173685 1.0700001,
                                      -2.6324928 1.2078576 1.0700001,
                                      -2.6076877 1.2391889 1.0700001,
                                      -2.5764585 1.2654343 1.0700001,
                                      -2.5405536 1.2847972 1.0700001,
                                      -2.5022874 1.2963144 1.0700001,
                                      -2.9000001 0 1.47,
                                      -2.4640684 1.1 1.47,
                                      -2.9000001 0 1.0700001,
                                      -2.4640684 1.1 1.0700001,
                                      -3.5 0.2 1.47,
                                      -3.5 0 1.47,
                                      -3.5 0.2 1.0700001,
                                      -3.5 0 1.0700001,
                                      -2.6500001 1.173685 1.47,
                                      -3.0358727 0.2 1.47,
                                      -2.6500001 1.173685 1.0700001,
                                      -3.0358727 0.2 1.0700001,
                                      -2.6500001 1.173685 1.47,
                                      -2.4640684 1.3 1.47,
                                      -2.6324928 1.2078576 1.47,
                                      -2.6076877 1.2391889 1.47,
                                      -2.5764585 1.2654343 1.47,
                                      -2.5405536 1.2847972 1.47,
                                      -2.5022874 1.2963144 1.47,
                                      -2.4640684 1.3 1.0700001,
                                      -2.6500001 1.173685 1.0700001,
                                      -2.6324928 1.2078576 1.0700001,
                                      -2.6076877 1.2391889 1.0700001,
                                      -2.5764585 1.2654343 1.0700001,
                                      -2.5405536 1.2847972 1.0700001,
                                      -2.5022874 1.2963144 1.0700001,
                                      -3.0358727 0.2 1.47,
                                      -3.5 0.2 1.47,
                                      -3.0358727 0.2 1.0700001,
                                      -3.5 0.2 1.0700001,
                                      -3.5 0 1.47,
                                      -2.9000001 0 1.47,
                                      -3.5 0 1.0700001,
                                      -2.9000001 0 1.0700001,
                                      -2.1900001 1.1 1.47,
                                      -2.1900001 1.1 1.0700001,
                                      -2.4640684 1.1 1.47,
                                      -2.4640684 1.1 1.0700001,
                                      -2.2 1.2 1.47,
                                      -2.1900001 1.1 1.47,
                                      -2.1700001 1.3 1.47,
                                      -2.4640684 1.3 1.47,
                                      -2.6500001 1.173685 1.47,
                                      -2.6324928 1.2078576 1.47,
                                      -2.6076877 1.2391889 1.47,
                                      -2.5764585 1.2654343 1.47,
                                      -2.5405536 1.2847972 1.47,
                                      -2.5022874 1.2963144 1.47,
                                      -3.0358727 0.2 1.47,
                                      -3.5 0.2 1.47,
                                      -3.5 0 1.47,
                                      -2.9000001 0 1.47,
                                      -2.4640684 1.1 1.47,
                                      -2.9000001 0 -1.0700001,
                                      -2.4640684 1.1 -1.0700001,
                                      -2.9000001 0 -1.47,
                                      -2.4640684 1.1 -1.47,
                                      -2.1700001 1.3 -1.47,
                                      -2.4640684 1.3 -1.47,
                                      -2.2 1.2 -1.47,
                                      -2.1900001 1.1 -1.47,
                                      -2.4640684 1.1 -1.47,
                                      -2.9000001 0 -1.47,
                                      -3.5 0 -1.47,
                                      -3.5 0.2 -1.47,
                                      -3.0358727 0.2 -1.47,
                                      -2.6500001 1.173685 -1.47,
                                      -2.6324928 1.2078576 -1.47,
                                      -2.6076877 1.2391889 -1.47,
                                      -2.5764585 1.2654343 -1.47,
                                      -2.5405536 1.2847972 -1.47,
                                      -2.5022874 1.2963144 -1.47,
                                      -3.5 0.2 -1.0700001,
                                      -3.5 0 -1.0700001,
                                      -3.5 0.2 -1.47,
                                      -3.5 0 -1.47,
                                      -2.6500001 1.173685 -1.0700001,
                                      -3.0358727 0.2 -1.0700001,
                                      -2.6500001 1.173685 -1.47,
                                      -3.0358727 0.2 -1.47,
                                      -2.6500001 1.173685 -1.0700001,
                                      -2.4640684 1.3 -1.0700001,
                                      -2.6324928 1.2078576 -1.0700001,
                                      -2.6076877 1.2391889 -1.0700001,
                                      -2.5764585 1.2654343 -1.0700001,
                                      -2.5405536 1.2847972 -1.0700001,
                                      -2.5022874 1.2963144 -1.0700001,
                                      -2.4640684 1.3 -1.47,
                                      -2.6500001 1.173685 -1.47,
                                      -2.6324928 1.2078576 -1.47,
                                      -2.6076877 1.2391889 -1.47,
                                      -2.5764585 1.2654343 -1.47,
                                      -2.5405536 1.2847972 -1.47,
                                      -2.5022874 1.2963144 -1.47,
                                      -3.0358727 0.2 -1.0700001,
                                      -3.5 0.2 -1.0700001,
                                      -3.0358727 0.2 -1.47,
                                      -3.5 0.2 -1.47,
                                      -3.5 0 -1.0700001,
                                      -2.9000001 0 -1.0700001,
                                      -3.5 0 -1.47,
                                      -2.9000001 0 -1.47,
                                      -2.1900001 1.1 -1.0700001,
                                      -2.1900001 1.1 -1.47,
                                      -2.4640684 1.1 -1.0700001,
                                      -2.4640684 1.1 -1.47,
                                      -2.2 1.2 -1.0700001,
                                      -2.1900001 1.1 -1.0700001,
                                      -2.1700001 1.3 -1.0700001,
                                      -2.4640684 1.3 -1.0700001,
                                      -2.6500001 1.173685 -1.0700001,
                                      -2.6324928 1.2078576 -1.0700001,
                                      -2.6076877 1.2391889 -1.0700001,
                                      -2.5764585 1.2654343 -1.0700001,
                                      -2.5405536 1.2847972 -1.0700001,
                                      -2.5022874 1.2963144 -1.0700001,
                                      -3.0358727 0.2 -1.0700001,
                                      -3.5 0.2 -1.0700001,
                                      -3.5 0 -1.0700001,
                                      -2.9000001 0 -1.0700001,
                                      -2.4640684 1.1 -1.0700001,
                                      -2.4640684 1.3 -1.0700001,
                                      -2.1700001 1.3 -1.0700001,
                                      -2.1700001 1.3 -1.47,
                                      -2.4640684 1.3 -1.47,
                                      2.4640684 1.1 -1.0700001,
                                      2.9000001 0 -1.0700001,
                                      2.4640684 1.1 -1.47,
                                      2.9000001 0 -1.47,
                                      2.2 1.2 -1.0700001,
                                      2.1700001 1.3 -1.0700001,
                                      2.1900001 1.1 -1.0700001,
                                      2.4640684 1.1 -1.0700001,
                                      2.9000001 0 -1.0700001,
                                      3.5 0 -1.0700001,
                                      3.5 0.2 -1.0700001,
                                      3.0358727 0.2 -1.0700001,
                                      2.6500001 1.173685 -1.0700001,
                                      2.4640684 1.3 -1.0700001,
                                      2.6324928 1.2078576 -1.0700001,
                                      2.6076877 1.2391889 -1.0700001,
                                      2.5764585 1.2654343 -1.0700001,
                                      2.5405536 1.2847972 -1.0700001,
                                      2.5022874 1.2963144 -1.0700001,
                                      3.5 0 -1.0700001,
                                      3.5 0.2 -1.0700001,
                                      3.5 0 -1.47,
                                      3.5 0.2 -1.47,
                                      3.0358727 0.2 -1.0700001,
                                      2.6500001 1.173685 -1.0700001,
                                      3.0358727 0.2 -1.47,
                                      2.6500001 1.173685 -1.47,
                                      2.1700001 1.3 -1.0700001,
                                      2.1700001 1.3 -1.47,
                                      2.4640684 1.3 -1.0700001,
                                      2.4640684 1.3 -1.47,
                                      3.5 0 -1.0700001,
                                      2.9000001 0 -1.0700001,
                                      2.9000001 0 -1.47,
                                      3.5 0 -1.47,
                                      3.0358727 0.2 -1.0700001,
                                      3.5 0.2 -1.0700001,
                                      3.5 0.2 -1.47,
                                      3.0358727 0.2 -1.47,
                                      2.4640684 1.1 -1.0700001,
                                      2.1900001 1.1 -1.0700001,
                                      2.1900001 1.1 -1.47,
                                      2.4640684 1.1 -1.47,
                                      2.6500001 1.173685 -1.0700001,
                                      2.4640684 1.3 -1.0700001,
                                      2.6324928 1.2078576 -1.0700001,
                                      2.6076877 1.2391889 -1.0700001,
                                      2.5764585 1.2654343 -1.0700001,
                                      2.5405536 1.2847972 -1.0700001,
                                      2.5022874 1.2963144 -1.0700001,
                                      2.6500001 1.173685 -1.47,
                                      2.4640684 1.3 -1.47,
                                      2.6324928 1.2078576 -1.47,
                                      2.6076877 1.2391889 -1.47,
                                      2.5764585 1.2654343 -1.47,
                                      2.5405536 1.2847972 -1.47,
                                      2.5022874 1.2963144 -1.47,
                                      2.4640684 1.1 -1.47,
                                      2.1900001 1.1 -1.47,
                                      2.2 1.2 -1.47,
                                      2.1700001 1.3 -1.47,
                                      2.4640684 1.3 -1.47,
                                      2.6500001 1.173685 -1.47,
                                      2.6324928 1.2078576 -1.47,
                                      2.6076877 1.2391889 -1.47,
                                      2.5764585 1.2654343 -1.47,
                                      2.5405536 1.2847972 -1.47,
                                      2.5022874 1.2963144 -1.47,
                                      3.0358727 0.2 -1.47,
                                      3.5 0.2 -1.47,
                                      3.5 0 -1.47,
                                      2.9000001 0 -1.47,
                                      2.6500001 1.173685 1.47,
                                      2.4640684 1.3 1.47,
                                      2.6500001 1.173685 1.0700001,
                                      2.4640684 1.3 1.0700001,
                                      2.1900001 1.1 1.0700001,
                                      2.4640684 1.1 1.0700001,
                                      2.2 1.2 1.0700001,
                                      2.1700001 1.3 1.0700001,
                                      3.0358727 0.2 1.0700001,
                                      3.5 0.2 1.0700001,
                                      3.5 0 1.0700001,
                                      2.9000001 0 1.0700001,
                                      2.1900001 1.1 1.47,
                                      2.4640684 1.1 1.47,
                                      2.9000001 0 1.47,
                                      3.5 0 1.47,
                                      3.5 0.2 1.47,
                                      3.0358727 0.2 1.47,
                                      2.1700001 1.3 1.47,
                                      2.2 1.2 1.47,
                                      -2.1700001 1.3 1.47,
                                      -2.4640684 1.3 1.47,
                                      -2.1700001 1.3 1.0700001,
                                      -2.4640684 1.3 1.0700001,
                                      -2.2 1.2 1.0700001,
                                      -2.1900001 1.1 1.0700001,
                                      -2.4640684 1.1 1.0700001,
                                      -2.9000001 0 1.0700001,
                                      -3.5 0 1.0700001,
                                      -3.5 0.2 1.0700001,
                                      -3.0358727 0.2 1.0700001,
                                      -2.6500001 1.173685 1.0700001,
                                      -2.9000001 0 1.47,
                                      -2.4640684 1.1 1.47,
                                      -3.5 0.2 1.47,
                                      -3.5 0 1.47,
                                      -2.6500001 1.173685 1.47,
                                      -3.0358727 0.2 1.47,
                                      -2.1900001 1.1 1.47,
                                      -2.2 1.2 1.47,
                                      -2.9000001 0 -1.0700001,
                                      -2.4640684 1.1 -1.0700001,
                                      -2.9000001 0 -1.47,
                                      -2.4640684 1.1 -1.47,
                                      -2.1700001 1.3 -1.47,
                                      -2.4640684 1.3 -1.47,
                                      -2.2 1.2 -1.47,
                                      -2.1900001 1.1 -1.47,
                                      -3.5 0 -1.47,
                                      -3.5 0.2 -1.47,
                                      -3.0358727 0.2 -1.47,
                                      -2.6500001 1.173685 -1.47,
                                      -3.5 0.2 -1.0700001,
                                      -3.5 0 -1.0700001,
                                      -2.6500001 1.173685 -1.0700001,
                                      -3.0358727 0.2 -1.0700001,
                                      -2.4640684 1.3 -1.0700001,
                                      -2.1900001 1.1 -1.0700001,
                                      -2.2 1.2 -1.0700001,
                                      -2.1700001 1.3 -1.0700001,
                                      2.4640684 1.1 -1.0700001,
                                      2.9000001 0 -1.0700001,
                                      2.4640684 1.1 -1.47,
                                      2.9000001 0 -1.47,
                                      2.2 1.2 -1.0700001,
                                      2.1700001 1.3 -1.0700001,
                                      2.1900001 1.1 -1.0700001,
                                      3.5 0 -1.0700001,
                                      3.5 0.2 -1.0700001,
                                      3.0358727 0.2 -1.0700001,
                                      2.6500001 1.173685 -1.0700001,
                                      2.4640684 1.3 -1.0700001,
                                      3.5 0 -1.47,
                                      3.5 0.2 -1.47,
                                      3.0358727 0.2 -1.47,
                                      2.6500001 1.173685 -1.47,
                                      2.1700001 1.3 -1.47,
                                      2.4640684 1.3 -1.47,
                                      2.1900001 1.1 -1.47,
                                      2.2 1.2 -1.47 ]

                                }
                                coordIndex [ 0, 2, 3, 4, 5, 6, 1, -1,
                                    7, 0, -1, 7, 9, 10, 11, 12,
                                    13, 8, -1, 1, 8, -1, 14, 15,
                                    -1, 16, 14, -1, 17, 16, -1, 18,
                                    17, -1, 25, 19, -1, 26, 25, -1,
                                    27, 26, -1, 28, 27, -1, 15, 28,
                                    -1, 29, 30, -1, 31, 29, -1, 30,
                                    32, -1, 33, 34, -1, 35, 33, -1,
                                    34, 36, -1, 37, 38, -1, 39, 37,
                                    -1, 38, 40, -1, 41, 42, -1, 43,
                                    41, -1, 45, 46, -1, 47, 45, -1,
                                    49, 48, -1, 51, 50, -1, 53, 52,
                                    -1, 72, 73, -1, 74, 72, -1, 75,
                                    74, -1, 73, 75, -1, 78, 77, -1,
                                    79, 78, -1, 80, 79, -1, 80, 81,
                                    -1, 82, 81, -1, 82, 83, -1, 84,
                                    83, -1, 84, 85, -1, 85, 86, 87,
                                    88, 89, 90, 76, -1, 91, 92, -1,
                                    93, 91, -1, 92, 94, -1, 95, 96,
                                    -1, 97, 95, -1, 96, 98, -1, 99,
                                    100, -1, 101, 99, -1, 100, 102, -1,
                                    103, 105, 106, 107, 108, 109, 104, -1,
                                    117, 118, -1, 121, 122, -1, 125, 126,
                                    -1, 127, 125, -1, 129, 130, -1, 131,
                                    129, -1, 144, 145, -1, 146, 144, -1,
                                    147, 146, -1, 145, 147, -1, 148, 149,
                                    -1, 150, 148, -1, 151, 150, -1, 152,
                                    151, -1, 154, 153, -1, 154, 155, -1,
                                    156, 155, -1, 156, 157, -1, 157, 158,
                                    159, 160, 161, 162, 149, -1, 163, 164,
                                    -1, 165, 163, -1, 164, 166, -1, 167,
                                    168, -1, 169, 167, -1, 168, 170, -1,
                                    171, 173, 174, 175, 176, 177, 172, -1,
                                    178, 172, -1, 185, 186, -1, 189, 190,
                                    -1, 193, 194, -1, 195, 193, -1, 197,
                                    198, -1, 199, 197, -1, 200, 199, -1,
                                    214, 213, -1, 216, 217, -1, 218, 216,
                                    -1, 219, 218, -1, 217, 219, -1, 220,
                                    221, -1, 222, 220, -1, 223, 222, -1,
                                    225, 224, -1, 225, 226, -1, 227, 226,
                                    -1, 227, 228, -1, 228, 230, 231, 232,
                                    233, 234, 229, -1, 229, 221, -1, 237,
                                    235, -1, 238, 237, -1, 236, 238, -1,
                                    241, 239, -1, 242, 241, -1, 240, 242,
                                    -1, 243, 244, -1, 246, 245, -1, 244,
                                    246, -1, 250, 249, -1, 254, 253, -1,
                                    257, 256, -1, 258, 257, -1, 266, 268,
                                    269, 270, 271, 272, 267, -1, 275, 274,
                                    -1, 276, 275, -1 ]

                              }

                            }

                        },
                          
                        DEF o6 Group {
                          children 
                            Shape {
                              appearance 
                              Appearance {
                                material 
                                Material {
                                  diffuseColor 0.78431374 0.78431374 0.78431374
                                  ambientIntensity 0.34999999
                                  specularColor 0.97460002 0.97460002 0.97460002
                                  shininess 0.1

                                }

                              }
                              geometry 
                              IndexedFaceSet {
                                coord 
                                USE o5
                                coordIndex [ 13, 1, 6, -1, 13, 8, 1, -1,
                                    12, 6, 5, -1, 12, 13, 6, -1,
                                    11, 5, 4, -1, 11, 12, 5, -1,
                                    10, 4, 3, -1, 10, 11, 4, -1,
                                    9, 3, 2, -1, 9, 10, 3, -1,
                                    7, 2, 0, -1, 7, 9, 2, -1,
                                    15, 20, 19, -1, 15, 21, 20, -1,
                                    15, 22, 21, -1, 15, 23, 22, -1,
                                    15, 24, 23, -1, 15, 18, 24, -1,
                                    16, 17, 18, -1, 16, 18, 15, -1,
                                    14, 16, 15, -1, 25, 26, 27, -1,
                                    25, 15, 19, -1, 28, 25, 27, -1,
                                    28, 15, 25, -1, 31, 30, 29, -1,
                                    31, 32, 30, -1, 35, 34, 33, -1,
                                    35, 36, 34, -1, 39, 38, 37, -1,
                                    39, 40, 38, -1, 42, 41, 43, -1,
                                    44, 42, 43, -1, 54, 46, 45, -1,
                                    48, 45, 47, -1, 48, 57, 58, -1,
                                    48, 58, 59, -1, 48, 59, 54, -1,
                                    48, 54, 45, -1, 56, 57, 48, -1,
                                    55, 56, 48, -1, 53, 55, 48, -1,
                                    52, 53, 48, -1, 49, 52, 48, -1,
                                    50, 51, 52, -1, 50, 52, 49, -1,
                                    62, 60, 61, -1, 62, 63, 60, -1,
                                    66, 64, 65, -1, 66, 67, 64, -1,
                                    70, 68, 69, -1, 70, 71, 68, -1,
                                    75, 73, 72, -1, 74, 75, 72, -1,
                                    76, 77, 78, -1, 80, 78, 79, -1,
                                    80, 88, 89, -1, 80, 89, 90, -1,
                                    80, 90, 76, -1, 80, 76, 78, -1,
                                    87, 88, 80, -1, 86, 87, 80, -1,
                                    85, 86, 80, -1, 84, 85, 80, -1,
                                    81, 84, 80, -1, 82, 83, 84, -1,
                                    82, 84, 81, -1, 93, 92, 91, -1,
                                    93, 94, 92, -1, 97, 96, 95, -1,
                                    97, 98, 96, -1, 99, 102, 100, -1,
                                    101, 102, 99, -1, 112, 103, 105, -1,
                                    112, 111, 103, -1, 113, 105, 106, -1,
                                    113, 112, 105, -1, 114, 106, 107, -1,
                                    114, 113, 106, -1, 115, 107, 108, -1,
                                    115, 114, 107, -1, 116, 108, 109, -1,
                                    116, 115, 108, -1, 110, 109, 104, -1,
                                    110, 116, 109, -1, 119, 118, 117, -1,
                                    119, 120, 118, -1, 123, 122, 121, -1,
                                    123, 124, 122, -1, 128, 126, 125, -1,
                                    128, 125, 127, -1, 143, 134, 133, -1,
                                    143, 135, 134, -1, 143, 136, 135, -1,
                                    143, 137, 136, -1, 143, 138, 137, -1,
                                    143, 132, 138, -1, 129, 131, 132, -1,
                                    129, 132, 143, -1, 130, 129, 143, -1,
                                    139, 140, 141, -1, 139, 143, 133, -1,
                                    142, 143, 139, -1, 142, 139, 141, -1,
                                    146, 145, 144, -1, 146, 147, 145, -1,
                                    149, 148, 150, -1, 152, 150, 151, -1,
                                    152, 160, 161, -1, 152, 161, 162, -1,
                                    152, 162, 149, -1, 152, 149, 150, -1,
                                    159, 160, 152, -1, 158, 159, 152, -1,
                                    157, 158, 152, -1, 156, 157, 152, -1,
                                    153, 156, 152, -1, 154, 155, 156, -1,
                                    154, 156, 153, -1, 165, 164, 163, -1,
                                    165, 166, 164, -1, 167, 170, 168, -1,
                                    169, 170, 167, -1, 180, 171, 173, -1,
                                    180, 179, 171, -1, 181, 173, 174, -1,
                                    181, 180, 173, -1, 182, 174, 175, -1,
                                    182, 181, 174, -1, 183, 175, 176, -1,
                                    183, 182, 175, -1, 184, 176, 177, -1,
                                    184, 183, 176, -1, 178, 177, 172, -1,
                                    178, 184, 177, -1, 187, 186, 185, -1,
                                    187, 188, 186, -1, 191, 190, 189, -1,
                                    191, 192, 190, -1, 196, 194, 193, -1,
                                    196, 193, 195, -1, 211, 202, 201, -1,
                                    211, 203, 202, -1, 211, 204, 203, -1,
                                    211, 205, 204, -1, 211, 206, 205, -1,
                                    211, 200, 206, -1, 197, 199, 200, -1,
                                    197, 200, 211, -1, 198, 197, 211, -1,
                                    207, 208, 209, -1, 207, 211, 201, -1,
                                    210, 211, 207, -1, 210, 207, 209, -1,
                                    215, 212, 213, -1, 214, 215, 213, -1,
                                    218, 217, 216, -1, 218, 219, 217, -1,
                                    229, 221, 220, -1, 223, 220, 222, -1,
                                    223, 232, 233, -1, 223, 233, 234, -1,
                                    223, 234, 229, -1, 223, 229, 220, -1,
                                    231, 232, 223, -1, 230, 231, 223, -1,
                                    228, 230, 223, -1, 227, 228, 223, -1,
                                    224, 227, 223, -1, 225, 226, 227, -1,
                                    225, 227, 224, -1, 237, 236, 235, -1,
                                    237, 238, 236, -1, 241, 240, 239, -1,
                                    241, 242, 240, -1, 244, 243, 245, -1,
                                    246, 244, 245, -1, 249, 247, 248, -1,
                                    249, 250, 247, -1, 253, 251, 252, -1,
                                    253, 254, 251, -1, 257, 255, 256, -1,
                                    257, 258, 255, -1, 272, 260, 265, -1,
                                    272, 267, 260, -1, 271, 265, 264, -1,
                                    271, 272, 265, -1, 270, 264, 263, -1,
                                    270, 271, 264, -1, 269, 263, 262, -1,
                                    269, 270, 263, -1, 268, 262, 261, -1,
                                    268, 269, 262, -1, 266, 261, 259, -1,
                                    266, 268, 261, -1, 273, 279, 278, -1,
                                    273, 280, 279, -1, 273, 281, 280, -1,
                                    273, 282, 281, -1, 273, 283, 282, -1,
                                    273, 277, 283, -1, 275, 276, 277, -1,
                                    275, 277, 273, -1, 274, 275, 273, -1,
                                    284, 285, 286, -1, 284, 273, 278, -1,
                                    287, 284, 286, -1, 287, 273, 284, -1 ]
                                ccw TRUE
                                solid FALSE
                                convex TRUE
                                creaseAngle 0

                              }

                            }

                        },
                          
                        DEF o7 Group {
                          children 
                            Shape {
                              appearance 
                              Appearance {
                                material 
                                Material {
                                  emissiveColor 0.098039217 0.098039217 0.098039217

                                }

                              }
                              geometry 
                              PointSet {
                                coord 
                                USE o5

                              }

                            }

                        } ]

                    },
                      
                    USE o6,
                      
                    Group {
                      children [ 
                        USE o4,
                          
                        USE o7 ]

                    },
                      
                    USE o7 ]

                }

            }

        } ]

    }

}
