#VRML V2.0 utf8


Group {
  children 
    Group {
      children [ 
        Group {
          children 
            Transform {
              translation 0 0 0
              rotation 0 0 1  0
              scale 1 1 1
              scaleOrientation 0 0 1  0
              center 0 0 0
              children 
                Switch {
                  whichChoice 1
                  choice [ 
                    Group {
                      children [ 
                        DEF o0 Group {
                          children 
                            Shape {
                              appearance 
                              Appearance {
                                material 
                                Material {
                                  diffuseColor 0.098039217 0.098039217 0.098039217
                                  shininess 1

                                }

                              }
                              geometry 
                              IndexedLineSet {
                                coord 
                                DEF o1 Coordinate {
                                  point [ -3.29 1.5417955 3.0999999,
                                      -3.29 5.25 3.0999999,
                                      -2.9677505 1.4959205 3.0999999,
                                      -2.9677505 -0.17729229 3.0999999,
                                      -2.1177528 -0.17926711 3.0999999,
                                      -2.1177528 1.4959205 3.0999999,
                                      -1.79 1.5417955 3.0999999,
                                      -1.79 5.25 3.0999999,
                                      -2.9677505 -0.17729229 3.0999999,
                                      -2.9677505 1.4959205 3.0999999,
                                      -2.9677505 1.4959205 2.5,
                                      -2.9677505 -0.17729229 2.5,
                                      -2.1177528 1.4959205 2.5,
                                      -1.79 1.5417955 2.5,
                                      -2.1177528 -0.17926711 2.5,
                                      -2.9677505 -0.17729229 2.5,
                                      -2.9677505 1.4959205 2.5,
                                      -3.29 1.5417955 2.5,
                                      -3.29 5.25 2.5,
                                      -1.79 5.25 2.5,
                                      -3.29 1.5417955 3.0999999,
                                      -3.29 1.5417955 2.5,
                                      -3.29 5.25 3.0999999,
                                      -3.29 5.25 2.5,
                                      -2.9677505 1.4959205 3.0999999,
                                      -3.29 1.5417955 3.0999999,
                                      -3.29 1.5417955 2.5,
                                      -2.9677505 1.4959205 2.5,
                                      -1.79 1.5417955 3.0999999,
                                      -2.1177528 1.4959205 3.0999999,
                                      -2.1177528 1.4959205 2.5,
                                      -1.79 1.5417955 2.5,
                                      -2.1177528 -0.17926711 3.0999999,
                                      -2.9677505 -0.17729229 3.0999999,
                                      -2.9677505 -0.17729229 2.5,
                                      -2.1177528 -0.17926711 2.5,
                                      -2.1177528 1.4959205 3.0999999,
                                      -2.1177528 -0.17926711 3.0999999,
                                      -2.1177528 -0.17926711 2.5,
                                      -2.1177528 1.4959205 2.5,
                                      -1.79 5.25 3.0999999,
                                      -1.79 1.5417955 3.0999999,
                                      -1.79 1.5417955 2.5,
                                      -1.79 5.25 2.5,
                                      -0.75 1.5417955 3.0999999,
                                      -0.75 5.25 3.0999999,
                                      -0.42500001 1.495988 3.0999999,
                                      -0.42500001 -0.17926711 3.0999999,
                                      0.42500001 -0.17926711 3.0999999,
                                      0.42500001 1.495988 3.0999999,
                                      0.75 1.5417955 3.0999999,
                                      0.75 5.25 3.0999999,
                                      -0.42500001 1.495988 3.0999999,
                                      -0.75 1.5417955 3.0999999,
                                      -0.75 1.5417955 2.5,
                                      -0.42500001 1.495988 2.5,
                                      0.42500001 1.495988 2.5,
                                      0.75 1.5417955 2.5,
                                      0.42500001 -0.17926711 2.5,
                                      -0.42500001 -0.17926711 2.5,
                                      -0.42500001 1.495988 2.5,
                                      -0.75 1.5417955 2.5,
                                      -0.75 5.25 2.5,
                                      0.75 5.25 2.5,
                                      -0.75 1.5417955 2.5,
                                      -0.75 1.5417955 3.0999999,
                                      -0.75 5.25 3.0999999,
                                      -0.75 5.25 2.5,
                                      -0.42500001 -0.17926711 3.0999999,
                                      -0.42500001 1.495988 3.0999999,
                                      -0.42500001 1.495988 2.5,
                                      -0.42500001 -0.17926711 2.5,
                                      0.42500001 -0.17926711 3.0999999,
                                      -0.42500001 -0.17926711 3.0999999,
                                      -0.42500001 -0.17926711 2.5,
                                      0.42500001 -0.17926711 2.5,
                                      0.75 1.5417955 3.0999999,
                                      0.42500001 1.495988 3.0999999,
                                      0.42500001 1.495988 2.5,
                                      0.75 1.5417955 2.5,
                                      0.42500001 1.495988 3.0999999,
                                      0.42500001 -0.17926711 3.0999999,
                                      0.42500001 -0.17926711 2.5,
                                      0.42500001 1.495988 2.5,
                                      0.75 5.25 3.0999999,
                                      0.75 1.5417955 3.0999999,
                                      0.75 1.5417955 2.5,
                                      0.75 5.25 2.5,
                                      1.79 1.5417955 3.0999999,
                                      1.79 5.25 3.0999999,
                                      2.1122491 1.4960556 3.0999999,
                                      2.1122491 -0.17926711 3.0999999,
                                      2.9622469 -0.18123969 3.0999999,
                                      2.9622469 1.4960556 3.0999999,
                                      3.29 1.5417955 3.0999999,
                                      3.29 5.25 3.0999999,
                                      1.79 1.5417955 3.0999999,
                                      1.79 1.5417955 2.5,
                                      1.79 5.25 3.0999999,
                                      1.79 5.25 2.5,
                                      2.9622469 1.4960556 2.5,
                                      3.29 1.5417955 2.5,
                                      2.9622469 -0.18123969 2.5,
                                      2.1122491 -0.17926711 2.5,
                                      2.1122491 1.4960556 2.5,
                                      1.79 1.5417955 2.5,
                                      1.79 5.25 2.5,
                                      3.29 5.25 2.5,
                                      2.1122491 1.4960556 3.0999999,
                                      1.79 1.5417955 3.0999999,
                                      1.79 1.5417955 2.5,
                                      2.1122491 1.4960556 2.5,
                                      2.1122491 -0.17926711 3.0999999,
                                      2.1122491 1.4960556 3.0999999,
                                      2.1122491 1.4960556 2.5,
                                      2.1122491 -0.17926711 2.5,
                                      2.9622469 -0.18123969 3.0999999,
                                      2.1122491 -0.17926711 3.0999999,
                                      2.1122491 -0.17926711 2.5,
                                      2.9622469 -0.18123969 2.5,
                                      2.9622469 1.4960556 3.0999999,
                                      2.9622469 -0.18123969 3.0999999,
                                      2.9622469 -0.18123969 2.5,
                                      2.9622469 1.4960556 2.5,
                                      3.29 1.5417955 3.0999999,
                                      2.9622469 1.4960556 3.0999999,
                                      2.9622469 1.4960556 2.5,
                                      3.29 1.5417955 2.5,
                                      3.29 5.25 3.0999999,
                                      3.29 1.5417955 3.0999999,
                                      3.29 1.5417955 2.5,
                                      3.29 5.25 2.5,
                                      -3.8105247 14.25 0,
                                      -3.8105247 5.6160226 0,
                                      -5.1500001 14.25 0,
                                      -5.1500001 18.85 0,
                                      -4 20.85 0,
                                      4 20.85 0,
                                      5.1500001 18.85 0,
                                      5.1500001 14.25 0,
                                      3.8105247 14.25 0,
                                      3.8105247 5.6160226 0,
                                      -2.5e-011 19.85 0,
                                      1.85 18 0,
                                      0.33536017 19.819349 0,
                                      0.67844659 19.721107 0,
                                      1.0088133 19.550741 0,
                                      1.3041309 19.312151 0,
                                      1.5445915 19.018204 0,
                                      1.7170875 18.688557 0,
                                      1.8174448 18.345535 0,
                                      1.8421171 18.170601 0,
                                      -1.85 18 0,
                                      -0.33536017 19.819349 0,
                                      -0.67844659 19.721107 0,
                                      -1.0088133 19.550741 0,
                                      -1.3041309 19.312151 0,
                                      -1.5445915 19.018204 0,
                                      -1.7170875 18.688557 0,
                                      -1.8174448 18.345535 0,
                                      -1.8421171 18.170601 0,
                                      2.5e-011 16.15 0,
                                      -0.33536017 16.180651 0,
                                      -0.67844659 16.278893 0,
                                      -1.0088133 16.449259 0,
                                      -1.3041309 16.687849 0,
                                      -1.5445915 16.981796 0,
                                      -1.7170875 17.311443 0,
                                      -1.8174448 17.654465 0,
                                      -1.8421171 17.829399 0,
                                      1.8193498 17.66464 0,
                                      1.7211072 17.321554 0,
                                      1.5507404 16.991186 0,
                                      1.3121518 16.695869 0,
                                      1.0182029 16.455408 0,
                                      0.68855679 16.282913 0,
                                      0.34553501 16.182556 0,
                                      0.17060085 16.157883 0,
                                      2.5e-011 16.15 0,
                                      -1.85 18 0,
                                      -0.33536017 16.180651 0,
                                      -0.67844659 16.278893 0,
                                      -1.0088133 16.449259 0,
                                      -1.3041309 16.687849 0,
                                      -1.5445915 16.981796 0,
                                      -1.7170875 17.311443 0,
                                      -1.8174448 17.654465 0,
                                      -1.8421171 17.829399 0,
                                      -1.85 18 1.4,
                                      2.5e-011 16.15 1.4,
                                      -1.8193498 17.66464 1.4,
                                      -1.7211072 17.321554 1.4,
                                      -1.5507404 16.991186 1.4,
                                      -1.3121518 16.695869 1.4,
                                      -1.0182029 16.455408 1.4,
                                      -0.68855679 16.282913 1.4,
                                      -0.34553501 16.182556 1.4,
                                      -0.17060085 16.157883 1.4,
                                      4 20.85 1.4,
                                      5.1500001 18.85 1.4,
                                      -4 20.85 1.4,
                                      -5.1500001 18.85 1.4,
                                      -5.1500001 14.25 1.4,
                                      -3.8105247 14.25 1.4,
                                      3.8105247 14.25 1.4,
                                      5.1500001 14.25 1.4,
                                      2.5e-011 16.15 1.4,
                                      1.85 18 1.4,
                                      0.33536017 16.180651 1.4,
                                      0.67844659 16.278893 1.4,
                                      1.0088133 16.449259 1.4,
                                      1.3041309 16.687849 1.4,
                                      1.5445915 16.981796 1.4,
                                      1.7170875 17.311443 1.4,
                                      1.8174448 17.654465 1.4,
                                      1.8421171 17.829399 1.4,
                                      -1.85 18 1.4,
                                      -1.8193498 17.66464 1.4,
                                      -1.7211072 17.321554 1.4,
                                      -1.5507404 16.991186 1.4,
                                      -1.3121518 16.695869 1.4,
                                      -1.0182029 16.455408 1.4,
                                      -0.68855679 16.282913 1.4,
                                      -0.34553501 16.182556 1.4,
                                      -0.17060085 16.157883 1.4,
                                      -2.5e-011 19.85 1.4,
                                      -0.33536017 19.819349 1.4,
                                      -0.67844659 19.721107 1.4,
                                      -1.0088133 19.550741 1.4,
                                      -1.3041309 19.312151 1.4,
                                      -1.5445915 19.018204 1.4,
                                      -1.7170875 18.688557 1.4,
                                      -1.8174448 18.345535 1.4,
                                      -1.8421171 18.170601 1.4,
                                      1.8193498 18.33536 1.4,
                                      1.7211072 18.678446 1.4,
                                      1.5507404 19.008814 1.4,
                                      1.3121518 19.304131 1.4,
                                      1.0182029 19.544592 1.4,
                                      0.68855679 19.717087 1.4,
                                      0.34553501 19.817444 1.4,
                                      0.17060085 19.842117 1.4,
                                      -2.5e-011 19.85 0,
                                      -1.85 18 0,
                                      -0.33536017 19.819349 0,
                                      -0.67844659 19.721107 0,
                                      -1.0088133 19.550741 0,
                                      -1.3041309 19.312151 0,
                                      -1.5445915 19.018204 0,
                                      -1.7170875 18.688557 0,
                                      -1.8174448 18.345535 0,
                                      -1.8421171 18.170601 0,
                                      -2.5e-011 19.85 1.4,
                                      -1.85 18 1.4,
                                      -0.33536017 19.819349 1.4,
                                      -0.67844659 19.721107 1.4,
                                      -1.0088133 19.550741 1.4,
                                      -1.3041309 19.312151 1.4,
                                      -1.5445915 19.018204 1.4,
                                      -1.7170875 18.688557 1.4,
                                      -1.8174448 18.345535 1.4,
                                      -1.8421171 18.170601 1.4,
                                      5.1500001 18.85 1.4,
                                      5.1500001 18.85 0,
                                      5.1500001 14.25 1.4,
                                      5.1500001 14.25 0,
                                      5.1500001 18.85 0,
                                      4 20.85 0,
                                      4 20.85 1.4,
                                      5.1500001 18.85 1.4,
                                      4 20.85 0,
                                      -4 20.85 0,
                                      -4 20.85 1.4,
                                      4 20.85 1.4,
                                      -4 20.85 0,
                                      -5.1500001 18.85 0,
                                      -5.1500001 18.85 1.4,
                                      -4 20.85 1.4,
                                      -5.1500001 18.85 1.4,
                                      -5.1500001 18.85 0,
                                      -5.1500001 14.25 0,
                                      -5.1500001 14.25 1.4,
                                      1.85 18 0,
                                      2.5e-011 16.15 0,
                                      1.8193498 17.66464 0,
                                      1.7211072 17.321554 0,
                                      1.5507404 16.991186 0,
                                      1.3121518 16.695869 0,
                                      1.0182029 16.455408 0,
                                      0.68855679 16.282913 0,
                                      0.34553501 16.182556 0,
                                      0.17060085 16.157883 0,
                                      2.5e-011 16.15 1.4,
                                      1.85 18 1.4,
                                      0.33536017 16.180651 1.4,
                                      0.67844659 16.278893 1.4,
                                      1.0088133 16.449259 1.4,
                                      1.3041309 16.687849 1.4,
                                      1.5445915 16.981796 1.4,
                                      1.7170875 17.311443 1.4,
                                      1.8174448 17.654465 1.4,
                                      1.8421171 17.829399 1.4,
                                      -2.5e-011 19.85 0,
                                      1.85 18 0,
                                      0.33536017 19.819349 0,
                                      0.67844659 19.721107 0,
                                      1.0088133 19.550741 0,
                                      1.3041309 19.312151 0,
                                      1.5445915 19.018204 0,
                                      1.7170875 18.688557 0,
                                      1.8174448 18.345535 0,
                                      1.8421171 18.170601 0,
                                      1.85 18 1.4,
                                      -2.5e-011 19.85 1.4,
                                      1.8193498 18.33536 1.4,
                                      1.7211072 18.678446 1.4,
                                      1.5507404 19.008814 1.4,
                                      1.3121518 19.304131 1.4,
                                      1.0182029 19.544592 1.4,
                                      0.68855679 19.717087 1.4,
                                      0.34553501 19.817444 1.4,
                                      0.17060085 19.842117 1.4,
                                      -3.29 1.5417955 3.0999999,
                                      -3.29 5.25 3.0999999,
                                      -2.9677505 1.4959205 3.0999999,
                                      -2.9677505 -0.17729229 3.0999999,
                                      -2.1177528 -0.17926711 3.0999999,
                                      -2.1177528 1.4959205 3.0999999,
                                      -1.79 1.5417955 3.0999999,
                                      -1.79 5.25 3.0999999,
                                      -2.9677505 1.4959205 2.5,
                                      -2.9677505 -0.17729229 2.5,
                                      -2.1177528 1.4959205 2.5,
                                      -1.79 1.5417955 2.5,
                                      -2.1177528 -0.17926711 2.5,
                                      -3.29 1.5417955 2.5,
                                      -3.29 5.25 2.5,
                                      -1.79 5.25 2.5,
                                      -0.75 1.5417955 3.0999999,
                                      -0.75 5.25 3.0999999,
                                      -0.42500001 1.495988 3.0999999,
                                      -0.42500001 -0.17926711 3.0999999,
                                      0.42500001 -0.17926711 3.0999999,
                                      0.42500001 1.495988 3.0999999,
                                      0.75 1.5417955 3.0999999,
                                      0.75 5.25 3.0999999,
                                      -0.75 1.5417955 2.5,
                                      -0.42500001 1.495988 2.5,
                                      0.42500001 1.495988 2.5,
                                      0.75 1.5417955 2.5,
                                      0.42500001 -0.17926711 2.5,
                                      -0.42500001 -0.17926711 2.5,
                                      -0.75 5.25 2.5,
                                      0.75 5.25 2.5,
                                      1.79 1.5417955 3.0999999,
                                      1.79 5.25 3.0999999,
                                      2.1122491 1.4960556 3.0999999,
                                      2.1122491 -0.17926711 3.0999999,
                                      2.9622469 -0.18123969 3.0999999,
                                      2.9622469 1.4960556 3.0999999,
                                      3.29 1.5417955 3.0999999,
                                      3.29 5.25 3.0999999,
                                      1.79 1.5417955 2.5,
                                      1.79 5.25 2.5,
                                      2.9622469 1.4960556 2.5,
                                      3.29 1.5417955 2.5,
                                      2.9622469 -0.18123969 2.5,
                                      2.1122491 -0.17926711 2.5,
                                      2.1122491 1.4960556 2.5,
                                      3.29 5.25 2.5,
                                      -3.8105247 14.25 0,
                                      -3.8105247 5.6160226 0,
                                      -5.1500001 14.25 0,
                                      -5.1500001 18.85 0,
                                      -4 20.85 0,
                                      4 20.85 0,
                                      5.1500001 18.85 0,
                                      5.1500001 14.25 0,
                                      3.8105247 14.25 0,
                                      3.8105247 5.6160226 0,
                                      -2.5e-011 19.85 0,
                                      1.85 18 0,
                                      -1.85 18 0,
                                      2.5e-011 16.15 0,
                                      -1.85 18 1.4,
                                      2.5e-011 16.15 1.4,
                                      4 20.85 1.4,
                                      5.1500001 18.85 1.4,
                                      -4 20.85 1.4,
                                      -5.1500001 18.85 1.4,
                                      -5.1500001 14.25 1.4,
                                      -3.8105247 14.25 1.4,
                                      3.8105247 14.25 1.4,
                                      5.1500001 14.25 1.4,
                                      1.85 18 1.4,
                                      -2.5e-011 19.85 1.4 ]

                                }
                                coordIndex [ 0, 1, -1, 2, 0, -1, 3, 2,
                                    -1, 4, 3, -1, 5, 4, -1, 6,
                                    5, -1, 7, 6, -1, 1, 7, -1,
                                    10, 9, -1, 10, 11, -1, 8, 11,
                                    -1, 12, 13, -1, 14, 12, -1, 15,
                                    14, -1, 17, 16, -1, 18, 17, -1,
                                    19, 18, -1, 13, 19, -1, 20, 21,
                                    -1, 23, 22, -1, 30, 29, -1, 28,
                                    31, -1, 32, 35, -1, 40, 43, -1,
                                    44, 45, -1, 46, 44, -1, 47, 46,
                                    -1, 48, 47, -1, 49, 48, -1, 50,
                                    49, -1, 51, 50, -1, 45, 51, -1,
                                    54, 53, -1, 54, 55, -1, 52, 55,
                                    -1, 56, 57, -1, 58, 56, -1, 59,
                                    58, -1, 60, 59, -1, 62, 61, -1,
                                    63, 62, -1, 57, 63, -1, 67, 66,
                                    -1, 68, 71, -1, 72, 75, -1, 78,
                                    77, -1, 76, 79, -1, 84, 87, -1,
                                    88, 89, -1, 90, 88, -1, 91, 90,
                                    -1, 92, 91, -1, 93, 92, -1, 94,
                                    93, -1, 95, 94, -1, 89, 95, -1,
                                    96, 97, -1, 99, 98, -1, 99, 97,
                                    -1, 100, 101, -1, 102, 100, -1, 103,
                                    102, -1, 104, 103, -1, 105, 104, -1,
                                    107, 106, -1, 101, 107, -1, 108, 111,
                                    -1, 112, 115, -1, 116, 119, -1, 120,
                                    123, -1, 124, 127, -1, 128, 131, -1,
                                    132, 133, -1, 134, 132, -1, 135, 134,
                                    -1, 136, 135, -1, 137, 136, -1, 138,
                                    137, -1, 139, 138, -1, 140, 139, -1,
                                    141, 140, -1, 133, 141, -1, 142, 144,
                                    145, 146, 147, 148, 149, 150, 151, 143,
                                    -1, 142, 153, 154, 155, 156, 157, 158,
                                    159, 160, 152, -1, 161, 162, 163, 164,
                                    165, 166, 167, 168, 169, 152, -1, 143,
                                    170, 171, 172, 173, 174, 175, 176, 177,
                                    161, -1, 188, 179, -1, 188, 190, 191,
                                    192, 193, 194, 195, 196, 197, 189, -1,
                                    178, 189, -1, 198, 199, -1, 200, 198,
                                    -1, 201, 200, -1, 202, 201, -1, 203,
                                    202, -1, 204, 203, -1, 205, 204, -1,
                                    199, 205, -1, 206, 208, 209, 210, 211,
                                    212, 213, 214, 215, 207, -1, 225, 226,
                                    227, 228, 229, 230, 231, 232, 233, 216,
                                    -1, 207, 234, 235, 236, 237, 238, 239,
                                    240, 241, 225, -1, 252, 242, -1, 262,
                                    263, -1, 265, 264, -1, 268, 267, -1,
                                    272, 271, -1, 276, 275, -1, 281, 280,
                                    -1, 282, 293, -1 ]

                              }

                            }

                        },
                          
                        DEF o2 Group {
                          children 
                            Shape {
                              appearance 
                              Appearance {
                                material 
                                Material {
                                  diffuseColor 0.75686276 0.75686276 0.75686276
                                  ambientIntensity 0.30000001
                                  specularColor 0.69999999 0.69999999 0.80000001
                                  shininess 0.090000004

                                }

                              }
                              geometry 
                              IndexedFaceSet {
                                coord 
                                USE o1
                                coordIndex [ 2, 1, 0, -1, 5, 7, 1, -1,
                                    5, 1, 2, -1, 6, 7, 5, -1,
                                    3, 5, 2, -1, 4, 5, 3, -1,
                                    10, 8, 9, -1, 10, 11, 8, -1,
                                    12, 14, 15, -1, 12, 15, 16, -1,
                                    18, 16, 17, -1, 18, 12, 16, -1,
                                    19, 13, 12, -1, 19, 12, 18, -1,
                                    21, 20, 22, -1, 21, 22, 23, -1,
                                    27, 24, 25, -1, 26, 27, 25, -1,
                                    30, 28, 29, -1, 30, 31, 28, -1,
                                    34, 32, 33, -1, 34, 35, 32, -1,
                                    37, 39, 36, -1, 38, 39, 37, -1,
                                    43, 40, 41, -1, 43, 41, 42, -1,
                                    46, 45, 44, -1, 49, 51, 45, -1,
                                    49, 45, 46, -1, 50, 51, 49, -1,
                                    47, 49, 46, -1, 48, 49, 47, -1,
                                    55, 52, 53, -1, 54, 55, 53, -1,
                                    60, 58, 59, -1, 56, 58, 60, -1,
                                    62, 60, 61, -1, 63, 57, 56, -1,
                                    63, 60, 62, -1, 63, 56, 60, -1,
                                    64, 65, 66, -1, 64, 66, 67, -1,
                                    70, 68, 69, -1, 70, 71, 68, -1,
                                    74, 72, 73, -1, 74, 75, 72, -1,
                                    79, 76, 77, -1, 78, 79, 77, -1,
                                    82, 80, 81, -1, 82, 83, 80, -1,
                                    87, 84, 85, -1, 87, 85, 86, -1,
                                    90, 89, 88, -1, 93, 95, 89, -1,
                                    93, 89, 90, -1, 94, 95, 93, -1,
                                    91, 93, 90, -1, 92, 93, 91, -1,
                                    97, 96, 98, -1, 97, 98, 99, -1,
                                    100, 102, 103, -1, 100, 103, 104, -1,
                                    106, 104, 105, -1, 106, 100, 104, -1,
                                    107, 101, 100, -1, 107, 100, 106, -1,
                                    110, 108, 109, -1, 110, 111, 108, -1,
                                    113, 115, 112, -1, 114, 115, 113, -1,
                                    118, 116, 117, -1, 118, 119, 116, -1,
                                    122, 120, 121, -1, 122, 123, 120, -1,
                                    127, 124, 125, -1, 126, 127, 125, -1,
                                    131, 128, 129, -1, 131, 129, 130, -1,
                                    135, 132, 134, -1, 166, 165, 132, -1,
                                    164, 132, 165, -1, 167, 132, 135, -1,
                                    167, 166, 132, -1, 163, 132, 164, -1,
                                    168, 167, 135, -1, 138, 140, 171, -1,
                                    138, 139, 140, -1, 162, 132, 163, -1,
                                    138, 150, 149, -1, 138, 151, 150, -1,
                                    138, 143, 151, -1, 138, 170, 143, -1,
                                    138, 171, 170, -1, 169, 168, 135, -1,
                                    137, 142, 136, -1, 137, 144, 142, -1,
                                    137, 145, 144, -1, 137, 146, 145, -1,
                                    161, 132, 162, -1, 137, 147, 146, -1,
                                    137, 148, 147, -1, 137, 149, 148, -1,
                                    152, 169, 135, -1, 137, 138, 149, -1,
                                    160, 152, 135, -1, 159, 160, 135, -1,
                                    158, 135, 136, -1, 158, 159, 135, -1,
                                    157, 158, 136, -1, 156, 157, 136, -1,
                                    140, 133, 132, -1, 140, 141, 133, -1,
                                    140, 174, 173, -1, 140, 175, 174, -1,
                                    140, 176, 175, -1, 140, 177, 176, -1,
                                    140, 161, 177, -1, 140, 132, 161, -1,
                                    155, 156, 136, -1, 172, 140, 173, -1,
                                    154, 155, 136, -1, 171, 140, 172, -1,
                                    153, 154, 136, -1, 142, 153, 136, -1,
                                    197, 178, 180, -1, 197, 189, 178, -1,
                                    196, 180, 181, -1, 196, 197, 180, -1,
                                    195, 181, 182, -1, 195, 196, 181, -1,
                                    194, 182, 183, -1, 194, 195, 182, -1,
                                    193, 183, 184, -1, 193, 194, 183, -1,
                                    192, 184, 185, -1, 192, 193, 184, -1,
                                    191, 185, 186, -1, 191, 192, 185, -1,
                                    190, 186, 187, -1, 190, 191, 186, -1,
                                    188, 187, 179, -1, 188, 190, 187, -1,
                                    199, 204, 205, -1, 212, 211, 204, -1,
                                    210, 204, 211, -1, 213, 204, 199, -1,
                                    213, 212, 204, -1, 209, 204, 210, -1,
                                    201, 203, 218, -1, 201, 202, 203, -1,
                                    214, 213, 199, -1, 201, 217, 216, -1,
                                    201, 218, 217, -1, 208, 204, 209, -1,
                                    201, 232, 231, -1, 201, 233, 232, -1,
                                    201, 216, 233, -1, 200, 201, 231, -1,
                                    200, 225, 198, -1, 200, 226, 225, -1,
                                    215, 214, 199, -1, 200, 227, 226, -1,
                                    200, 228, 227, -1, 200, 229, 228, -1,
                                    200, 230, 229, -1, 200, 231, 230, -1,
                                    206, 204, 208, -1, 207, 215, 199, -1,
                                    234, 207, 199, -1, 235, 199, 198, -1,
                                    235, 234, 199, -1, 236, 235, 198, -1,
                                    237, 236, 198, -1, 203, 221, 220, -1,
                                    203, 222, 221, -1, 203, 223, 222, -1,
                                    203, 224, 223, -1, 203, 206, 224, -1,
                                    203, 204, 206, -1, 238, 237, 198, -1,
                                    219, 203, 220, -1, 239, 238, 198, -1,
                                    218, 203, 219, -1, 240, 239, 198, -1,
                                    241, 240, 198, -1, 225, 241, 198, -1,
                                    253, 243, 251, -1, 261, 251, 250, -1,
                                    261, 253, 251, -1, 260, 261, 250, -1,
                                    259, 250, 249, -1, 259, 260, 250, -1,
                                    258, 249, 248, -1, 258, 259, 249, -1,
                                    257, 247, 246, -1, 257, 248, 247, -1,
                                    257, 258, 248, -1, 256, 257, 246, -1,
                                    255, 246, 245, -1, 255, 256, 246, -1,
                                    254, 245, 244, -1, 254, 255, 245, -1,
                                    252, 244, 242, -1, 252, 254, 244, -1,
                                    262, 264, 265, -1, 262, 265, 263, -1,
                                    268, 266, 267, -1, 268, 269, 266, -1,
                                    272, 270, 271, -1, 272, 273, 270, -1,
                                    276, 274, 275, -1, 276, 277, 274, -1,
                                    281, 278, 279, -1, 281, 279, 280, -1,
                                    301, 282, 284, -1, 301, 293, 282, -1,
                                    300, 284, 285, -1, 300, 301, 284, -1,
                                    299, 285, 286, -1, 299, 300, 285, -1,
                                    298, 286, 287, -1, 298, 299, 286, -1,
                                    297, 287, 288, -1, 297, 298, 287, -1,
                                    296, 288, 289, -1, 296, 297, 288, -1,
                                    295, 289, 290, -1, 295, 296, 289, -1,
                                    294, 290, 291, -1, 294, 295, 290, -1,
                                    292, 291, 283, -1, 292, 294, 291, -1,
                                    321, 302, 304, -1, 321, 313, 302, -1,
                                    320, 304, 305, -1, 320, 321, 304, -1,
                                    319, 305, 306, -1, 319, 320, 305, -1,
                                    318, 306, 307, -1, 318, 319, 306, -1,
                                    317, 307, 308, -1, 317, 318, 307, -1,
                                    316, 308, 309, -1, 316, 317, 308, -1,
                                    315, 309, 310, -1, 315, 316, 309, -1,
                                    314, 310, 311, -1, 314, 315, 310, -1,
                                    312, 311, 303, -1, 312, 314, 311, -1 ]
                                ccw TRUE
                                solid FALSE
                                convex TRUE
                                creaseAngle 0

                              }

                            }

                        },
                          
                        DEF o3 Group {
                          children 
                            Shape {
                              appearance 
                              Appearance {
                                material 
                                Material {
                                  emissiveColor 0.098039217 0.098039217 0.098039217

                                }

                              }
                              geometry 
                              PointSet {
                                coord 
                                USE o1

                              }

                            }

                        } ]

                    },
                      
                    USE o2,
                      
                    Group {
                      children [ 
                        USE o0,
                          
                        USE o3 ]

                    },
                      
                    USE o3 ]

                }

            }

        },
          
        Group {
          children 
            Transform {
              translation 0 0 0
              rotation 0 0 1  0
              scale 1 1 1
              scaleOrientation 0 0 1  0
              center 0 0 0
              children 
                Switch {
                  whichChoice 1
                  choice [ 
                    Group {
                      children [ 
                        DEF o4 Group {
                          children 
                            Shape {
                              appearance 
                              Appearance {
                                material 
                                Material {
                                  diffuseColor 0.098039217 0.098039217 0.098039217
                                  shininess 1

                                }

                              }
                              geometry 
                              IndexedLineSet {
                                coord 
                                DEF o5 Coordinate {
                                  point [ -5.1999998 5.25 0.039999999,
                                      -5.1999998 14.25 0.039999999,
                                      -5.1999998 5.25 4.54,
                                      -5.1999998 13.414336 4.54,
                                      -5.1999998 14.25 3.9907584,
                                      -5.1999998 14.25 1.4,
                                      5.1500001 14.25 0.039999999,
                                      5.1999998 14.25 0.039999999,
                                      3.8105247 14.25 0.039999999,
                                      5.1999998 5.25 0.039999999,
                                      -5.1999998 5.25 0.039999999,
                                      -5.1999998 14.25 0.039999999,
                                      -5.1500001 14.25 0.039999999,
                                      -3.8105247 14.25 0.039999999,
                                      -3.8105247 5.6160226 0.039999999,
                                      3.8105247 5.6160226 0.039999999,
                                      -5.1500001 14.25 0,
                                      -5.1500001 14.25 0.039999999,
                                      -3.8105247 14.25 0,
                                      -3.8105247 14.25 0.039999999,
                                      3.8105247 5.6160226 0,
                                      3.8105247 5.6160226 0.039999999,
                                      3.8105247 14.25 0,
                                      3.8105247 14.25 0.039999999,
                                      -5.1999998 14.25 3.9907584,
                                      5.1999998 14.25 3.9907584,
                                      -5.1999998 13.414336 4.54,
                                      5.1999998 13.414336 4.54,
                                      -5.1999998 5.25 4.54,
                                      5.1999998 5.25 4.54,
                                      -5.1999998 5.25 0.039999999,
                                      5.1999998 5.25 0.039999999,
                                      -1.79 5.25 3.0999999,
                                      -3.29 5.25 3.0999999,
                                      -1.79 5.25 2.5,
                                      -3.29 5.25 2.5,
                                      0.75 5.25 3.0999999,
                                      -0.75 5.25 3.0999999,
                                      0.75 5.25 2.5,
                                      -0.75 5.25 2.5,
                                      3.29 5.25 3.0999999,
                                      1.79 5.25 3.0999999,
                                      3.29 5.25 2.5,
                                      1.79 5.25 2.5,
                                      -3.8105247 5.6160226 0,
                                      -3.8105247 5.6160226 0.039999999,
                                      3.8105247 5.6160226 0,
                                      3.8105247 5.6160226 0.039999999,
                                      -3.8105247 14.25 0.039999999,
                                      -3.8105247 14.25 0,
                                      -3.8105247 5.6160226 0,
                                      -3.8105247 5.6160226 0.039999999,
                                      5.1999998 14.25 3.9907584,
                                      5.1999998 13.414336 4.54,
                                      5.1999998 5.25 4.54,
                                      5.1999998 5.25 0.039999999,
                                      5.1999998 14.25 0.039999999,
                                      5.1999998 14.25 1.4,
                                      -5.1999998 14.25 0.039999999,
                                      -5.1999998 14.25 1.4,
                                      -5.1999998 14.25 3.9907584,
                                      5.1999998 14.25 3.9907584,
                                      5.1999998 14.25 1.4,
                                      5.1999998 14.25 0.039999999,
                                      5.1500001 14.25 0.039999999,
                                      5.1500001 14.25 1.4,
                                      -5.1500001 14.25 1.4,
                                      -5.1500001 14.25 0.039999999,
                                      3.8105247 14.25 0.039999999,
                                      3.8105247 14.25 0,
                                      5.1500001 14.25 0,
                                      5.1500001 14.25 0.039999999,
                                      5.1999998 13.414336 4.54,
                                      -5.1999998 13.414336 4.54,
                                      -5.1999998 5.25 4.54,
                                      5.1999998 5.25 4.54,
                                      -5.1999998 5.25 0.039999999,
                                      -5.1999998 14.25 0.039999999,
                                      -5.1999998 5.25 4.54,
                                      -5.1999998 13.414336 4.54,
                                      -5.1999998 14.25 3.9907584,
                                      -5.1999998 14.25 1.4,
                                      5.1500001 14.25 0.039999999,
                                      5.1999998 14.25 0.039999999,
                                      3.8105247 14.25 0.039999999,
                                      5.1999998 5.25 0.039999999,
                                      -5.1500001 14.25 0.039999999,
                                      -3.8105247 14.25 0.039999999,
                                      -3.8105247 5.6160226 0.039999999,
                                      3.8105247 5.6160226 0.039999999,
                                      -5.1500001 14.25 0,
                                      -3.8105247 14.25 0,
                                      3.8105247 5.6160226 0,
                                      3.8105247 14.25 0,
                                      5.1999998 14.25 3.9907584,
                                      5.1999998 13.414336 4.54,
                                      5.1999998 5.25 4.54,
                                      -1.79 5.25 3.0999999,
                                      -3.29 5.25 3.0999999,
                                      -1.79 5.25 2.5,
                                      -3.29 5.25 2.5,
                                      0.75 5.25 3.0999999,
                                      -0.75 5.25 3.0999999,
                                      0.75 5.25 2.5,
                                      -0.75 5.25 2.5,
                                      3.29 5.25 3.0999999,
                                      1.79 5.25 3.0999999,
                                      3.29 5.25 2.5,
                                      1.79 5.25 2.5,
                                      -3.8105247 5.6160226 0,
                                      5.1999998 14.25 1.4,
                                      5.1500001 14.25 1.4,
                                      -5.1500001 14.25 1.4,
                                      5.1500001 14.25 0 ]

                                }
                                coordIndex [ 0, 1, -1, 2, 0, -1, 3, 2,
                                    -1, 4, 3, -1, 5, 4, -1, 1,
                                    5, -1, 6, 7, -1, 6, 8, -1,
                                    9, 7, -1, 10, 9, -1, 12, 13,
                                    -1, 12, 11, -1, 14, 13, -1, 15,
                                    14, -1, 8, 15, -1, 16, 17, -1,
                                    18, 16, -1, 19, 18, -1, 20, 21,
                                    -1, 22, 20, -1, 23, 22, -1, 24,
                                    25, -1, 27, 26, -1, 25, 27, -1,
                                    28, 29, -1, 31, 29, -1, 32, 33,
                                    -1, 34, 32, -1, 35, 34, -1, 33,
                                    35, -1, 36, 37, -1, 38, 36, -1,
                                    39, 38, -1, 37, 39, -1, 40, 41,
                                    -1, 42, 40, -1, 43, 42, -1, 41,
                                    43, -1, 44, 45, -1, 46, 44, -1,
                                    50, 49, -1, 54, 53, -1, 57, 56,
                                    -1, 52, 57, -1, 65, 64, -1, 66,
                                    65, -1, 67, 66, -1, 70, 69, -1,
                                    71, 70, -1 ]

                              }

                            }

                        },
                          
                        DEF o6 Group {
                          children 
                            Shape {
                              appearance 
                              Appearance {
                                material 
                                Material {
                                  diffuseColor 0 0 0
                                  ambientIntensity 0.1
                                  specularColor 0.059999999 0.059999999 0.059999999
                                  shininess 0.0077999998

                                }

                              }
                              geometry 
                              IndexedFaceSet {
                                coord 
                                USE o5
                                coordIndex [ 5, 3, 4, -1, 0, 2, 3, -1,
                                    0, 5, 1, -1, 0, 3, 5, -1,
                                    11, 14, 10, -1, 12, 14, 11, -1,
                                    13, 14, 12, -1, 6, 15, 8, -1,
                                    7, 9, 15, -1, 7, 15, 6, -1,
                                    9, 10, 14, -1, 9, 14, 15, -1,
                                    18, 17, 16, -1, 19, 17, 18, -1,
                                    22, 21, 20, -1, 23, 21, 22, -1,
                                    27, 25, 24, -1, 27, 24, 26, -1,
                                    35, 33, 28, -1, 30, 35, 28, -1,
                                    32, 28, 33, -1, 34, 35, 30, -1,
                                    37, 28, 32, -1, 39, 32, 34, -1,
                                    39, 37, 32, -1, 39, 34, 30, -1,
                                    36, 28, 37, -1, 38, 39, 30, -1,
                                    41, 36, 38, -1, 43, 41, 38, -1,
                                    29, 41, 40, -1, 29, 36, 41, -1,
                                    29, 28, 36, -1, 42, 29, 40, -1,
                                    31, 42, 43, -1, 31, 38, 30, -1,
                                    31, 43, 38, -1, 31, 29, 42, -1,
                                    46, 45, 44, -1, 47, 45, 46, -1,
                                    51, 48, 49, -1, 51, 49, 50, -1,
                                    53, 54, 55, -1, 57, 52, 53, -1,
                                    57, 53, 55, -1, 56, 57, 55, -1,
                                    59, 67, 58, -1, 66, 67, 59, -1,
                                    60, 66, 59, -1, 62, 63, 64, -1,
                                    62, 64, 65, -1, 61, 65, 66, -1,
                                    61, 66, 60, -1, 61, 62, 65, -1,
                                    70, 68, 69, -1, 71, 68, 70, -1,
                                    75, 72, 73, -1, 75, 73, 74, -1 ]
                                ccw TRUE
                                solid FALSE
                                convex TRUE
                                creaseAngle 0

                              }

                            }

                        },
                          
                        DEF o7 Group {
                          children 
                            Shape {
                              appearance 
                              Appearance {
                                material 
                                Material {
                                  emissiveColor 0.098039217 0.098039217 0.098039217

                                }

                              }
                              geometry 
                              PointSet {
                                coord 
                                USE o5

                              }

                            }

                        } ]

                    },
                      
                    USE o6,
                      
                    Group {
                      children [ 
                        USE o4,
                          
                        USE o7 ]

                    },
                      
                    USE o7 ]

                }

            }

        } ]

    }

}
